1,-2.999218702316284,-1.1385793685913086,-1.7876859903335571,-2.5744166374206543
100,-2.6969330310821533,-1.4438446760177612,-1.7976021766662598,-3.33316707611084
200,-2.498396635055542,-1.4153990745544434,-1.5988913774490356,-3.108649492263794
300,-2.4243593215942383,-1.3743345737457275,-1.5126399993896484,-3.011167049407959
400,-2.472883462905884,-1.4623502492904663,-1.5619463920593262,-3.085367202758789
500,-2.4830353260040283,-1.4961490631103516,-1.5811941623687744,-3.048739433288574
600,-2.5505058765411377,-1.4940752983093262,-1.5996984243392944,-3.1376500129699707
700,-2.5631561279296875,-1.5193445682525635,-1.5804280042648315,-3.1434214115142822
800,-2.5899152755737305,-1.5744655132293701,-1.6159306764602661,-3.1353442668914795
900,-2.604991912841797,-1.5723215341567993,-1.6281790733337402,-3.1849565505981445
1000,-2.5738916397094727,-1.5885847806930542,-1.6487252712249756,-3.1691958904266357
1100,-2.6476168632507324,-1.5515049695968628,-1.6378856897354126,-3.16335129737854
1200,-2.712660312652588,-1.6424546241760254,-1.7202497720718384,-3.2748303413391113
1300,-2.6644177436828613,-1.587005853652954,-1.6488114595413208,-3.195582151412964
1400,-2.661100149154663,-1.5875015258789062,-1.6536104679107666,-3.193767547607422
1500,-2.62392258644104,-1.6189591884613037,-1.6876672506332397,-3.208077907562256
1600,-2.6496200561523438,-1.634959101676941,-1.6972720623016357,-3.242276191711426
1700,-2.6307919025421143,-1.6396690607070923,-1.7247694730758667,-3.2482969760894775
1800,-2.5827252864837646,-1.669877290725708,-1.682997465133667,-3.190711498260498
1900,-2.5872294902801514,-1.6468048095703125,-1.684634804725647,-3.1798014640808105
2000,-2.670647144317627,-1.7174956798553467,-1.7357263565063477,-3.25137996673584
2100,-2.67350172996521,-1.66824471950531,-1.733760952949524,-3.2539637088775635
2200,-2.661149501800537,-1.6706446409225464,-1.6946427822113037,-3.223780393600464
2300,-2.7654335498809814,-1.7067495584487915,-1.7667285203933716,-3.2963688373565674
2400,-2.739877939224243,-1.7078208923339844,-1.7697328329086304,-3.294790744781494
2500,-2.719966173171997,-1.6927860975265503,-1.7541621923446655,-3.279114246368408
2600,-2.717938184738159,-1.6847130060195923,-1.7591142654418945,-3.296022653579712
2700,-2.7492377758026123,-1.7115778923034668,-1.7750792503356934,-3.297628402709961
2800,-2.7884058952331543,-1.7616970539093018,-1.7948007583618164,-3.333496570587158
2900,-2.8059139251708984,-1.7451670169830322,-1.7940280437469482,-3.3594038486480713
3000,-2.7480807304382324,-1.69215726852417,-1.7307095527648926,-3.279103994369507
3100,-2.7879247665405273,-1.7282891273498535,-1.7686333656311035,-3.3063292503356934
3200,-2.8200607299804688,-1.7778453826904297,-1.7934684753417969,-3.3373911380767822
3300,-2.824342727661133,-1.772849202156067,-1.7912547588348389,-3.326596736907959
3400,-2.7838022708892822,-1.752265214920044,-1.778735876083374,-3.3072097301483154
3500,-2.763584852218628,-1.7828582525253296,-1.7778304815292358,-3.2826015949249268
3600,-2.7637908458709717,-1.7785974740982056,-1.791596531867981,-3.302598237991333
3700,-2.788426160812378,-1.7891979217529297,-1.801861047744751,-3.336092472076416
3800,-2.824784994125366,-1.8006430864334106,-1.804313063621521,-3.34260630607605
3900,-2.8938546180725098,-1.8037079572677612,-1.7781776189804077,-3.329026937484741
4000,-2.8524739742279053,-1.8219624757766724,-1.7976044416427612,-3.3299834728240967
4100,-2.859170436859131,-1.820969820022583,-1.8012346029281616,-3.334165334701538
4200,-2.868119716644287,-1.8408989906311035,-1.8243920803070068,-3.3500802516937256
4300,-2.8378372192382812,-1.8360038995742798,-1.8453667163848877,-3.356506586074829
4400,-2.8171164989471436,-1.8217592239379883,-1.8404810428619385,-3.3618531227111816
4500,-2.8192174434661865,-1.8132575750350952,-1.8115713596343994,-3.32718825340271
4600,-2.8375442028045654,-1.8191076517105103,-1.8016570806503296,-3.3299055099487305
4700,-2.839124917984009,-1.8864216804504395,-1.842861533164978,-3.3601763248443604
4800,-2.8273415565490723,-1.8512578010559082,-1.8326064348220825,-3.3693747520446777
4900,-2.762209892272949,-1.826505422592163,-1.7986723184585571,-3.3008813858032227
5000,-2.802863359451294,-1.8380789756774902,-1.7932945489883423,-3.337951183319092
5100,-2.7845864295959473,-1.8032478094100952,-1.8003469705581665,-3.315833330154419
5200,-2.790663242340088,-1.8069344758987427,-1.8064606189727783,-3.3291568756103516
5300,-2.8121674060821533,-1.8335212469100952,-1.8319036960601807,-3.3648593425750732
5400,-2.8324227333068848,-1.8188179731369019,-1.8150875568389893,-3.340723752975464
5500,-2.8566906452178955,-1.8350545167922974,-1.813389539718628,-3.3422977924346924
5600,-2.8622703552246094,-1.8209975957870483,-1.7947454452514648,-3.337036371231079
5700,-2.8926446437835693,-1.851415991783142,-1.828125238418579,-3.345597267150879
5800,-2.8877453804016113,-1.8333325386047363,-1.827579379081726,-3.3479104042053223
5900,-2.9419705867767334,-1.8879704475402832,-1.8353418111801147,-3.37705659866333
6000,-2.9268746376037598,-1.874214768409729,-1.8406044244766235,-3.369479179382324
6100,-2.921510696411133,-1.8548330068588257,-1.8560813665390015,-3.3803844451904297
6200,-2.912651538848877,-1.8849632740020752,-1.8736553192138672,-3.3857462406158447
6300,-2.91774582862854,-1.8621125221252441,-1.8728313446044922,-3.3933732509613037
6400,-2.939605474472046,-1.8545440435409546,-1.8403328657150269,-3.374959707260132
6500,-2.90655779838562,-1.8136321306228638,-1.8096272945404053,-3.322326898574829
6600,-2.9824178218841553,-1.8670958280563354,-1.8489710092544556,-3.3875749111175537
6700,-2.9327285289764404,-1.8383597135543823,-1.7818037271499634,-3.3244829177856445
6800,-2.9348957538604736,-1.8329076766967773,-1.7813907861709595,-3.33280086517334
6900,-2.9771969318389893,-1.8524870872497559,-1.8049919605255127,-3.345547914505005
7000,-2.9709784984588623,-1.8836402893066406,-1.8350212574005127,-3.3999547958374023
7100,-2.974278211593628,-1.9131386280059814,-1.8759766817092896,-3.4157235622406006
7200,-2.8804121017456055,-1.8093068599700928,-1.7980865240097046,-3.3237388134002686
7300,-2.933903455734253,-1.856248378753662,-1.845102071762085,-3.387171745300293
7400,-2.9157581329345703,-1.8742581605911255,-1.8590394258499146,-3.371781587600708
7500,-2.8820769786834717,-1.8543301820755005,-1.8474963903427124,-3.3738625049591064
7600,-2.882812261581421,-1.7813674211502075,-1.8048535585403442,-3.324911594390869
7700,-2.86452317237854,-1.813682198524475,-1.8145734071731567,-3.3567442893981934
7800,-2.8801748752593994,-1.8220709562301636,-1.8146288394927979,-3.347146987915039
7900,-2.8680362701416016,-1.7982292175292969,-1.796378493309021,-3.322024345397949
8000,-2.886749505996704,-1.7955988645553589,-1.83490788936615,-3.3372297286987305
8100,-2.8469297885894775,-1.7739412784576416,-1.7969313859939575,-3.3304367065429688
8200,-2.876486301422119,-1.7868109941482544,-1.8194712400436401,-3.3481457233428955
8300,-2.8694255352020264,-1.794385313987732,-1.8310445547103882,-3.3623197078704834
8400,-2.8686389923095703,-1.7792367935180664,-1.82375168800354,-3.342350721359253
8500,-2.94167160987854,-1.8614442348480225,-1.8821606636047363,-3.4137678146362305
8600,-2.922224283218384,-1.8029078245162964,-1.8165688514709473,-3.3446030616760254
8700,-2.9371161460876465,-1.8033586740493774,-1.8443849086761475,-3.3837413787841797
8800,-2.9403347969055176,-1.8530964851379395,-1.86225426197052,-3.397813558578491
8900,-2.9355504512786865,-1.8629542589187622,-1.8588168621063232,-3.398510456085205
9000,-2.8756816387176514,-1.8304897546768188,-1.8214643001556396,-3.3390750885009766
9100,-2.893547773361206,-1.8226925134658813,-1.8184661865234375,-3.352943181991577
9200,-2.886237859725952,-1.81355619430542,-1.819043517112732,-3.3514792919158936
9300,-2.882270336151123,-1.8197287321090698,-1.8323944807052612,-3.3543941974639893
9400,-2.8855037689208984,-1.8285844326019287,-1.8373321294784546,-3.3628220558166504
9500,-2.8848986625671387,-1.8213456869125366,-1.8368769884109497,-3.360856533050537
9600,-2.888410806655884,-1.8218692541122437,-1.8373552560806274,-3.363546848297119
9700,-2.8937771320343018,-1.82318913936615,-1.8375680446624756,-3.367159605026245
9800,-2.889444351196289,-1.822743535041809,-1.8376166820526123,-3.363720417022705
9900,-2.888010025024414,-1.817141056060791,-1.835010290145874,-3.3636229038238525
10000,-2.8879189491271973,-1.8161200284957886,-1.8363062143325806,-3.364037275314331
