0,-2.552978515625,-1.707611083984375,-1.74945068359375,-1.5596771240234375
1,-2.621701955795288,-1.784666895866394,-1.818174123764038,-1.6470377445220947
2,-2.667827606201172,-1.8371142148971558,-1.8642997741699219,-1.6960468292236328
3,-2.7097294330596924,-1.8910880088806152,-1.906201720237732,-1.7414747476577759
4,-2.742955207824707,-1.9243137836456299,-1.9394274950027466,-1.7839328050613403
5,-2.7875723838806152,-1.9926447868347168,-1.9840446710586548,-1.8285499811172485
6,-2.826138496398926,-2.0312108993530273,-2.0350193977355957,-1.8872159719467163
7,-2.8598737716674805,-2.067129611968994,-2.0940887928009033,-1.9209511280059814
8,-2.890951633453369,-2.1145386695861816,-2.1219987869262695,-1.948644757270813
9,-2.921327590942383,-2.1402318477630615,-2.1499664783477783,-1.979824185371399
10,-2.9501945972442627,-2.159914970397949,-2.169649600982666,-2.0050861835479736
11,-2.978294849395752,-2.1880152225494385,-2.1977498531341553,-2.0389578342437744
12,-2.991751194000244,-2.2028815746307373,-2.229515790939331,-2.079500675201416
13,-3.0145418643951416,-2.2205240726470947,-2.24467396736145,-2.0960941314697266
14,-3.020897388458252,-2.2546966075897217,-2.258105516433716,-2.117295265197754
15,-3.0314865112304688,-2.2652857303619385,-2.266732931137085,-2.1278843879699707
16,-3.044334650039673,-2.2856011390686035,-2.279581069946289,-2.146618366241455
17,-3.0271105766296387,-2.3137927055358887,-2.3138484954833984,-2.186350107192993
18,-3.0401759147644043,-2.3268580436706543,-2.326913833618164,-2.212301731109619
19,-3.0070769786834717,-2.338611125946045,-2.3567614555358887,-2.231323480606079
20,-3.0202443599700928,-2.367495536804199,-2.3758440017700195,-2.25040602684021
21,-2.9839019775390625,-2.3950583934783936,-2.3826377391815186,-2.2860639095306396
22,-2.9701130390167236,-2.405154228210449,-2.392733573913574,-2.309814453125
23,-2.962019681930542,-2.4055399894714355,-2.3931193351745605,-2.3102002143859863
24,-2.9759960174560547,-2.4195163249969482,-2.415987730026245,-2.324176549911499
25,-2.9786882400512695,-2.430898666381836,-2.4278039932250977,-2.3447303771972656
26,-2.9858837127685547,-2.438094139099121,-2.434999465942383,-2.351925849914551
27,-2.996279716491699,-2.444230794906616,-2.4453954696655273,-2.3623218536376953
28,-2.962616443634033,-2.4491987228393555,-2.464999198913574,-2.3672897815704346
29,-2.956778049468994,-2.457740545272827,-2.5045039653778076,-2.3805348873138428
30,-2.917198896408081,-2.4673659801483154,-2.514341354370117,-2.3903722763061523
31,-2.9158458709716797,-2.466012954711914,-2.512988328933716,-2.389019250869751
32,-2.922267198562622,-2.4724233150482178,-2.5183825492858887,-2.394413471221924
33,-2.918755531311035,-2.4665839672088623,-2.5148708820343018,-2.390901803970337
34,-2.911071538925171,-2.4580249786376953,-2.5063118934631348,-2.3910741806030273
35,-2.887305498123169,-2.4605488777160645,-2.508835792541504,-2.408888816833496
36,-2.9023220539093018,-2.4755654335021973,-2.5399577617645264,-2.4526994228363037
37,-2.90535831451416,-2.4799230098724365,-2.542003631591797,-2.4451704025268555
38,-2.8992044925689697,-2.4739885330200195,-2.53606915473938,-2.4450924396514893
39,-2.8736305236816406,-2.4769134521484375,-2.538994073867798,-2.438270330429077
40,-2.8808250427246094,-2.4947457313537598,-2.5446512699127197,-2.443927526473999
41,-2.888288736343384,-2.4842188358306885,-2.544435739517212,-2.4457831382751465
42,-2.8850624561309814,-2.4858884811401367,-2.54610538482666,-2.444563150405884
43,-2.8904504776000977,-2.4908335208892822,-2.5551717281341553,-2.462557554244995
44,-2.9009478092193604,-2.502955198287964,-2.5594866275787354,-2.486258029937744
45,-2.9026308059692383,-2.504638195037842,-2.578885078430176,-2.487941026687622
46,-2.908027172088623,-2.5100345611572266,-2.5842814445495605,-2.493337392807007
47,-2.909283399581909,-2.511730432510376,-2.5855376720428467,-2.494593620300293
48,-2.9095659255981445,-2.5120129585266113,-2.585820198059082,-2.4948761463165283
49,-2.898146867752075,-2.510469913482666,-2.590930461883545,-2.493333101272583
50,-2.9021644592285156,-2.5144875049591064,-2.5949480533599854,-2.4972424507141113
51,-2.9185240268707275,-2.534762382507324,-2.6113076210021973,-2.5044174194335938
52,-2.9126882553100586,-2.5225327014923096,-2.602832078933716,-2.4859983921051025
53,-2.8917312622070312,-2.5381388664245605,-2.6073808670043945,-2.4991047382354736
54,-2.8974785804748535,-2.5419654846191406,-2.6132073402404785,-2.5049312114715576
55,-2.8904335498809814,-2.5452802181243896,-2.6127665042877197,-2.5082459449768066
56,-2.892899513244629,-2.547746181488037,-2.615232467651367,-2.512535810470581
57,-2.873682737350464,-2.564419746398926,-2.633237838745117,-2.5292093753814697
58,-2.8755271434783936,-2.5688343048095703,-2.635082244873047,-2.536944627761841
59,-2.8698112964630127,-2.5605108737945557,-2.629366397857666,-2.53122878074646
60,-2.872119903564453,-2.555899143218994,-2.628308057785034,-2.533130168914795
61,-2.8783483505249023,-2.5621275901794434,-2.6345365047454834,-2.539358615875244
62,-2.8713626861572266,-2.563021421432495,-2.6160712242126465,-2.538350820541382
63,-2.8693795204162598,-2.588916063308716,-2.617070198059082,-2.536367654800415
64,-2.872770309448242,-2.584743022918701,-2.6204609870910645,-2.5397584438323975
65,-2.8751604557037354,-2.5871331691741943,-2.6228511333465576,-2.5421485900878906
66,-2.8669145107269287,-2.589519739151001,-2.6252377033233643,-2.548417091369629
67,-2.872480869293213,-2.5896646976470947,-2.6194114685058594,-2.5743136405944824
68,-2.866492509841919,-2.578240156173706,-2.606933116912842,-2.575294017791748
69,-2.8792130947113037,-2.590960741043091,-2.6225595474243164,-2.5872623920440674
70,-2.870087146759033,-2.5847678184509277,-2.6163666248321533,-2.5855166912078857
71,-2.8745367527008057,-2.5892174243927,-2.6060192584991455,-2.59446382522583
72,-2.879420757293701,-2.5953903198242188,-2.612192153930664,-2.6006367206573486
73,-2.8619258403778076,-2.595931053161621,-2.6127328872680664,-2.6066784858703613
74,-2.8567278385162354,-2.5904953479766846,-2.6066057682037354,-2.601480484008789
75,-2.854271650314331,-2.5871334075927734,-2.604149580001831,-2.6072099208831787
76,-2.8683855533599854,-2.6012473106384277,-2.6182634830474854,-2.631438970565796
77,-2.8658714294433594,-2.5963683128356934,-2.626544237136841,-2.6264843940734863
78,-2.8724958896636963,-2.603874444961548,-2.6331686973571777,-2.6331088542938232
79,-2.8654263019561768,-2.600463628768921,-2.626099109649658,-2.624952793121338
80,-2.8482298851013184,-2.6008331775665283,-2.6264686584472656,-2.6253223419189453
81,-2.839841604232788,-2.592444896697998,-2.6180803775787354,-2.61972713470459
82,-2.841881513595581,-2.5745747089385986,-2.6361188888549805,-2.621767044067383
83,-2.8432533740997314,-2.5745534896850586,-2.6337954998016357,-2.6197831630706787
84,-2.84470796585083,-2.5760080814361572,-2.6361429691314697,-2.6212377548217773
85,-2.849475622177124,-2.580775737762451,-2.6427972316741943,-2.6260054111480713
86,-2.8543684482574463,-2.5812649726867676,-2.6476900577545166,-2.627824068069458
87,-2.863297700881958,-2.5901942253112793,-2.6566193103790283,-2.6357312202453613
88,-2.8656628131866455,-2.592559337615967,-2.658984422683716,-2.638096332550049
89,-2.863466501235962,-2.5964088439941406,-2.6567881107330322,-2.6359000205993652
90,-2.8539960384368896,-2.588315486907959,-2.6486947536468506,-2.6278066635131836
91,-2.849318027496338,-2.590425729751587,-2.652876615524292,-2.6260623931884766
92,-2.84740948677063,-2.592843532562256,-2.646961212158203,-2.622969627380371
93,-2.846896171569824,-2.593661308288574,-2.6525614261627197,-2.6208748817443848
94,-2.847189426422119,-2.594613552093506,-2.65407395362854,-2.6249005794525146
95,-2.846250057220459,-2.594043731689453,-2.6575448513031006,-2.62605357170105
96,-2.8418545722961426,-2.5898795127868652,-2.655909538269043,-2.6240530014038086
97,-2.839254856109619,-2.5891101360321045,-2.6558139324188232,-2.626777172088623
98,-2.839425563812256,-2.59057879447937,-2.6574864387512207,-2.6309878826141357
99,-2.839980125427246,-2.5920908451080322,-2.659148931503296,-2.6345226764678955
100,-2.8393588066101074,-2.592087507247925,-2.659370183944702,-2.6354682445526123
