0,0.10000000149011612
1,0.431140273809433
2,0.40225884318351746
3,0.37516453862190247
4,0.3496450185775757
5,0.32829320430755615
6,0.31088751554489136
7,0.296545147895813
8,0.2851915955543518
9,0.27557823061943054
10,0.26917392015457153
11,0.2604808211326599
12,0.25508782267570496
13,0.25151023268699646
14,0.24884405732154846
15,0.24638600647449493
16,0.24447020888328552
17,0.24176082015037537
18,0.2399381846189499
19,0.2386893481016159
20,0.23825444281101227
21,0.23743323981761932
22,0.23711775243282318
23,0.23680883646011353
24,0.23678351938724518
25,0.23651137948036194
26,0.23627310991287231
27,0.2362554520368576
28,0.23559747636318207
29,0.23553164303302765
30,0.2352934032678604
31,0.23510527610778809
32,0.23491302132606506
33,0.2348925620317459
34,0.23487821221351624
35,0.23448966443538666
36,0.2342241406440735
37,0.2340153157711029
38,0.23413516581058502
39,0.234233096241951
40,0.23425008356571198
41,0.23394469916820526
42,0.23387080430984497
43,0.2339756041765213
44,0.23374758660793304
45,0.23399454355239868
46,0.23401294648647308
47,0.23374097049236298
48,0.23378802835941315
49,0.2338024079799652
50,0.23365338146686554
51,0.23358610272407532
52,0.23340585827827454
53,0.23330576717853546
54,0.2334427535533905
55,0.23334799706935883
56,0.23340967297554016
57,0.2332209199666977
58,0.23333010077476501
59,0.23349380493164062
60,0.23318956792354584
61,0.23302043974399567
62,0.23317499458789825
63,0.23338134586811066
64,0.2333531379699707
65,0.23341971635818481
66,0.23317787051200867
67,0.23308615386486053
68,0.2331821173429489
69,0.23348282277584076
70,0.23345674574375153
71,0.23336490988731384
72,0.2333759367465973
73,0.23327630758285522
74,0.23335511982440948
75,0.23308661580085754
76,0.2331082969903946
77,0.2331421971321106
78,0.2330615073442459
79,0.2327980399131775
80,0.23264673352241516
81,0.23284274339675903
82,0.2327415645122528
83,0.23245128989219666
84,0.23254621028900146
85,0.23275502026081085
86,0.2327444851398468
87,0.2329932302236557
88,0.23280537128448486
89,0.23269984126091003
90,0.23269672691822052
91,0.23262053728103638
92,0.23251259326934814
93,0.2325415164232254
94,0.23256570100784302
95,0.23250901699066162
96,0.23250189423561096
97,0.23244863748550415
98,0.23240971565246582
99,0.2323460578918457
100,0.23231731355190277
