1,-2.0516135692596436,-1.517678141593933,-1.608614444732666,-2.2708518505096436
100,-2.0999345779418945,-1.430912733078003,-1.6516146659851074,-2.853881359100342
200,-2.0748708248138428,-1.3330957889556885,-1.5092506408691406,-2.7983031272888184
300,-2.083179473876953,-1.3128092288970947,-1.4936579465866089,-2.7997539043426514
400,-2.141629219055176,-1.2951254844665527,-1.4365719556808472,-2.81323504447937
500,-2.172772169113159,-1.2881919145584106,-1.4410895109176636,-2.808478355407715
600,-2.1902730464935303,-1.2708600759506226,-1.3916815519332886,-2.8218088150024414
700,-2.281569719314575,-1.2739092111587524,-1.3988816738128662,-2.8476123809814453
800,-2.252049684524536,-1.269633412361145,-1.4161121845245361,-2.8637478351593018
900,-2.2977380752563477,-1.275882363319397,-1.4212843179702759,-2.8996570110321045
1000,-2.27445912361145,-1.287750005722046,-1.429165005683899,-2.8857500553131104
1100,-2.29400634765625,-1.2921674251556396,-1.4215859174728394,-2.887263298034668
1200,-2.3259778022766113,-1.3194200992584229,-1.4435425996780396,-2.9262521266937256
1300,-2.372906446456909,-1.3309690952301025,-1.45833420753479,-2.924766778945923
1400,-2.4207539558410645,-1.358664631843567,-1.4879225492477417,-3.0053153038024902
1500,-2.379054307937622,-1.3259543180465698,-1.4520692825317383,-2.9608068466186523
1600,-2.429809331893921,-1.3755850791931152,-1.4729074239730835,-2.9664788246154785
1700,-2.399935722351074,-1.3337147235870361,-1.4198579788208008,-2.955860137939453
1800,-2.4676601886749268,-1.3893535137176514,-1.4946844577789307,-3.0133161544799805
1900,-2.463120222091675,-1.3754256963729858,-1.4954564571380615,-3.022251605987549
2000,-2.473625659942627,-1.4171061515808105,-1.517249345779419,-3.0232250690460205
2100,-2.5129308700561523,-1.4503920078277588,-1.5462706089019775,-3.037306547164917
2200,-2.4951136112213135,-1.4341652393341064,-1.5145392417907715,-3.0232439041137695
2300,-2.4873485565185547,-1.43109130859375,-1.5078084468841553,-3.036205768585205
2400,-2.5283775329589844,-1.4934296607971191,-1.5578135251998901,-3.0690088272094727
2500,-2.5358455181121826,-1.4984807968139648,-1.545041799545288,-3.0610883235931396
2600,-2.6328883171081543,-1.5561634302139282,-1.5956287384033203,-3.1257293224334717
2700,-2.574199914932251,-1.549219012260437,-1.6023592948913574,-3.122051239013672
2800,-2.568706512451172,-1.5378055572509766,-1.58965265750885,-3.1287052631378174
2900,-2.6134870052337646,-1.5602730512619019,-1.584779977798462,-3.129899501800537
3000,-2.637315511703491,-1.574237585067749,-1.6032642126083374,-3.11708664894104
3100,-2.634855270385742,-1.5711841583251953,-1.604321002960205,-3.1248035430908203
3200,-2.6363799571990967,-1.5784072875976562,-1.6196885108947754,-3.131471872329712
3300,-2.6080706119537354,-1.513075828552246,-1.585805058479309,-3.117626905441284
3400,-2.6137547492980957,-1.5497913360595703,-1.6243306398391724,-3.1524696350097656
3500,-2.6437747478485107,-1.5717171430587769,-1.598747968673706,-3.138258218765259
3600,-2.5534605979919434,-1.5143228769302368,-1.5689202547073364,-3.0935556888580322
3700,-2.571032762527466,-1.4987245798110962,-1.5590696334838867,-3.0768039226531982
3800,-2.5680902004241943,-1.5024031400680542,-1.5677967071533203,-3.0851693153381348
3900,-2.583132028579712,-1.5189520120620728,-1.58585786819458,-3.127768039703369
4000,-2.595606565475464,-1.52389657497406,-1.580216884613037,-3.1065585613250732
4100,-2.606416940689087,-1.5525000095367432,-1.591346025466919,-3.122866630554199
4200,-2.5802977085113525,-1.5375396013259888,-1.598151445388794,-3.137195110321045
4300,-2.5932507514953613,-1.5358353853225708,-1.5952801704406738,-3.121335029602051
4400,-2.6760971546173096,-1.574002981185913,-1.631824254989624,-3.184518575668335
4500,-2.6515257358551025,-1.5497273206710815,-1.6223180294036865,-3.165351390838623
4600,-2.6423516273498535,-1.5562562942504883,-1.5834993124008179,-3.107192039489746
4700,-2.634758949279785,-1.5847339630126953,-1.6055569648742676,-3.1402504444122314
4800,-2.6236751079559326,-1.6102980375289917,-1.605657696723938,-3.127380847930908
4900,-2.6162304878234863,-1.568349838256836,-1.5975359678268433,-3.1371853351593018
5000,-2.632065534591675,-1.5770299434661865,-1.6161906719207764,-3.1580283641815186
5100,-2.6461212635040283,-1.599743127822876,-1.659073829650879,-3.1765992641448975
5200,-2.693281888961792,-1.6253204345703125,-1.6843315362930298,-3.2210116386413574
5300,-2.7342746257781982,-1.6386032104492188,-1.7050522565841675,-3.2328598499298096
5400,-2.7290940284729004,-1.6441190242767334,-1.722373604774475,-3.2274255752563477
5500,-2.721783399581909,-1.6319013833999634,-1.6831529140472412,-3.226494073867798
5600,-2.717228889465332,-1.6349738836288452,-1.6716885566711426,-3.2147295475006104
5700,-2.685633659362793,-1.6307848691940308,-1.675903558731079,-3.198413372039795
5800,-2.703577756881714,-1.650742530822754,-1.6895674467086792,-3.2111690044403076
5900,-2.7228195667266846,-1.6454116106033325,-1.6873732805252075,-3.2220585346221924
6000,-2.681370496749878,-1.6287851333618164,-1.6648718118667603,-3.2000622749328613
6100,-2.7168357372283936,-1.6403907537460327,-1.684179663658142,-3.209606409072876
6200,-2.743936538696289,-1.6638778448104858,-1.7127485275268555,-3.235353469848633
6300,-2.731370210647583,-1.6681396961212158,-1.7180525064468384,-3.2701363563537598
6400,-2.708012104034424,-1.699467420578003,-1.736838698387146,-3.270299196243286
6500,-2.6845688819885254,-1.6512569189071655,-1.6907339096069336,-3.202120542526245
6600,-2.716984748840332,-1.6999361515045166,-1.6918708086013794,-3.216618061065674
6700,-2.711215019226074,-1.716731071472168,-1.7230814695358276,-3.229865074157715
6800,-2.655965805053711,-1.6858266592025757,-1.716269850730896,-3.204040288925171
6900,-2.6796822547912598,-1.7246280908584595,-1.7096511125564575,-3.2205686569213867
7000,-2.683875322341919,-1.7220391035079956,-1.7244237661361694,-3.228553533554077
7100,-2.6783626079559326,-1.7246065139770508,-1.6876115798950195,-3.2293102741241455
7200,-2.669877529144287,-1.7383750677108765,-1.7085094451904297,-3.202162504196167
7300,-2.734102725982666,-1.7866227626800537,-1.7429089546203613,-3.2352705001831055
7400,-2.6853630542755127,-1.7424122095108032,-1.736332654953003,-3.221510410308838
7500,-2.658709764480591,-1.6985657215118408,-1.7053974866867065,-3.2098071575164795
7600,-2.643411636352539,-1.7038449048995972,-1.6920902729034424,-3.187741994857788
7700,-2.677780866622925,-1.7540438175201416,-1.7342270612716675,-3.220210552215576
7800,-2.6983633041381836,-1.732303261756897,-1.7142378091812134,-3.231468915939331
7900,-2.681652307510376,-1.7661893367767334,-1.719651222229004,-3.2302627563476562
8000,-2.6847431659698486,-1.7288401126861572,-1.7167041301727295,-3.222670555114746
8100,-2.7000339031219482,-1.7337040901184082,-1.7386385202407837,-3.2174150943756104
8200,-2.739912509918213,-1.7267999649047852,-1.711622714996338,-3.22039794921875
8300,-2.807868242263794,-1.7452256679534912,-1.7608447074890137,-3.290886402130127
8400,-2.767630100250244,-1.6914732456207275,-1.710083246231079,-3.2365477085113525
8500,-2.798491954803467,-1.7317194938659668,-1.707029938697815,-3.240231990814209
8600,-2.7839975357055664,-1.6724562644958496,-1.6963474750518799,-3.238365650177002
8700,-2.8486833572387695,-1.7014493942260742,-1.7123844623565674,-3.277460813522339
8800,-2.8054730892181396,-1.6736241579055786,-1.7265706062316895,-3.2660720348358154
8900,-2.7753725051879883,-1.6367870569229126,-1.6954708099365234,-3.2167611122131348
9000,-2.8060357570648193,-1.6343274116516113,-1.726563572883606,-3.2541279792785645
9100,-2.829298973083496,-1.651614785194397,-1.7277755737304688,-3.2914490699768066
9200,-2.824748992919922,-1.6482940912246704,-1.7354717254638672,-3.2969210147857666
9300,-2.8275530338287354,-1.6552221775054932,-1.7288885116577148,-3.2909317016601562
9400,-2.8248291015625,-1.6516880989074707,-1.7171258926391602,-3.2848217487335205
9500,-2.8289575576782227,-1.6528829336166382,-1.7224618196487427,-3.285902738571167
9600,-2.8242909908294678,-1.6487985849380493,-1.7219130992889404,-3.283545970916748
9700,-2.8194572925567627,-1.6494815349578857,-1.723312258720398,-3.2804598808288574
9800,-2.8236286640167236,-1.6558797359466553,-1.728392481803894,-3.283400297164917
9900,-2.8257102966308594,-1.652255892753601,-1.7288554906845093,-3.2839229106903076
10000,-2.8255515098571777,-1.6497031450271606,-1.728002905845642,-3.2835140228271484
