1,0.0,0.0,0.0
100,0.1313435435295105,-0.10550794750452042,-0.02981466054916382
200,0.1512114703655243,-0.12083464860916138,-0.033042460680007935
300,0.16137875616550446,-0.13739655911922455,-0.03508853167295456
400,0.15856121480464935,-0.14344561100006104,-0.03318040817975998
500,0.15965670347213745,-0.14931252598762512,-0.034385040402412415
600,0.15973439812660217,-0.1447424739599228,-0.035566411912441254
700,0.16135743260383606,-0.14649349451065063,-0.03440999612212181
800,0.16132964193820953,-0.13997173309326172,-0.035078197717666626
900,0.17190173268318176,-0.14048850536346436,-0.034138064831495285
1000,0.17263223230838776,-0.13709959387779236,-0.03370410576462746
1100,0.1705610454082489,-0.13758611679077148,-0.03464393690228462
1200,0.1755637377500534,-0.12987560033798218,-0.033281050622463226
1300,0.17431896924972534,-0.13220125436782837,-0.03353389352560043
1400,0.17448899149894714,-0.1332339644432068,-0.03457440435886383
1500,0.17044255137443542,-0.12973225116729736,-0.031743649393320084
1600,0.16388849914073944,-0.12676973640918732,-0.031584642827510834
1700,0.1653151959180832,-0.1335255354642868,-0.03267577663064003
1800,0.1589290201663971,-0.1257644146680832,-0.03018025867640972
1900,0.15734341740608215,-0.13217228651046753,-0.03252608701586723
2000,0.15720020234584808,-0.1325143277645111,-0.033408548682928085
2100,0.16749504208564758,-0.13852818310260773,-0.030949655920267105
2200,0.16695773601531982,-0.14211854338645935,-0.03266345337033272
2300,0.16067571938037872,-0.13472428917884827,-0.031265560537576675
2400,0.16603611409664154,-0.1301775872707367,-0.03255842626094818
2500,0.1595059335231781,-0.13212113082408905,-0.030427874997258186
2600,0.1479731798171997,-0.12892930209636688,-0.030662776902318
2700,0.14735397696495056,-0.12541404366493225,-0.02982484921813011
2800,0.15086591243743896,-0.12335401773452759,-0.02865978702902794
2900,0.15060441195964813,-0.1272120475769043,-0.029543988406658173
3000,0.14898349344730377,-0.12461766600608826,-0.029350237920880318
3100,0.1370324045419693,-0.12576285004615784,-0.029557814821600914
3200,0.14053906500339508,-0.12885767221450806,-0.02981785126030445
3300,0.14468982815742493,-0.12953278422355652,-0.02964041382074356
3400,0.1449853628873825,-0.1209241971373558,-0.029582001268863678
3500,0.1414223611354828,-0.11928655207157135,-0.026918727904558182
3600,0.13987721502780914,-0.1146763414144516,-0.028015173971652985
3700,0.1385207325220108,-0.11586082726716995,-0.027409544214606285
3800,0.13909830152988434,-0.11509896069765091,-0.027576202526688576
3900,0.1410122662782669,-0.11862102150917053,-0.029068857431411743
4000,0.1369914412498474,-0.11346990615129471,-0.02678147330880165
4100,0.13525480031967163,-0.11265763640403748,-0.027018297463655472
4200,0.13534511625766754,-0.11530157178640366,-0.02787037007510662
4300,0.13775789737701416,-0.11640167236328125,-0.02774469554424286
4400,0.13435184955596924,-0.11340077221393585,-0.02471614070236683
4500,0.13734976947307587,-0.10811684280633926,-0.026096437126398087
4600,0.1374099999666214,-0.10973000526428223,-0.025722356513142586
4700,0.13453640043735504,-0.10673896223306656,-0.0256296806037426
4800,0.13808773458003998,-0.09955935925245285,-0.024541432037949562
4900,0.14318589866161346,-0.10035993903875351,-0.023945042863488197
5000,0.13991698622703552,-0.10552884638309479,-0.024873169139027596
5100,0.13226261734962463,-0.10636620968580246,-0.024863045662641525
5200,0.1313592493534088,-0.10553092509508133,-0.02565194107592106
5300,0.1349102407693863,-0.10605413466691971,-0.02671302668750286
5400,0.13134825229644775,-0.10711196810007095,-0.0261060893535614
5500,0.12918344140052795,-0.11015377193689346,-0.02573227882385254
5600,0.12833930552005768,-0.10386518388986588,-0.02504950575530529
5700,0.1283898502588272,-0.10262392461299896,-0.02314196340739727
5800,0.12473209947347641,-0.09824155271053314,-0.023427976295351982
5900,0.12727820873260498,-0.1006588339805603,-0.023456452414393425
6000,0.12566235661506653,-0.09934745728969574,-0.024156007915735245
6100,0.11950043588876724,-0.09330666065216064,-0.021317757666110992
6200,0.12047752737998962,-0.08686403930187225,-0.02121189422905445
6300,0.12655439972877502,-0.08514484763145447,-0.02102937363088131
6400,0.12618401646614075,-0.0839005634188652,-0.02109595760703087
6500,0.1299668848514557,-0.0830995962023735,-0.01998116448521614
6600,0.13174523413181305,-0.08288343995809555,-0.02191341482102871
6700,0.13505475223064423,-0.08537127822637558,-0.02123648300766945
6800,0.1311298906803131,-0.08222822099924088,-0.02156357653439045
6900,0.13051831722259521,-0.08024466782808304,-0.020152194425463676
7000,0.1336035132408142,-0.08240509778261185,-0.0209259781986475
7100,0.13578401505947113,-0.08065442740917206,-0.021463289856910706
7200,0.13622185587882996,-0.07994864135980606,-0.01992766372859478
7300,0.1362476944923401,-0.07299153506755829,-0.019095033407211304
7400,0.1385592222213745,-0.07619345188140869,-0.01859511435031891
7500,0.14631392061710358,-0.07220420241355896,-0.020534681156277657
7600,0.14793381094932556,-0.0684334859251976,-0.01904069073498249
7700,0.14685729146003723,-0.07083327323198318,-0.018866093829274178
7800,0.1462993025779724,-0.07415641099214554,-0.01937890611588955
7900,0.1421046108007431,-0.07089387625455856,-0.019526712596416473
8000,0.14614687860012054,-0.06758013367652893,-0.018784746527671814
8100,0.14856187999248505,-0.06930568069219589,-0.01720617339015007
8200,0.14718934893608093,-0.06911644339561462,-0.01985008642077446
8300,0.14863872528076172,-0.06627079844474792,-0.01727151684463024
8400,0.14623728394508362,-0.0668153390288353,-0.018937235698103905
8500,0.1460038423538208,-0.07180862128734589,-0.01886064000427723
8600,0.14311547577381134,-0.07442305982112885,-0.01947823353111744
8700,0.14492127299308777,-0.0772538036108017,-0.019484294578433037
8800,0.14620056748390198,-0.07407767325639725,-0.019091419875621796
8900,0.14043402671813965,-0.07192176580429077,-0.01931069977581501
9000,0.13994941115379333,-0.07188370078802109,-0.017338428646326065
9100,0.14574992656707764,-0.07387334108352661,-0.019390404224395752
9200,0.14544516801834106,-0.07255081087350845,-0.019457275047898293
9300,0.14412954449653625,-0.07326950877904892,-0.01985146664083004
9400,0.142448291182518,-0.0746186375617981,-0.020052729174494743
9500,0.14252862334251404,-0.07524123042821884,-0.01966744102537632
9600,0.1428600549697876,-0.07441622018814087,-0.019521109759807587
9700,0.14332853257656097,-0.07409627735614777,-0.01954730413854122
9800,0.14333081245422363,-0.07445095479488373,-0.019486865028738976
9900,0.14404742419719696,-0.07521886378526688,-0.019621454179286957
10000,0.14481067657470703,-0.0761185809969902,-0.02004636451601982
