1,0.0,0.0,0.00027155273710377514
100,0.00021949844085611403,-0.007153588347136974,-0.017178377136588097
200,-0.0055188690312206745,-0.008202757686376572,-0.02472054772078991
300,-0.0008285872172564268,-0.008497935719788074,-0.01734969951212406
400,-0.013913002796471119,-0.0295792818069458,-0.010217436589300632
500,-0.02746928483247757,-0.0244124885648489,-0.02483981102705002
600,-0.012781154364347458,-0.02047210931777954,-0.016823099926114082
700,-0.030986329540610313,-0.030359916388988495,-0.014548839069902897
800,-0.018103374168276787,-0.012736293487250805,-0.014896252192556858
900,-0.026394568383693695,-0.014047757722437382,-0.008876116946339607
1000,-0.003710184246301651,-0.010112886317074299,-0.022606926038861275
1100,0.013387436047196388,0.0030090725049376488,-0.026298098266124725
1200,0.026302065700292587,0.0011259722523391247,-0.022500012069940567
1300,0.01980862393975258,-0.00630582170560956,-0.011569485068321228
1400,0.032729536294937134,0.015110625885426998,-0.015754342079162598
1500,0.03646043315529823,0.02777968905866146,-0.009882742539048195
1600,0.03783857077360153,0.018465349450707436,-0.011495385318994522
1700,0.04175513982772827,0.016452603042125702,-0.014259327203035355
1800,0.03169775381684303,0.01677861623466015,-0.0058240084908902645
1900,0.043105579912662506,0.02158401906490326,-0.004014014732092619
2000,0.02957654558122158,0.01972837746143341,-0.006971443071961403
2100,0.028624888509511948,0.027341056615114212,0.0003812727518379688
2200,0.036683887243270874,0.023195931687951088,-0.0064196232706308365
2300,0.04930533096194267,0.022721117362380028,0.00501851225271821
2400,0.04007001221179962,0.02672070823609829,0.004522784613072872
2500,0.029484596103429794,0.0220082588493824,-0.005215845070779324
2600,0.02575765736401081,0.024528734385967255,-0.0005179052241146564
2700,0.04161864519119263,0.022657036781311035,-0.010083655826747417
2800,0.031406790018081665,0.028658954426646233,-0.008854846470057964
2900,0.030405614525079727,0.014063327573239803,-0.01008299645036459
3000,0.03326599672436714,0.025694161653518677,0.0013574814656749368
3100,0.023618513718247414,0.030206114053726196,-0.008536895737051964
3200,0.027681108564138412,0.01993456482887268,-0.015197952277958393
3300,0.029663963243365288,0.026908064261078835,-0.011954877525568008
3400,0.031813234090805054,0.0165641400963068,-0.004700847901403904
3500,0.04656961187720299,0.019687391817569733,0.0021150498650968075
3600,0.03720737248659134,0.026083480566740036,-0.0038568528834730387
3700,0.025905951857566833,0.02775871567428112,-0.008833840489387512
3800,0.03692370653152466,0.030035825446248055,0.0011459183879196644
3900,0.028481565415859222,0.01624167524278164,0.010947205126285553
4000,0.02805674821138382,0.014585305005311966,0.016875291243195534
4100,0.031722038984298706,0.025370052084326744,0.011316252872347832
4200,0.015383250080049038,0.01591922901570797,0.018109336495399475
4300,0.026893628761172295,0.026248451322317123,0.008899947628378868
4400,0.024474384263157845,0.021945487707853317,0.012923561967909336
4500,0.007485574577003717,0.02998564951121807,-0.0031284086871892214
4600,0.02358352206647396,0.015482141636312008,2.505257725715637e-06
4700,0.04021255671977997,0.02085629291832447,-0.011804703623056412
4800,0.040361806750297546,0.019310474395751953,-0.003666711039841175
4900,0.03015306405723095,0.026255598291754723,0.004166330676525831
5000,0.03762688487768173,0.01073099859058857,0.0034524607472121716
5100,0.033526718616485596,0.031150076538324356,0.006197644863277674
5200,0.0373828187584877,0.025551509112119675,0.0077827502973377705
5300,0.03496653586626053,0.010281166061758995,-0.003960626199841499
5400,0.040971819311380386,0.02093481458723545,-0.011999045498669147
5500,0.03338664397597313,0.020398607477545738,-0.010670053772628307
5600,0.04302503541111946,0.028064312413334846,-0.005213601514697075
5700,0.03561270236968994,0.02398405596613884,0.0016955980099737644
5800,0.04491056874394417,0.02630394883453846,-0.006528540048748255
5900,0.024708542972803116,0.024091728031635284,-0.010230865329504013
6000,0.029344351962208748,0.029754163697361946,-0.004061003681272268
6100,0.02679896354675293,0.022519957274198532,-0.010272094048559666
6200,0.036080144345760345,0.0227335374802351,-0.009342726320028305
6300,0.04658665880560875,0.01961616426706314,-0.009628688916563988
6400,0.036152876913547516,0.0059972722083330154,-0.0021699925418943167
6500,0.03154894337058067,0.02476710081100464,0.011090165004134178
6600,0.026788851246237755,0.021375656127929688,0.009427510201931
6700,0.024684397503733635,0.020795408636331558,0.0017845360562205315
6800,0.02254496142268181,0.02479127235710621,0.009544068947434425
6900,0.03456450626254082,0.012946072965860367,0.013334615156054497
7000,0.02697412669658661,0.013049238361418247,0.007956337183713913
7100,0.02589426375925541,0.016624080017209053,0.021039875224232674
7200,0.01642622984945774,0.02080654725432396,0.01907562091946602
7300,0.024238644167780876,0.015456547960639,-0.009764283895492554
7400,0.03282297030091286,0.026697253808379173,0.004405636806041002
7500,0.03175990656018257,0.018483098596334457,0.01730158179998398
7600,0.04141596704721451,0.02509946934878826,0.008347253315150738
7700,0.040548186749219894,0.012566681951284409,0.004746301099658012
7800,0.0332813635468483,0.025219779461622238,0.005099180154502392
7900,0.032126713544130325,0.024996835738420486,-0.009259815327823162
8000,0.04017258062958717,0.025235231965780258,-0.008145853877067566
8100,0.04298027604818344,0.022291919216513634,-0.002209930680692196
8200,0.04043860733509064,0.023512613028287888,-0.003295322647318244
8300,0.04087241366505623,0.025288933888077736,-0.006204691715538502
8400,0.03331736847758293,0.018767528235912323,-0.01105290837585926
8500,0.026555923745036125,0.011020373553037643,-0.010232821106910706
8600,0.013817653059959412,0.0014727360103279352,-0.01603897660970688
8700,0.0024361861869692802,-0.010903283022344112,-0.01704825833439827
8800,-0.0016636354848742485,-0.011916130781173706,-0.02076350711286068
8900,-0.0022598952054977417,-0.015032854862511158,-0.01900826394557953
9000,0.011191615834832191,-0.012379790656268597,-0.007382448762655258
9100,-0.0005657430738210678,-0.011271510273218155,-0.019742358475923538
9200,-0.0067362370900809765,-0.008749528788030148,-0.02362995781004429
9300,-0.002253972226753831,-0.00817108154296875,-0.023065561428666115
9400,-0.009875803254544735,-0.010388368740677834,-0.015417455695569515
9500,-0.011295482516288757,-0.0136128980666399,-0.01588541828095913
9600,-0.012672130949795246,-0.009860195219516754,-0.017437906935811043
9700,-0.012125683948397636,-0.0122336121276021,-0.017216194421052933
9800,-0.013458660803735256,-0.012411817908287048,-0.017718369141221046
9900,-0.01261306181550026,-0.010682485066354275,-0.015829816460609436
10000,-0.014353440143167973,-0.007347887847572565,-0.01459659356623888
