1,0.311309814453125,-0.44418370723724365,-0.47548866271972656,0.6195676922798157
100,0.3802655041217804,-0.4980802834033966,-0.5314128398895264,0.8056447505950928
200,0.4294089674949646,-0.4185599386692047,-0.4744907021522522,0.8467717170715332
300,0.4365253448486328,-0.39906641840934753,-0.4530041515827179,0.9265946745872498
400,0.5334740877151489,-0.3117053806781769,-0.3692682981491089,1.0295628309249878
500,0.5637189149856567,-0.25504377484321594,-0.31446781754493713,1.1054017543792725
600,0.6270846128463745,-0.20430152118206024,-0.2641981244087219,1.1476253271102905
700,0.6101959943771362,-0.23049131035804749,-0.26833727955818176,1.1435619592666626
800,0.6044135093688965,-0.20649145543575287,-0.2637576460838318,1.156930685043335
900,0.6167576313018799,-0.18321727216243744,-0.24558840692043304,1.1811200380325317
1000,0.631632924079895,-0.1803523153066635,-0.23111653327941895,1.201481819152832
1100,0.6189913749694824,-0.19299431145191193,-0.26131322979927063,1.225201964378357
1200,0.651797890663147,-0.1693868190050125,-0.20567749440670013,1.2158488035202026
1300,0.6162810325622559,-0.1774279773235321,-0.2509683668613434,1.1714658737182617
1400,0.6279201507568359,-0.14078660309314728,-0.22147412598133087,1.234183430671692
1500,0.6587317585945129,-0.13023532927036285,-0.2013791799545288,1.2281616926193237
1600,0.6436697840690613,-0.1486264020204544,-0.20483511686325073,1.2489540576934814
1700,0.6681233644485474,-0.12976869940757751,-0.18363593518733978,1.2495224475860596
1800,0.6636987924575806,-0.1540796160697937,-0.20201076567173004,1.2215471267700195
1900,0.659232497215271,-0.14996132254600525,-0.20411747694015503,1.2315565347671509
2000,0.6684162020683289,-0.1429690569639206,-0.19607655704021454,1.2506548166275024
2100,0.6723689436912537,-0.12490006536245346,-0.19788876175880432,1.268653392791748
2200,0.7401301264762878,-0.11022761464118958,-0.13699489831924438,1.3253953456878662
2300,0.7369098663330078,-0.0923396497964859,-0.15654918551445007,1.3585293292999268
2400,0.7185145616531372,-0.08596692979335785,-0.14883555471897125,1.2925087213516235
2500,0.6831843256950378,-0.09525523334741592,-0.17525693774223328,1.3176932334899902
2600,0.6923133134841919,-0.08928477019071579,-0.1688426434993744,1.2981939315795898
2700,0.6881775856018066,-0.11795680224895477,-0.1876806914806366,1.2658138275146484
2800,0.6923225522041321,-0.11605022102594376,-0.18186993896961212,1.3012439012527466
2900,0.7364946603775024,-0.08187337219715118,-0.1466304063796997,1.3085860013961792
3000,0.6896410584449768,-0.11693640053272247,-0.18201673030853271,1.2886213064193726
3100,0.6882886290550232,-0.12187270075082779,-0.18946531414985657,1.2660973072052002
3200,0.6967785358428955,-0.09293272346258163,-0.1713481992483139,1.3384922742843628
3300,0.714282214641571,-0.0975315198302269,-0.17229270935058594,1.3018919229507446
3400,0.6641135811805725,-0.08956582099199295,-0.18238717317581177,1.26563560962677
3500,0.7109719514846802,-0.13403479754924774,-0.19287264347076416,1.2699735164642334
3600,0.6899879574775696,-0.12487400323152542,-0.17122524976730347,1.2940831184387207
3700,0.7191330790519714,-0.11148877441883087,-0.18072731792926788,1.2868577241897583
3800,0.7346090078353882,-0.044010404497385025,-0.12888239324092865,1.3486204147338867
3900,0.7194450497627258,-0.07532722502946854,-0.1418173760175705,1.3659069538116455
4000,0.7340499758720398,-0.04959820210933685,-0.130436971783638,1.362119197845459
4100,0.7148076295852661,-0.06905379891395569,-0.1450309306383133,1.327170729637146
4200,0.7169026732444763,-0.05470733717083931,-0.12696680426597595,1.3625378608703613
4300,0.7483934760093689,-0.08223294466733932,-0.14275889098644257,1.3274794816970825
4400,0.7157517075538635,-0.0555415078997612,-0.12912139296531677,1.3372223377227783
4500,0.721027135848999,-0.08737765997648239,-0.14393651485443115,1.3298603296279907
4600,0.7317528128623962,-0.07271358370780945,-0.15314288437366486,1.3524028062820435
4700,0.7620381116867065,-0.04744856059551239,-0.12956896424293518,1.3789530992507935
4800,0.7717920541763306,-0.04183705523610115,-0.08462389558553696,1.3840363025665283
4900,0.6983556747436523,-0.09834319353103638,-0.14578469097614288,1.3140034675598145
5000,0.7172731161117554,-0.06644582003355026,-0.12328501790761948,1.3397406339645386
5100,0.7435437440872192,-0.05662211775779724,-0.10090841352939606,1.3713369369506836
5200,0.7300845384597778,-0.058138132095336914,-0.1249043270945549,1.3769351243972778
5300,0.7312799692153931,-0.04537176340818405,-0.13034145534038544,1.3431099653244019
5400,0.7235775589942932,-0.0781194269657135,-0.1307295560836792,1.3401429653167725
5500,0.7362415194511414,-0.08707284182310104,-0.149217888712883,1.3265466690063477
5600,0.7126120924949646,-0.09954500943422318,-0.15104760229587555,1.303572416305542
5700,0.717033326625824,-0.06470034271478653,-0.14013759791851044,1.3468438386917114
5800,0.7744947671890259,-0.008599826134741306,-0.07842306792736053,1.4345378875732422
5900,0.7767516374588013,0.0018204241059720516,-0.09053483605384827,1.4283109903335571
6000,0.7388216853141785,-0.031004950404167175,-0.10863105207681656,1.3537914752960205
6100,0.7531059384346008,-0.044595204293727875,-0.11920478940010071,1.407616376876831
6200,0.7631032466888428,-0.0556848868727684,-0.1228727176785469,1.3755953311920166
6300,0.7416020631790161,-0.04736681655049324,-0.1142459362745285,1.3439416885375977
6400,0.7204633951187134,-0.052405573427677155,-0.13227398693561554,1.3831602334976196
6500,0.738061249256134,-0.10062357038259506,-0.1390601247549057,1.3154715299606323
6600,0.7173314690589905,-0.07754389941692352,-0.1391371488571167,1.3283764123916626
6700,0.6980233192443848,-0.09374775737524033,-0.15903042256832123,1.291576623916626
6800,0.7277663946151733,-0.06004370376467705,-0.14237768948078156,1.3165857791900635
6900,0.7150646448135376,-0.01802436262369156,-0.11062277108430862,1.3713645935058594
7000,0.7558987140655518,-0.010995441116392612,-0.07939420640468597,1.4170544147491455
7100,0.8037557601928711,-0.001971506979316473,-0.07153894007205963,1.424414873123169
7200,0.7502114176750183,-0.025870058685541153,-0.091232068836689,1.376469612121582
7300,0.7744105458259583,-0.03908346965909004,-0.09193812310695648,1.4012463092803955
7400,0.761968195438385,-0.04479236155748367,-0.11649627983570099,1.3862498998641968
7500,0.7543893456459045,-0.03550450876355171,-0.09919343143701553,1.3870131969451904
7600,0.7723525166511536,0.003923321142792702,-0.0673426017165184,1.4184238910675049
7700,0.7637249231338501,-0.01052315253764391,-0.09361213445663452,1.4192923307418823
7800,0.762828528881073,-0.06306582689285278,-0.1301795393228531,1.367191195487976
7900,0.7217239737510681,-0.032932497560977936,-0.11829990148544312,1.3502452373504639
8000,0.7865206599235535,-0.037555716931819916,-0.10338226705789566,1.4047774076461792
8100,0.7561085224151611,-0.035973697900772095,-0.1051190048456192,1.4370882511138916
8200,0.7790820002555847,-0.011315734125673771,-0.07455825060606003,1.4000285863876343
8300,0.7730666995048523,-0.01723376102745533,-0.0985625684261322,1.3758662939071655
8400,0.7497280240058899,-0.07383361458778381,-0.13181832432746887,1.3571995496749878
8500,0.7245153784751892,-0.056018248200416565,-0.12914623320102692,1.3445837497711182
8600,0.7154245972633362,-0.06240696832537651,-0.1551688015460968,1.3066251277923584
8700,0.7132338285446167,-0.07135455310344696,-0.1483282893896103,1.335884690284729
8800,0.7561085820198059,-0.07557754218578339,-0.11711720377206802,1.3692457675933838
8900,0.76941978931427,-0.024827318266034126,-0.10246451944112778,1.3662861585617065
9000,0.7597476243972778,-0.053849391639232635,-0.12770546972751617,1.3764581680297852
9100,0.7724452018737793,-0.0373079888522625,-0.10164336860179901,1.3785697221755981
9200,0.7625601887702942,-0.03611999377608299,-0.10180273652076721,1.378352165222168
9300,0.7603457570075989,-0.03916221112012863,-0.10601633042097092,1.3785068988800049
9400,0.7602841258049011,-0.0362594835460186,-0.10539047420024872,1.380016565322876
9500,0.7617666721343994,-0.03495865315198898,-0.10420459508895874,1.3847829103469849
9600,0.7605427503585815,-0.035193510353565216,-0.10324424505233765,1.385280728340149
9700,0.7602141499519348,-0.0335882231593132,-0.10212546586990356,1.3881276845932007
9800,0.7597050070762634,-0.03289468213915825,-0.1018611267209053,1.3893636465072632
9900,0.7602200508117676,-0.033960748463869095,-0.10227049142122269,1.3887430429458618
10000,0.7603818774223328,-0.033784303814172745,-0.10287997126579285,1.3891448974609375
