1,0.40106201171875,0.43941575288772583,0.4310840368270874,0.4448997378349304
100,0.25418397784233093,0.23455144464969635,0.22629033029079437,0.20070770382881165
200,0.25324273109436035,0.23490113019943237,0.22567230463027954,0.20080697536468506
300,0.2541094720363617,0.2326444536447525,0.22627189755439758,0.20000913739204407
400,0.25385215878486633,0.23534844815731049,0.2251286655664444,0.2005833089351654
500,0.25284820795059204,0.2334592193365097,0.2251262664794922,0.1994590163230896
600,0.25366199016571045,0.23381836712360382,0.2259528785943985,0.19963058829307556
700,0.25322645902633667,0.2339440882205963,0.22508704662322998,0.19986771047115326
800,0.2542743980884552,0.23352856934070587,0.22643890976905823,0.19921886920928955
900,0.25446733832359314,0.23473769426345825,0.2255816012620926,0.19999657571315765
1000,0.25430938601493835,0.23381265997886658,0.22562938928604126,0.20072290301322937
1100,0.25458231568336487,0.23479971289634705,0.22568923234939575,0.19800613820552826
1200,0.2539042830467224,0.23445631563663483,0.22545167803764343,0.20034626126289368
1300,0.2542034685611725,0.23548941314220428,0.2252647429704666,0.20080283284187317
1400,0.25362664461135864,0.2342820018529892,0.2256365269422531,0.1993691474199295
1500,0.25373029708862305,0.2343214452266693,0.22512613236904144,0.199568510055542
1600,0.252560019493103,0.23499824106693268,0.22595588862895966,0.1986127495765686
1700,0.2534857988357544,0.23362214863300323,0.22527927160263062,0.20055313408374786
1800,0.25401297211647034,0.23554420471191406,0.22549620270729065,0.19932927191257477
1900,0.2545855939388275,0.2347876876592636,0.2251623570919037,0.1990291029214859
2000,0.2539009749889374,0.23471519351005554,0.22597232460975647,0.2001507580280304
2100,0.25334852933883667,0.2343364804983139,0.2254156917333603,0.20006127655506134
2200,0.25376904010772705,0.2346905916929245,0.2252836376428604,0.2001783698797226
2300,0.25303760170936584,0.2344914823770523,0.22584694623947144,0.20051024854183197
2400,0.2529180645942688,0.23491251468658447,0.22519740462303162,0.1999357044696808
2500,0.2549026906490326,0.23457388579845428,0.22581563889980316,0.19946828484535217
2600,0.253988116979599,0.23498567938804626,0.22536134719848633,0.20076487958431244
2700,0.25411510467529297,0.2340298742055893,0.22539766132831573,0.19958236813545227
2800,0.254359632730484,0.23432473838329315,0.224568709731102,0.19878196716308594
2900,0.2546083629131317,0.2348039746284485,0.22579486668109894,0.19901688396930695
3000,0.2543306350708008,0.23486800491809845,0.22638365626335144,0.20022206008434296
3100,0.2533861994743347,0.23536927998065948,0.22447247803211212,0.19897706806659698
3200,0.25407111644744873,0.23441286385059357,0.22620196640491486,0.199662983417511
3300,0.2538895905017853,0.2355743944644928,0.22555674612522125,0.19858834147453308
3400,0.25382962822914124,0.2361823320388794,0.22545692324638367,0.19967253506183624
3500,0.2526785433292389,0.23443655669689178,0.22543223202228546,0.19944043457508087
3600,0.2545040249824524,0.23498839139938354,0.22562681138515472,0.19997833669185638
3700,0.25480136275291443,0.234971284866333,0.22530153393745422,0.20098885893821716
3800,0.2537700831890106,0.23463128507137299,0.22487899661064148,0.19942151010036469
3900,0.25404271483421326,0.235136941075325,0.2260114699602127,0.19977349042892456
4000,0.2540777027606964,0.2350262850522995,0.22643440961837769,0.19900253415107727
4100,0.2528024911880493,0.23387593030929565,0.22605441510677338,0.20089435577392578
4200,0.2533402740955353,0.233798548579216,0.2263045310974121,0.19930116832256317
4300,0.25352224707603455,0.23485711216926575,0.22581273317337036,0.20004090666770935
4400,0.25412216782569885,0.23444481194019318,0.22558780014514923,0.19995371997356415
4500,0.2539338767528534,0.23532234132289886,0.2254771739244461,0.2001664787530899
4600,0.25402960181236267,0.23464901745319366,0.22580428421497345,0.20086021721363068
4700,0.25360819697380066,0.23389048874378204,0.22558872401714325,0.1995319128036499
4800,0.25385043025016785,0.23437492549419403,0.22534820437431335,0.19826646149158478
4900,0.2544825077056885,0.23522529006004333,0.2254617065191269,0.20050807297229767
5000,0.25410526990890503,0.23374652862548828,0.2266075164079666,0.19970983266830444
5100,0.2535594403743744,0.23493565618991852,0.22563683986663818,0.19939793646335602
5200,0.2534598410129547,0.23456516861915588,0.22566980123519897,0.19959993660449982
5300,0.2543623447418213,0.23483629524707794,0.22536101937294006,0.20039403438568115
5400,0.2537876069545746,0.23465801775455475,0.22641250491142273,0.19966915249824524
5500,0.2548132836818695,0.23544450104236603,0.22561629116535187,0.20035050809383392
5600,0.25334182381629944,0.2351352870464325,0.22509655356407166,0.2004513144493103
5700,0.25336605310440063,0.2351522445678711,0.22551798820495605,0.20049698650836945
5800,0.2525368630886078,0.233903169631958,0.22527272999286652,0.20072031021118164
5900,0.2548339068889618,0.23505401611328125,0.2251339852809906,0.19984005391597748
6000,0.25473546981811523,0.2355809360742569,0.22527429461479187,0.2003038227558136
6100,0.25354087352752686,0.23478832840919495,0.22572773694992065,0.20019854605197906
6200,0.2548927068710327,0.2345225065946579,0.22515758872032166,0.20025423169136047
6300,0.25385159254074097,0.23393861949443817,0.2259206622838974,0.20012149214744568
6400,0.25442472100257874,0.23453807830810547,0.2251400649547577,0.1997753530740738
6500,0.25351065397262573,0.23462718725204468,0.22568559646606445,0.20047372579574585
6600,0.25494396686553955,0.23455719649791718,0.22572387754917145,0.1997789740562439
6700,0.253865510225296,0.23509152233600616,0.2256026268005371,0.20025905966758728
6800,0.2537439167499542,0.2342926412820816,0.22534990310668945,0.200140580534935
6900,0.25367647409439087,0.23428143560886383,0.2259863018989563,0.2001875936985016
7000,0.2535221576690674,0.23371267318725586,0.22603599727153778,0.20039881765842438
7100,0.25355634093284607,0.2345019429922104,0.22619593143463135,0.19912634789943695
7200,0.2537667751312256,0.23459996283054352,0.22551248967647552,0.19957521557807922
7300,0.25459274649620056,0.23395602405071259,0.226368710398674,0.1999475508928299
7400,0.2533031404018402,0.23427510261535645,0.22558222711086273,0.19965651631355286
7500,0.2531112730503082,0.23478807508945465,0.22529999911785126,0.19970600306987762
7600,0.25265660881996155,0.23473575711250305,0.2251211702823639,0.19995152950286865
7700,0.2528965175151825,0.2344275712966919,0.22535794973373413,0.1994146704673767
7800,0.25387829542160034,0.23474262654781342,0.22613726556301117,0.20048797130584717
7900,0.25405600666999817,0.23506160080432892,0.22617104649543762,0.2005193829536438
8000,0.2535030245780945,0.23368078470230103,0.22566650807857513,0.19978491961956024
8100,0.2536793649196625,0.23428058624267578,0.22570520639419556,0.19961194694042206
8200,0.25286051630973816,0.23493003845214844,0.22525115311145782,0.19987241923809052
8300,0.2533341646194458,0.23452606797218323,0.2258252501487732,0.1992940902709961
8400,0.2535542845726013,0.23508009314537048,0.225465327501297,0.1996864676475525
8500,0.25346580147743225,0.23506858944892883,0.22563159465789795,0.1999988555908203
8600,0.25378531217575073,0.23389661312103271,0.22514043748378754,0.2004794031381607
8700,0.25386476516723633,0.23492799699306488,0.2268543243408203,0.1998741775751114
8800,0.2533877491950989,0.23432667553424835,0.22603823244571686,0.19938653707504272
8900,0.2527282238006592,0.2354830801486969,0.22524279356002808,0.20041023194789886
9000,0.25416964292526245,0.23511016368865967,0.2261466234922409,0.1993289440870285
9100,0.253523588180542,0.23470941185951233,0.22584359347820282,0.20031122863292694
9200,0.25360816717147827,0.23492133617401123,0.22574186325073242,0.2001170963048935
9300,0.25355491042137146,0.2350527048110962,0.22570136189460754,0.20010381937026978
9400,0.25383636355400085,0.23492303490638733,0.2257709950208664,0.20021872222423553
9500,0.25376397371292114,0.2348615974187851,0.22581607103347778,0.20021334290504456
9600,0.25366905331611633,0.23493872582912445,0.22590112686157227,0.20023733377456665
9700,0.253601998090744,0.23488382995128632,0.22567370533943176,0.20023566484451294
9800,0.25362759828567505,0.23479823768138885,0.2257698029279709,0.20020754635334015
9900,0.2536654770374298,0.23487812280654907,0.22577545046806335,0.20030221343040466
10000,0.2536976635456085,0.23476114869117737,0.2257821410894394,0.200216144323349
