1,1.2605435848236084
100,0.6670433282852173
200,0.6146031022071838
300,0.6092155575752258
400,0.6182428598403931
500,0.625935971736908
600,0.6203082203865051
700,0.6334376931190491
800,0.6339002847671509
900,0.6396384835243225
1000,0.6452218294143677
1100,0.6385180354118347
1200,0.6262953877449036
1300,0.6477458477020264
1400,0.665224015712738
1500,0.6527575850486755
1600,0.659317672252655
1700,0.6591441631317139
1800,0.6594763994216919
1900,0.657480001449585
2000,0.6695822477340698
2100,0.6538742184638977
2200,0.6689297556877136
2300,0.6836696863174438
2400,0.6593213677406311
2500,0.6657789945602417
2600,0.6921482086181641
2700,0.6874960660934448
2800,0.6826126575469971
2900,0.6799827814102173
3000,0.6936006546020508
3100,0.6873475909233093
3200,0.6693557500839233
3300,0.7007898092269897
3400,0.7053462862968445
3500,0.703231930732727
3600,0.6979242563247681
3700,0.6936749219894409
3800,0.7029399275779724
3900,0.6964409351348877
4000,0.7023605704307556
4100,0.7093210220336914
4200,0.6945266127586365
4300,0.7116733193397522
4400,0.6981670260429382
4500,0.6854600310325623
4600,0.7035276293754578
4700,0.7089378833770752
4800,0.7034327387809753
4900,0.7126485109329224
5000,0.7072041034698486
5100,0.7304650545120239
5200,0.7031639218330383
5300,0.688644528388977
5400,0.7076556086540222
5500,0.6931405663490295
5600,0.6763553023338318
5700,0.7245333194732666
5800,0.6835609674453735
5900,0.6864994764328003
6000,0.7085921168327332
6100,0.7161189913749695
6200,0.6763196587562561
6300,0.7080557346343994
6400,0.7066398859024048
6500,0.6916255950927734
6600,0.7175686359405518
6700,0.7252988815307617
6800,0.6935931444168091
6900,0.6800817251205444
7000,0.7116316556930542
7100,0.7285448908805847
7200,0.7096499800682068
7300,0.6769490242004395
7400,0.7146545648574829
7500,0.7104954719543457
7600,0.6957263946533203
7700,0.7275956273078918
7800,0.7148892879486084
7900,0.7196754813194275
8000,0.718288004398346
8100,0.7178556323051453
8200,0.7162562608718872
8300,0.6983043551445007
8400,0.7035081386566162
8500,0.7014496326446533
8600,0.6950680017471313
8700,0.7090448141098022
8800,0.6926556825637817
8900,0.687705934047699
9000,0.7297648191452026
9100,0.7161638140678406
9200,0.7065237760543823
9300,0.7081312537193298
9400,0.7030155062675476
9500,0.7000426054000854
9600,0.7014673352241516
9700,0.7049310803413391
9800,0.7080625891685486
9900,0.709709107875824
10000,0.7096862196922302
