1,0.0,0.0,-0.002196288900449872
100,0.14375901222229004,-0.02444159984588623,-0.005092425271868706
200,0.17215374112129211,-0.032112300395965576,-0.010014276020228863
300,0.18507646024227142,-0.034104861319065094,-0.010950026102364063
400,0.1964596062898636,-0.04149235785007477,-0.013223937712609768
500,0.20043176412582397,-0.05098192021250725,-0.015465151518583298
600,0.2040674239397049,-0.05447985231876373,-0.017511647194623947
700,0.20748646557331085,-0.058740533888339996,-0.01812342181801796
800,0.21035116910934448,-0.054596107453107834,-0.018199549987912178
900,0.21271833777427673,-0.054487183690071106,-0.017052799463272095
1000,0.21453014016151428,-0.05668384209275246,-0.016108395531773567
1100,0.21869993209838867,-0.0621526837348938,-0.0176516342908144
1200,0.21745902299880981,-0.06277713924646378,-0.01667165197432041
1300,0.2186570018529892,-0.06336979568004608,-0.01843278855085373
1400,0.2153363674879074,-0.05996980518102646,-0.016869597136974335
1500,0.21443848311901093,-0.059806205332279205,-0.014996414072811604
1600,0.21377582848072052,-0.054851870983839035,-0.015892159193754196
1700,0.21239575743675232,-0.05977345257997513,-0.015319802798330784
1800,0.21124768257141113,-0.059348851442337036,-0.01662283018231392
1900,0.2100537270307541,-0.06426148116588593,-0.017809255048632622
2000,0.20580169558525085,-0.07034251093864441,-0.01778130792081356
2100,0.20212319493293762,-0.07682284712791443,-0.01835836097598076
2200,0.2012413740158081,-0.07989407330751419,-0.019124826416373253
2300,0.19911514222621918,-0.07322339713573456,-0.020073743537068367
2400,0.1948315054178238,-0.06956930458545685,-0.018557727336883545
2500,0.1932242065668106,-0.07452794909477234,-0.019291898235678673
2600,0.18390420079231262,-0.0710316002368927,-0.01782025583088398
2700,0.18733759224414825,-0.0687154084444046,-0.019018104299902916
2800,0.18865810334682465,-0.07252368330955505,-0.018461398780345917
2900,0.18341585993766785,-0.06932809948921204,-0.01698450557887554
3000,0.1864430010318756,-0.07133153080940247,-0.017013704404234886
3100,0.18052391707897186,-0.06815881282091141,-0.01818791963160038
3200,0.1839977502822876,-0.07047587633132935,-0.01902865804731846
3300,0.18035674095153809,-0.06829624623060226,-0.017561722546815872
3400,0.1772552728652954,-0.0735524594783783,-0.019500158727169037
3500,0.1760156899690628,-0.07107394933700562,-0.01855340227484703
3600,0.1750660389661789,-0.0716085284948349,-0.018963661044836044
3700,0.1764523983001709,-0.06887322664260864,-0.018238479271531105
3800,0.17502102255821228,-0.06956294924020767,-0.018651917576789856
3900,0.17315958440303802,-0.07002189755439758,-0.018881050869822502
4000,0.17491021752357483,-0.07023527473211288,-0.019504891708493233
4100,0.1787268966436386,-0.06533638387918472,-0.01698450744152069
4200,0.1742386519908905,-0.06966547667980194,-0.019577423110604286
4300,0.17332465946674347,-0.06830942630767822,-0.01793207973241806
4400,0.17062364518642426,-0.06457743793725967,-0.017878836020827293
4500,0.1680535227060318,-0.06503953784704208,-0.016997432336211205
4600,0.16179320216178894,-0.06879648566246033,-0.017344312742352486
4700,0.1544228345155716,-0.06964129209518433,-0.01749914139509201
4800,0.15512380003929138,-0.07250089198350906,-0.01853354647755623
4900,0.15529577434062958,-0.07228893041610718,-0.018660543486475945
5000,0.15341806411743164,-0.07530487328767776,-0.0186469666659832
5100,0.15413831174373627,-0.06832578033208847,-0.01726401038467884
5200,0.1525873988866806,-0.06720414757728577,-0.01685521937906742
5300,0.1507442146539688,-0.0663079172372818,-0.018676074221730232
5400,0.14696741104125977,-0.06951455771923065,-0.01907438039779663
5500,0.14627541601657867,-0.061893660575151443,-0.017622949555516243
5600,0.14175331592559814,-0.06385383009910583,-0.017524225637316704
5700,0.1402028501033783,-0.06681398302316666,-0.01767847128212452
5800,0.13920466601848602,-0.0633804053068161,-0.016572777181863785
5900,0.1414088010787964,-0.0645797848701477,-0.016793295741081238
6000,0.1483260989189148,-0.06181374564766884,-0.01740771159529686
6100,0.14371469616889954,-0.05925817787647247,-0.015575985424220562
6200,0.14566229283809662,-0.05933636799454689,-0.015930715948343277
6300,0.14741557836532593,-0.061159342527389526,-0.01629507914185524
6400,0.14381706714630127,-0.058738935738801956,-0.016793161630630493
6500,0.14658063650131226,-0.056832205504179,-0.015302948653697968
6600,0.1488843560218811,-0.05634087696671486,-0.01747366599738598
6700,0.14563332498073578,-0.05810976400971413,-0.016036348417401314
6800,0.15086238086223602,-0.057453762739896774,-0.016134196892380714
6900,0.14786061644554138,-0.05803636834025383,-0.014677450060844421
7000,0.1433962881565094,-0.060363564640283585,-0.016790812835097313
7100,0.14848974347114563,-0.05789033696055412,-0.01649143174290657
7200,0.14361649751663208,-0.05822927877306938,-0.01614764891564846
7300,0.14232449233531952,-0.05278216302394867,-0.016183851286768913
7400,0.1363053172826767,-0.05721015855669975,-0.01575145684182644
7500,0.13542480766773224,-0.05742167308926582,-0.017122995108366013
7600,0.13617204129695892,-0.05795431137084961,-0.0175604410469532
7700,0.13998332619667053,-0.06635519862174988,-0.01790180802345276
7800,0.14086660742759705,-0.06750600785017014,-0.017566457390785217
7900,0.14077511429786682,-0.06691355258226395,-0.017929285764694214
8000,0.14400437474250793,-0.07187477499246597,-0.018989648669958115
8100,0.1426737755537033,-0.07120388746261597,-0.018636777997016907
8200,0.14339055120944977,-0.07026330381631851,-0.019083591178059578
8300,0.14886032044887543,-0.06943102180957794,-0.018295112997293472
8400,0.14224320650100708,-0.064939484000206,-0.017000524327158928
8500,0.14210841059684753,-0.06656639277935028,-0.018210725858807564
8600,0.14125403761863708,-0.06676638871431351,-0.019166938960552216
8700,0.14193566143512726,-0.061633747071027756,-0.01750701665878296
8800,0.14541558921337128,-0.06081618368625641,-0.017370648682117462
8900,0.14430870115756989,-0.06270180642604828,-0.017476079985499382
9000,0.14255209267139435,-0.05813693627715111,-0.016323594376444817
9100,0.14387147128582,-0.05760817229747772,-0.016459353268146515
9200,0.1403675675392151,-0.05645684897899628,-0.015861503779888153
9300,0.1397688090801239,-0.055122245103120804,-0.015812838450074196
9400,0.13763952255249023,-0.053668275475502014,-0.015593237243592739
9500,0.13795870542526245,-0.05271307751536369,-0.015186303295195103
9600,0.13806964457035065,-0.05141022801399231,-0.015009990893304348
9700,0.13834966719150543,-0.04874810576438904,-0.014514405280351639
9800,0.13798001408576965,-0.047591209411621094,-0.014512807130813599
9900,0.13794943690299988,-0.04639808461070061,-0.014317379333078861
10000,0.13786941766738892,-0.04677703604102135,-0.01446278765797615
