1,0.9922793507575989,0.2095523625612259,0.11285400390625,1.5433349609375
100,1.3686573505401611,0.26452329754829407,0.11183276772499084,1.9202316999435425
200,1.5389610528945923,0.2754066288471222,0.1270846277475357,1.9406095743179321
300,1.6455552577972412,0.2917110323905945,0.12274689227342606,1.9741394519805908
400,1.723122000694275,0.32918620109558105,0.17643685638904572,2.0035512447357178
500,1.736121416091919,0.3823509216308594,0.24423785507678986,2.043720006942749
600,1.8210606575012207,0.4020121991634369,0.2593478858470917,2.0416831970214844
700,1.8321542739868164,0.42075595259666443,0.27799615263938904,2.057892322540283
800,1.8516039848327637,0.45023801922798157,0.32438796758651733,2.084573268890381
900,1.878016471862793,0.4589925706386566,0.33891561627388,2.0868170261383057
1000,1.859660267829895,0.46842920780181885,0.37931570410728455,2.105816602706909
1100,1.8590823411941528,0.5048428177833557,0.3911915719509125,2.125249147415161
1200,1.8863862752914429,0.5035199522972107,0.4605039060115814,2.1389787197113037
1300,1.8937348127365112,0.515113353729248,0.44674474000930786,2.135993480682373
1400,1.9125995635986328,0.5329817533493042,0.4711820185184479,2.155602216720581
1500,1.9289400577545166,0.5486130118370056,0.48174187541007996,2.166661262512207
1600,1.9420926570892334,0.5787516236305237,0.4973139464855194,2.176154613494873
1700,1.9213837385177612,0.5991986393928528,0.5249688625335693,2.1693029403686523
1800,1.9478726387023926,0.6297174692153931,0.5266013145446777,2.178102731704712
1900,1.9511264562606812,0.6569381952285767,0.5474808812141418,2.1901910305023193
2000,1.9636858701705933,0.6581303477287292,0.6038128733634949,2.2018468379974365
2100,1.9764127731323242,0.6711532473564148,0.6154025197029114,2.2312543392181396
2200,1.997288703918457,0.6992597579956055,0.6369568109512329,2.2353060245513916
2300,2.0351877212524414,0.7110318541526794,0.6697508096694946,2.2440977096557617
2400,2.0532424449920654,0.7464205026626587,0.6778117418289185,2.2309579849243164
2500,2.0861730575561523,0.7722781896591187,0.6974640488624573,2.2844042778015137
2600,2.0734329223632812,0.8160457611083984,0.7168858647346497,2.260934352874756
2700,2.075934410095215,0.8347446918487549,0.7371644973754883,2.2822883129119873
2800,2.12126088142395,0.882840633392334,0.7516882419586182,2.3073301315307617
2900,2.1032347679138184,0.9164947271347046,0.765274167060852,2.3063526153564453
3000,2.0995490550994873,0.9395120143890381,0.7988798022270203,2.316049575805664
3100,2.1170949935913086,0.9538867473602295,0.7775858044624329,2.291757106781006
3200,2.131514072418213,0.9529148936271667,0.7866277694702148,2.2910938262939453
3300,2.115267038345337,0.9818286895751953,0.8330191969871521,2.3164753913879395
3400,2.113405466079712,0.9983096718788147,0.8265477418899536,2.3276772499084473
3500,2.127056121826172,0.9834524393081665,0.8412612676620483,2.3294429779052734
3600,2.1190237998962402,1.0196118354797363,0.8657310605049133,2.316049337387085
3700,2.138411283493042,1.0391499996185303,0.8715477585792542,2.3337011337280273
3800,2.194789171218872,1.106221318244934,0.859260618686676,2.349508762359619
3900,2.2255117893218994,1.1142829656600952,0.86489337682724,2.3620505332946777
4000,2.2110397815704346,1.1290920972824097,0.8427944779396057,2.338527202606201
4100,2.2238082885742188,1.1508537530899048,0.8798839449882507,2.3692984580993652
4200,2.2145094871520996,1.1499441862106323,0.8881996870040894,2.3455705642700195
4300,2.224696397781372,1.1242988109588623,0.9035188555717468,2.3533694744110107
4400,2.223979949951172,1.1387442350387573,0.9374082088470459,2.3610079288482666
4500,2.2384111881256104,1.1527554988861084,0.9413679242134094,2.388184070587158
4600,2.24752140045166,1.1853126287460327,0.9472855925559998,2.4024524688720703
4700,2.271632432937622,1.1936863660812378,0.961322546005249,2.398691177368164
4800,2.2897515296936035,1.2108464241027832,0.9961280226707458,2.4326298236846924
4900,2.282790422439575,1.2295485734939575,1.0055553913116455,2.4421398639678955
5000,2.296154022216797,1.2400777339935303,1.0327633619308472,2.44853138923645
5100,2.327641487121582,1.235203742980957,1.0608407258987427,2.4790942668914795
5200,2.3386425971984863,1.2312636375427246,1.0672792196273804,2.491881847381592
5300,2.351179838180542,1.2436422109603882,1.073447585105896,2.4697604179382324
5400,2.3663434982299805,1.2712161540985107,1.0749362707138062,2.4715933799743652
5500,2.3975536823272705,1.3015209436416626,1.085722804069519,2.473961591720581
5600,2.3921010494232178,1.3041887283325195,1.067256212234497,2.454885244369507
5700,2.3898351192474365,1.3150396347045898,1.0981212854385376,2.45805025100708
5800,2.41593074798584,1.3448410034179688,1.1248259544372559,2.5108823776245117
5900,2.4041640758514404,1.3593908548355103,1.1253106594085693,2.4926493167877197
6000,2.4265224933624268,1.3336964845657349,1.131929874420166,2.487212896347046
6100,2.4196646213531494,1.3563154935836792,1.1221797466278076,2.5098044872283936
6200,2.4043147563934326,1.3355090618133545,1.1149852275848389,2.492082118988037
6300,2.4230525493621826,1.3154242038726807,1.1115163564682007,2.5095055103302
6400,2.4255714416503906,1.3584009408950806,1.1000901460647583,2.495514392852783
6500,2.414637565612793,1.3049794435501099,1.0763297080993652,2.4876363277435303
6600,2.4373536109924316,1.2897236347198486,1.0826973915100098,2.490509033203125
6700,2.434007167816162,1.313857913017273,1.0762994289398193,2.4838738441467285
6800,2.4458651542663574,1.3098430633544922,1.0882683992385864,2.5214273929595947
6900,2.449705123901367,1.3309742212295532,1.1069256067276,2.522723913192749
7000,2.4410765171051025,1.3170138597488403,1.1218342781066895,2.5273451805114746
7100,2.4708852767944336,1.3253734111785889,1.133103847503662,2.525590658187866
7200,2.480302572250366,1.3340861797332764,1.1448280811309814,2.535518169403076
7300,2.4906835556030273,1.3291444778442383,1.1425670385360718,2.539598226547241
7400,2.486234188079834,1.356749176979065,1.1339573860168457,2.5299344062805176
7500,2.4843902587890625,1.3725165128707886,1.1587764024734497,2.533611536026001
7600,2.507120370864868,1.3867837190628052,1.1907827854156494,2.5380520820617676
7700,2.536151170730591,1.3710002899169922,1.168618083000183,2.5578906536102295
7800,2.529892921447754,1.3847100734710693,1.1527659893035889,2.5485072135925293
7900,2.5476438999176025,1.412366509437561,1.1705399751663208,2.544613838195801
8000,2.539768695831299,1.3786393404006958,1.1682660579681396,2.5705196857452393
8100,2.53837251663208,1.3685115575790405,1.160766363143921,2.5633394718170166
8200,2.5380773544311523,1.36088228225708,1.1877615451812744,2.541534185409546
8300,2.5665361881256104,1.349219799041748,1.1836150884628296,2.5767319202423096
8400,2.5887725353240967,1.3793295621871948,1.200620412826538,2.5867788791656494
8500,2.5714569091796875,1.377890944480896,1.2245854139328003,2.5918631553649902
8600,2.5698394775390625,1.3942698240280151,1.1935368776321411,2.533845901489258
8700,2.573795795440674,1.4036325216293335,1.1989870071411133,2.581730365753174
8800,2.564626455307007,1.391715168952942,1.1861002445220947,2.5598483085632324
8900,2.553074836730957,1.413985252380371,1.1983686685562134,2.572288990020752
9000,2.55981183052063,1.394824743270874,1.2156457901000977,2.5627517700195312
9100,2.560889482498169,1.3920230865478516,1.2080743312835693,2.565807819366455
9200,2.554835557937622,1.4112071990966797,1.1986579895019531,2.5662765502929688
9300,2.5515644550323486,1.4208518266677856,1.1949260234832764,2.568883180618286
9400,2.556187152862549,1.4239528179168701,1.2023741006851196,2.569298267364502
9500,2.556354284286499,1.4172465801239014,1.2072564363479614,2.572499990463257
9600,2.5544586181640625,1.4160747528076172,1.2092170715332031,2.573392868041992
9700,2.559713363647461,1.4160230159759521,1.2124104499816895,2.5768799781799316
9800,2.5601630210876465,1.4175465106964111,1.2131905555725098,2.5813539028167725
9900,2.5632643699645996,1.4177942276000977,1.2089577913284302,2.5811216831207275
10000,2.5633256435394287,1.420030117034912,1.2114076614379883,2.5802409648895264
