1,0.5014107823371887
100,0.6486597061157227
200,0.6718342304229736
300,0.6876460313796997
400,0.6902868747711182
500,0.7025752067565918
600,0.7138329148292542
700,0.7370406985282898
800,0.7533718943595886
900,0.7344700694084167
1000,0.7487903237342834
1100,0.7405704855918884
1200,0.7437136769294739
1300,0.7536210417747498
1400,0.7409440875053406
1500,0.7691125869750977
1600,0.7656979560852051
1700,0.7820649147033691
1800,0.7540847659111023
1900,0.764847993850708
2000,0.7721132636070251
2100,0.7827001214027405
2200,0.7518116235733032
2300,0.7826728820800781
2400,0.7869699001312256
2500,0.804550051689148
2600,0.767256498336792
2700,0.7760047912597656
2800,0.7985966205596924
2900,0.7883909940719604
3000,0.800935685634613
3100,0.8217137455940247
3200,0.8091405034065247
3300,0.7995432019233704
3400,0.7843502759933472
3500,0.8052562475204468
3600,0.791534423828125
3700,0.8165042400360107
3800,0.8054960370063782
3900,0.814283549785614
4000,0.806526780128479
4100,0.8071930408477783
4200,0.8046404123306274
4300,0.7844660878181458
4400,0.7962465286254883
4500,0.785302996635437
4600,0.8397228121757507
4700,0.8401896357536316
4800,0.8203123211860657
4900,0.8335997462272644
5000,0.8270448446273804
5100,0.796883761882782
5200,0.8213315606117249
5300,0.7771226167678833
5400,0.806915283203125
5500,0.8344804048538208
5600,0.7990949153900146
5700,0.8296777009963989
5800,0.8030787706375122
5900,0.7963438630104065
6000,0.807371199131012
6100,0.829948902130127
6200,0.8449282050132751
6300,0.8115674257278442
6400,0.8155271410942078
6500,0.8076544404029846
6600,0.8208986520767212
6700,0.8185027241706848
6800,0.839510440826416
6900,0.8135998249053955
7000,0.8107373118400574
7100,0.8207070231437683
7200,0.8213059306144714
7300,0.8241787552833557
7400,0.8261399865150452
7500,0.7975381016731262
7600,0.808464527130127
7700,0.8051685094833374
7800,0.8106645345687866
7900,0.7997742891311646
8000,0.8214097023010254
8100,0.8283789753913879
8200,0.8157206773757935
8300,0.8122477531433105
8400,0.7910349369049072
8500,0.8056583404541016
8600,0.8494902849197388
8700,0.8096058964729309
8800,0.7934815883636475
8900,0.8135421276092529
9000,0.8256599307060242
9100,0.8042691349983215
9200,0.8176136016845703
9300,0.82161545753479
9400,0.8199422955513
9500,0.8197698593139648
9600,0.8178291320800781
9700,0.8178112506866455
9800,0.8182916641235352
9900,0.8168874382972717
10000,0.81477952003479
