0,-14.744926452636719
1,-14.744926452636719
2,-14.744926452636719
3,-14.744926452636719
4,-14.744926452636719
5,-14.744926452636719
6,-14.744926452636719
7,-14.744926452636719
8,-14.744926452636719
9,-14.744926452636719
10,-14.744926452636719
11,-14.744926452636719
12,-14.744926452636719
13,-14.744926452636719
14,-14.744926452636719
15,-14.744926452636719
16,-14.744926452636719
17,-14.744926452636719
18,-14.744926452636719
19,-14.744926452636719
20,-14.744926452636719
21,-14.744926452636719
22,-14.744926452636719
23,-14.744926452636719
24,-14.744926452636719
25,-14.744926452636719
26,-14.744926452636719
27,-14.744926452636719
28,-14.744926452636719
29,-14.744926452636719
30,-14.744926452636719
31,-14.744926452636719
32,-14.744926452636719
33,-14.744926452636719
34,-14.744926452636719
35,-14.744926452636719
36,-14.744926452636719
37,-14.744926452636719
38,-14.744926452636719
39,-14.744926452636719
40,-14.744926452636719
41,-14.744926452636719
42,-14.744926452636719
43,-14.744926452636719
44,-14.744926452636719
45,-14.744926452636719
46,-14.744926452636719
47,-14.744926452636719
48,-14.744926452636719
49,-14.744926452636719
50,-14.744926452636719
51,-14.744926452636719
52,-14.744926452636719
53,-14.744926452636719
54,-14.744926452636719
55,-14.744926452636719
56,-14.744926452636719
57,-14.744926452636719
58,-14.744926452636719
59,-14.744926452636719
60,-14.744926452636719
61,-14.744926452636719
62,-14.744926452636719
63,-14.744926452636719
64,-14.744926452636719
65,-14.744926452636719
66,-14.744926452636719
67,-14.744926452636719
68,-14.744926452636719
69,-14.744926452636719
70,-14.744926452636719
71,-14.744926452636719
72,-14.744926452636719
73,-14.744926452636719
74,-14.744926452636719
75,-14.744926452636719
76,-14.744926452636719
77,-14.744926452636719
78,-14.744926452636719
79,-14.744926452636719
80,-14.744926452636719
81,-14.744926452636719
82,-14.744926452636719
83,-14.744926452636719
84,-14.744926452636719
85,-14.744926452636719
86,-14.744926452636719
87,-14.744926452636719
88,-14.744926452636719
89,-14.744926452636719
90,-14.744926452636719
91,-14.744926452636719
92,-14.70014476776123
93,-14.694512367248535
94,-14.669463157653809
95,-14.388057708740234
96,-14.154483795166016
97,-14.026266098022461
98,-13.898683547973633
99,-14.000432968139648
100,-14.28475570678711
