1,0.0,0.0,0.0
100,-0.07077476382255554,-0.18931221961975098,-0.04734876751899719
200,-0.0913950651884079,-0.23269033432006836,-0.03342357650399208
300,-0.07994663715362549,-0.2500256896018982,-0.03613175079226494
400,-0.0707215666770935,-0.2507798373699188,-0.039775751531124115
500,-0.022269219160079956,-0.2552601099014282,-0.04203985631465912
600,-0.02682444080710411,-0.27723217010498047,-0.041301704943180084
700,-0.022520238533616066,-0.2664903998374939,-0.039784401655197144
800,-0.028924237936735153,-0.2543185353279114,-0.037711188197135925
900,-0.03912953659892082,-0.25923168659210205,-0.04444970563054085
1000,-0.045766785740852356,-0.2472645342350006,-0.04147126525640488
1100,-0.02912401594221592,-0.23195600509643555,-0.04513108357787132
1200,0.018731821328401566,-0.23226353526115417,-0.04900380223989487
1300,0.03480778634548187,-0.22555679082870483,-0.05402735620737076
1400,0.011881483718752861,-0.23615524172782898,-0.060292504727840424
1500,0.006571201141923666,-0.21531885862350464,-0.05710751563310623
1600,0.012156181037425995,-0.22748367488384247,-0.04939528554677963
1700,0.012289592996239662,-0.22475425899028778,-0.05557870864868164
1800,-0.001052314881235361,-0.24112500250339508,-0.049017295241355896
1900,0.006327046547085047,-0.2482609748840332,-0.0567220002412796
2000,-0.006795714143663645,-0.2573479115962982,-0.06436248123645782
2100,-0.019155481830239296,-0.235955148935318,-0.055587366223335266
2200,-0.016982587054371834,-0.22761313617229462,-0.05268975347280502
2300,-0.018295643851161003,-0.2179044932126999,-0.049577344208955765
2400,-0.03110024705529213,-0.21319814026355743,-0.04833804816007614
2500,-0.04399425908923149,-0.21966028213500977,-0.0486348494887352
2600,-0.06456320732831955,-0.22171856462955475,-0.04717409238219261
2700,-0.06465176492929459,-0.2109292596578598,-0.04348533973097801
2800,-0.06490407139062881,-0.21658174693584442,-0.04306986182928085
2900,-0.07949882000684738,-0.22518765926361084,-0.05439376085996628
3000,-0.06955742090940475,-0.22222135961055756,-0.04871015250682831
3100,-0.08951836079359055,-0.2253836691379547,-0.043467313051223755
3200,-0.07799260318279266,-0.22556713223457336,-0.03970089182257652
3300,-0.09364257752895355,-0.22257065773010254,-0.042268961668014526
3400,-0.07943549007177353,-0.2243889570236206,-0.04138394072651863
3500,-0.09808902442455292,-0.23591101169586182,-0.03978906199336052
3600,-0.11347698420286179,-0.23654252290725708,-0.048005443066358566
3700,-0.11375653743743896,-0.22123295068740845,-0.046545423567295074
3800,-0.10184761136770248,-0.2080049365758896,-0.04392959922552109
3900,-0.09754236042499542,-0.2029232233762741,-0.03563757240772247
4000,-0.09376861900091171,-0.20594245195388794,-0.029673997312784195
4100,-0.08007539063692093,-0.2170020192861557,-0.032006289809942245
4200,-0.07553739845752716,-0.20904038846492767,-0.037142060697078705
4300,-0.08493641763925552,-0.22001414000988007,-0.02603471465408802
4400,-0.08929166197776794,-0.2299264818429947,-0.03289502486586571
4500,-0.10622131079435349,-0.21669505536556244,-0.03377204388380051
4600,-0.13084986805915833,-0.2115313857793808,-0.032619185745716095
4700,-0.13984614610671997,-0.21763774752616882,-0.028647825121879578
4800,-0.12525726854801178,-0.2307666540145874,-0.030870236456394196
4900,-0.12835679948329926,-0.211958646774292,-0.038920726627111435
5000,-0.13846011459827423,-0.2039223313331604,-0.032663196325302124
5100,-0.13812512159347534,-0.20876072347164154,-0.024417035281658173
5200,-0.13285501301288605,-0.19116908311843872,-0.030310798436403275
5300,-0.12197596579790115,-0.18725179135799408,-0.02831755392253399
5400,-0.13556793332099915,-0.17525199055671692,-0.024293668568134308
5500,-0.14767710864543915,-0.1648048758506775,-0.024963075295090675
5600,-0.1545514464378357,-0.15201526880264282,-0.024910511448979378
5700,-0.16231180727481842,-0.16036096215248108,-0.025433382019400597
5800,-0.1647898107767105,-0.16996745765209198,-0.023042311891913414
5900,-0.1438235640525818,-0.17009049654006958,-0.0228168573230505
6000,-0.1210159957408905,-0.15918715298175812,-0.029806796461343765
6100,-0.13781939446926117,-0.1594606190919876,-0.027993958443403244
6200,-0.1493484526872635,-0.1576974242925644,-0.02190760150551796
6300,-0.13866464793682098,-0.1679844707250595,-0.023170700296759605
6400,-0.15419691801071167,-0.1551254242658615,-0.021328739821910858
6500,-0.15765833854675293,-0.15149924159049988,-0.021167432889342308
6600,-0.15154489874839783,-0.1497347354888916,-0.014900043606758118
6700,-0.16204801201820374,-0.15329767763614655,-0.011716603301465511
6800,-0.15060657262802124,-0.16133548319339752,-0.010512213222682476
6900,-0.15598587691783905,-0.14216959476470947,-0.01306311134248972
7000,-0.16144132614135742,-0.15612785518169403,-0.010596556589007378
7100,-0.15240567922592163,-0.17570069432258606,-0.01610618084669113
7200,-0.14223767817020416,-0.17359410226345062,-0.017588578164577484
7300,-0.14037497341632843,-0.17924262583255768,-0.017491603270173073
7400,-0.12488826364278793,-0.17109368741512299,-0.02376450225710869
7500,-0.12376300990581512,-0.17091770470142365,-0.020229194313287735
7600,-0.12205686420202255,-0.17076312005519867,-0.020302115008234978
7700,-0.10982988029718399,-0.17754994332790375,-0.01804681494832039
7800,-0.10540825128555298,-0.1805410385131836,-0.018651248887181282
7900,-0.10658881068229675,-0.16849373281002045,-0.01820342056453228
8000,-0.10018835216760635,-0.18853197991847992,-0.013870000839233398
8100,-0.10632220655679703,-0.18244779109954834,-0.015348385088145733
8200,-0.09850107133388519,-0.16144464910030365,-0.01989472284913063
8300,-0.10476323962211609,-0.16026073694229126,-0.01606508158147335
8400,-0.0967414453625679,-0.16987666487693787,-0.018218010663986206
8500,-0.09449322521686554,-0.17043296992778778,-0.013832062482833862
8600,-0.11583290249109268,-0.1763128787279129,-0.014086433686316013
8700,-0.10569027811288834,-0.16632188856601715,-0.018214797601103783
8800,-0.11120005697011948,-0.1695655882358551,-0.019812142476439476
8900,-0.10705625265836716,-0.16006015241146088,-0.01742604188621044
9000,-0.09254761040210724,-0.16494207084178925,-0.015946658328175545
9100,-0.10651662945747375,-0.16855797171592712,-0.017359580844640732
9200,-0.10516638308763504,-0.1695343554019928,-0.02057286724448204
9300,-0.10628703981637955,-0.16788546741008759,-0.020467132329940796
9400,-0.10779475420713425,-0.16801540553569794,-0.019792860373854637
9500,-0.11151507496833801,-0.1663084477186203,-0.018593963235616684
9600,-0.10996747761964798,-0.16582563519477844,-0.018840400502085686
9700,-0.10767678916454315,-0.1666451245546341,-0.019034629687666893
9800,-0.10617566853761673,-0.1636594980955124,-0.01893041282892227
9900,-0.10523001104593277,-0.1616869419813156,-0.0185152068734169
10000,-0.10574223846197128,-0.1606515645980835,-0.018861573189496994
