1,0.0039045289158821106,0.0,0.0
100,0.1707453727722168,-0.0033580372110009193,0.010529380291700363
200,0.21268421411514282,-0.024740921333432198,0.005910987965762615
300,0.2375297248363495,0.012935473583638668,0.007529851049184799
400,0.24743111431598663,0.03680330514907837,0.008935445919632912
500,0.2748083472251892,0.06545073539018631,0.014330410398542881
600,0.24751420319080353,0.09211251139640808,0.016404056921601295
700,0.23723652958869934,0.08828460425138474,0.011618563905358315
800,0.2311435341835022,0.09403429925441742,0.010413444600999355
900,0.2423437386751175,0.08865272253751755,0.007908433675765991
1000,0.24843131005764008,0.08679032325744629,0.017143268138170242
1100,0.2506338655948639,0.09775766730308533,0.019292183220386505
1200,0.2591457962989807,0.10573505610227585,0.02985149435698986
1300,0.24758106470108032,0.09495051205158234,0.03454728052020073
1400,0.24377605319023132,0.09044203162193298,0.03927009552717209
1500,0.24233496189117432,0.07560526579618454,0.03365044668316841
1600,0.24329106509685516,0.06257892400026321,0.022422175854444504
1700,0.242742121219635,0.0751974955201149,0.02219461090862751
1800,0.2528497278690338,0.07857117056846619,0.016770709306001663
1900,0.24041511118412018,0.059341683983802795,0.019389748573303223
2000,0.23577532172203064,0.026133380830287933,0.01525883562862873
2100,0.2547270655632019,0.039030276238918304,0.020456060767173767
2200,0.24410343170166016,0.03035770356655121,0.011877905577421188
2300,0.2506442368030548,0.018456073477864265,0.005465578753501177
2400,0.24419093132019043,0.0183878131210804,0.001800375059247017
2500,0.23341548442840576,0.011042417958378792,-8.990243077278137e-05
2600,0.24804067611694336,0.0037991476710885763,0.0046689556911587715
2700,0.24233220517635345,-0.010132212191820145,-0.0016143729444593191
2800,0.23305657505989075,-0.023026403039693832,-0.004405970685184002
2900,0.23722055554389954,-0.025572391226887703,0.0004448086256161332
3000,0.2239144742488861,-0.02447638101875782,-0.005733898840844631
3100,0.22988773882389069,-0.037767861038446426,-0.007359168957918882
3200,0.21786750853061676,-0.06212376058101654,-0.018653707578778267
3300,0.219094917178154,-0.060441017150878906,-0.009580760262906551
3400,0.2311573624610901,-0.04299463331699371,-0.011551354080438614
3500,0.23215267062187195,-0.0659225657582283,-0.012532642111182213
3600,0.22406701743602753,-0.055225908756256104,-0.010319752618670464
3700,0.23101645708084106,-0.06766606867313385,-0.009452668949961662
3800,0.2019958347082138,-0.0614142082631588,-0.013529854826629162
3900,0.2094637006521225,-0.08030958473682404,-0.01620219089090824
4000,0.19363225996494293,-0.08363112062215805,-0.017779510468244553
4100,0.18776121735572815,-0.07364863157272339,-0.016034487634897232
4200,0.1918177753686905,-0.06636866927146912,-0.014859050512313843
4300,0.1805071383714676,-0.08631909638643265,-0.013972481712698936
4400,0.1915265917778015,-0.06999587267637253,-0.015105113387107849
4500,0.1913977563381195,-0.0812142938375473,-0.01708390936255455
4600,0.19060415029525757,-0.08840154856443405,-0.015233222395181656
4700,0.17404383420944214,-0.07567653805017471,-0.0186806321144104
4800,0.16657747328281403,-0.08804263919591904,-0.01310411375015974
4900,0.17357125878334045,-0.09549833834171295,-0.017120495438575745
5000,0.18112683296203613,-0.11883968859910965,-0.02693919837474823
5100,0.17743481695652008,-0.11475840210914612,-0.02317233756184578
5200,0.17834992706775665,-0.12026967853307724,-0.023907620459794998
5300,0.1772695928812027,-0.1176525205373764,-0.029866866767406464
5400,0.14800551533699036,-0.11507367342710495,-0.023558879271149635
5500,0.15608000755310059,-0.11895151436328888,-0.02012890949845314
5600,0.16690804064273834,-0.12903977930545807,-0.024837085977196693
5700,0.16968698799610138,-0.12107104808092117,-0.0239118579775095
5800,0.16543971002101898,-0.11487963050603867,-0.02406977117061615
5900,0.16022978723049164,-0.120254747569561,-0.021030021831393242
6000,0.1659683734178543,-0.10177166759967804,-0.02074856124818325
6100,0.16125032305717468,-0.10540960729122162,-0.02179662510752678
6200,0.14425347745418549,-0.11331865936517715,-0.022808190435171127
6300,0.14633141458034515,-0.1195627748966217,-0.019145596772432327
6400,0.14178037643432617,-0.10640093684196472,-0.021165408194065094
6500,0.13831210136413574,-0.11855478584766388,-0.02208338864147663
6600,0.1241871640086174,-0.12665605545043945,-0.023480642586946487
6700,0.12995217740535736,-0.1307954043149948,-0.015767604112625122
6800,0.1346031129360199,-0.1231788769364357,-0.02197478711605072
6900,0.12472082674503326,-0.12052023410797119,-0.019473079591989517
7000,0.13713012635707855,-0.12766298651695251,-0.023306377232074738
7100,0.14083343744277954,-0.12984232604503632,-0.023686962202191353
7200,0.15129069983959198,-0.12179764360189438,-0.018088720738887787
7300,0.1636282503604889,-0.11282674223184586,-0.022590268403291702
7400,0.16702857613563538,-0.11880812793970108,-0.02631240338087082
7500,0.16244006156921387,-0.09922658652067184,-0.018156029284000397
7600,0.17255066335201263,-0.0910462886095047,-0.015911918133497238
7700,0.15855057537555695,-0.09272409230470657,-0.01862208917737007
7800,0.15372000634670258,-0.09838446974754333,-0.021035755053162575
7900,0.16153231263160706,-0.09508826583623886,-0.01903306506574154
8000,0.15443828701972961,-0.09032662212848663,-0.023456059396266937
8100,0.14825975894927979,-0.09239248186349869,-0.01855575107038021
8200,0.14511632919311523,-0.0940190851688385,-0.020588096231222153
8300,0.1564459651708603,-0.0925557017326355,-0.022141611203551292
8400,0.1474982649087906,-0.09376748651266098,-0.01830334961414337
8500,0.1381997913122177,-0.10874062776565552,-0.017984449863433838
8600,0.14479678869247437,-0.10649971663951874,-0.017954550683498383
8700,0.14657247066497803,-0.11321742832660675,-0.028766755014657974
8800,0.13270558416843414,-0.10931812971830368,-0.017585789784789085
8900,0.1275896579027176,-0.10280764847993851,-0.024703893810510635
9000,0.12517860531806946,-0.11569620668888092,-0.024106435477733612
9100,0.12800700962543488,-0.10240353643894196,-0.018612932413816452
9200,0.12513022124767303,-0.10119105875492096,-0.018816914409399033
9300,0.12973381578922272,-0.1027672290802002,-0.020745813846588135
9400,0.12946423888206482,-0.09968305379152298,-0.019607342779636383
9500,0.12941034138202667,-0.0979284718632698,-0.01967678777873516
9600,0.1311994343996048,-0.09340779483318329,-0.019603680819272995
9700,0.13224588334560394,-0.0914497897028923,-0.018924107775092125
9800,0.13549184799194336,-0.09104636311531067,-0.01881108246743679
9900,0.13712133467197418,-0.08891836553812027,-0.018822461366653442
10000,0.13701343536376953,-0.0915861427783966,-0.018573841080069542
