1,0.44411543011665344,0.48515117168426514,0.25676822662353516,0.494230717420578
100,0.06954873353242874,0.07822352647781372,0.13946564495563507,0.11885253340005875
200,0.06527431309223175,0.07555367797613144,0.12276497483253479,0.11218026280403137
300,0.06462489068508148,0.07400128990411758,0.12299191951751709,0.11213217675685883
400,0.06559956073760986,0.07439510524272919,0.12257826328277588,0.11198754608631134
500,0.06497249007225037,0.07290347665548325,0.12259611487388611,0.11128398030996323
600,0.06593675166368484,0.07387804239988327,0.12153542786836624,0.11190401017665863
700,0.0665372908115387,0.07357591390609741,0.12117429077625275,0.11148866266012192
800,0.06564895808696747,0.07429547607898712,0.12125895172357559,0.11111462116241455
900,0.06487402319908142,0.07378087192773819,0.117855004966259,0.11097992956638336
1000,0.06506189703941345,0.07361301779747009,0.1105596199631691,0.11156413704156876
1100,0.06589323282241821,0.07438655197620392,0.09625854343175888,0.11133558303117752
1200,0.06531133502721786,0.07296137511730194,0.07598163187503815,0.1115066260099411
1300,0.06497349590063095,0.07300692051649094,0.0734749510884285,0.1114211454987526
1400,0.06563511490821838,0.07337616384029388,0.07334388047456741,0.1106131374835968
1500,0.0653698742389679,0.07401835173368454,0.07175081223249435,0.11081652343273163
1600,0.06584692746400833,0.07230544835329056,0.07261233776807785,0.11075614392757416
1700,0.06550063192844391,0.07351858913898468,0.07246576249599457,0.11133325099945068
1800,0.06492968648672104,0.07402756810188293,0.07314328849315643,0.11025803536176682
1900,0.06639181822538376,0.07408381998538971,0.0722542479634285,0.11086414754390717
2000,0.06428622454404831,0.07450759410858154,0.07187917828559875,0.11084753274917603
2100,0.06537781655788422,0.0741724818944931,0.07243964076042175,0.11156715452671051
2200,0.06564076244831085,0.07274472713470459,0.0732673928141594,0.11074569821357727
2300,0.0655030831694603,0.07355736941099167,0.07282646745443344,0.11105659604072571
2400,0.06593732535839081,0.07457778602838516,0.07358776777982712,0.11104895919561386
2500,0.06443173438310623,0.07427538931369781,0.07266006618738174,0.11090900748968124
2600,0.06558654457330704,0.07475150376558304,0.0726432055234909,0.11053427308797836
2700,0.06496021151542664,0.07386750727891922,0.07295815646648407,0.11059722304344177
2800,0.06508184224367142,0.07206428050994873,0.07287706434726715,0.1110529825091362
2900,0.06459328532218933,0.07374123483896255,0.0728868916630745,0.11115698516368866
3000,0.06560336798429489,0.07171845436096191,0.07346966862678528,0.11064961552619934
3100,0.06485550105571747,0.07324407249689102,0.0729953721165657,0.11078052222728729
3200,0.06477516889572144,0.07314193993806839,0.07365303486585617,0.11099831759929657
3300,0.06454726308584213,0.07290516793727875,0.07156830281019211,0.11125565320253372
3400,0.06607931107282639,0.07212112843990326,0.07199160754680634,0.11057591438293457
3500,0.0658184140920639,0.07365086674690247,0.07213032990694046,0.1109166219830513
3600,0.06490924954414368,0.07245069742202759,0.07173308730125427,0.11147907376289368
3700,0.06635607779026031,0.07348449528217316,0.0727045089006424,0.11117842048406601
3800,0.06497074663639069,0.07367894798517227,0.07320676743984222,0.11116044968366623
3900,0.06516245007514954,0.07384197413921356,0.07205808907747269,0.11048455536365509
4000,0.0646955594420433,0.07473970204591751,0.07286778092384338,0.11030185967683792
4100,0.06518681347370148,0.07228006422519684,0.07349348813295364,0.1105182096362114
4200,0.06457007676362991,0.07333043962717056,0.0729701891541481,0.11039923131465912
4300,0.06531292200088501,0.07305137068033218,0.07173382490873337,0.11099016666412354
4400,0.06415627151727676,0.0728669986128807,0.07221310585737228,0.11125833541154861
4500,0.064471535384655,0.073049396276474,0.07193288207054138,0.11056238412857056
4600,0.06441707909107208,0.07225557416677475,0.07357744127511978,0.11080656200647354
4700,0.06579496711492538,0.07348916679620743,0.07324838638305664,0.11098833382129669
4800,0.06474453955888748,0.07236147671937943,0.07332396507263184,0.11138924956321716
4900,0.06445124000310898,0.07279681414365768,0.0724000409245491,0.11132624000310898
5000,0.06494687497615814,0.07341548055410385,0.07215020060539246,0.11106424778699875
5100,0.06591103971004486,0.07414884865283966,0.07203148305416107,0.11044653505086899
5200,0.06507706642150879,0.0725608617067337,0.07328526675701141,0.11090727150440216
5300,0.06633786112070084,0.07417916506528854,0.07203736901283264,0.11070311814546585
5400,0.06562233716249466,0.07245423644781113,0.07187893241643906,0.11122661828994751
5500,0.0649157166481018,0.07223042100667953,0.0732884556055069,0.11015959084033966
5600,0.06519272178411484,0.07375121861696243,0.07206767052412033,0.11151890456676483
5700,0.06506721675395966,0.07374916970729828,0.07324960082769394,0.11135037243366241
5800,0.06578083336353302,0.07342147082090378,0.07326234132051468,0.11108986288309097
5900,0.06622674316167831,0.07289814949035645,0.0723535418510437,0.11068565398454666
6000,0.06536117941141129,0.07289616018533707,0.07185106724500656,0.11065508425235748
6100,0.06496217846870422,0.0732182040810585,0.07139284908771515,0.11104041337966919
6200,0.06473983079195023,0.07305002212524414,0.07412584125995636,0.11079631000757217
6300,0.06524673849344254,0.0731978714466095,0.07331812381744385,0.11091385781764984
6400,0.0655766949057579,0.07384460419416428,0.0726083293557167,0.11153385043144226
6500,0.06600888818502426,0.0734105259180069,0.07247839868068695,0.11148164421319962
6600,0.06480692327022552,0.07308792322874069,0.07236580550670624,0.11095041036605835
6700,0.06560578942298889,0.07314179837703705,0.07314462959766388,0.11128274351358414
6800,0.06464070826768875,0.07424397766590118,0.0720251128077507,0.11114039272069931
6900,0.06518449634313583,0.07267039269208908,0.07521596550941467,0.11129755526781082
7000,0.06531184166669846,0.0738835260272026,0.0740976482629776,0.11067855358123779
7100,0.06538599729537964,0.07393073290586472,0.07286711782217026,0.11033967137336731
7200,0.06506962329149246,0.07392708212137222,0.07215353101491928,0.11059022694826126
7300,0.06581800431013107,0.07332330197095871,0.07288400828838348,0.11112263798713684
7400,0.0648861825466156,0.07338869571685791,0.07311337441205978,0.11130911856889725
7500,0.06486097723245621,0.07202974706888199,0.07229609042406082,0.11135569959878922
7600,0.065192312002182,0.0738258883357048,0.07319021970033646,0.11078605055809021
7700,0.06649524718523026,0.07350156456232071,0.07249008119106293,0.11058793216943741
7800,0.0652063637971878,0.07465046644210815,0.07249245792627335,0.11087792366743088
7900,0.0647149533033371,0.07272068411111832,0.07178662717342377,0.11145216226577759
8000,0.06528439372777939,0.07391130924224854,0.07323352992534637,0.11083784699440002
8100,0.06484882533550262,0.074750617146492,0.07255741953849792,0.11070901155471802
8200,0.06532465666532516,0.0730879083275795,0.07231682538986206,0.11077675968408585
8300,0.06525390595197678,0.07407229393720627,0.07157064974308014,0.11106932163238525
8400,0.0654933825135231,0.07353756576776505,0.07326844334602356,0.11098392307758331
8500,0.06564252823591232,0.07340669631958008,0.07408120483160019,0.11117765307426453
8600,0.06591345369815826,0.0734681487083435,0.07239456474781036,0.11104659736156464
8700,0.06557680666446686,0.07274917513132095,0.0721508339047432,0.11101076751947403
8800,0.06549457460641861,0.07329554855823517,0.07182653993368149,0.11134161800146103
8900,0.06486788392066956,0.0737464502453804,0.07304572314023972,0.11095932126045227
9000,0.0652630552649498,0.07398293167352676,0.0718330666422844,0.11121458560228348
9100,0.06492476165294647,0.07350323349237442,0.07284553349018097,0.1109648123383522
9200,0.06505720317363739,0.07360874861478806,0.07274016737937927,0.11121803522109985
9300,0.06523015350103378,0.07340889424085617,0.07253610342741013,0.11104074120521545
9400,0.06527254730463028,0.07350723445415497,0.0724802017211914,0.11111126095056534
9500,0.06534267216920853,0.07329797744750977,0.07239782065153122,0.11096759885549545
9600,0.06533197313547134,0.07328387349843979,0.07252953201532364,0.11094385385513306
9700,0.06521205604076385,0.0733945369720459,0.07265138626098633,0.11090188473463058
9800,0.0651351809501648,0.0733964666724205,0.0726657509803772,0.1108793094754219
9900,0.06511705368757248,0.07349014282226562,0.07276663184165955,0.11082671582698822
10000,0.06514334678649902,0.07346531748771667,0.07278960198163986,0.11092401295900345
