1,-2.003213405609131,-1.0625548362731934,-4.693933010101318,-1.633967638015747
100,-2.0314998626708984,-1.2903670072555542,-4.9529900550842285,-2.7395379543304443
200,-1.9524413347244263,-1.253710150718689,-4.818057537078857,-3.3267736434936523
300,-1.971908450126648,-1.261927604675293,-4.790118217468262,-3.392465829849243
400,-2.032928705215454,-1.2955584526062012,-4.728899955749512,-3.4816596508026123
500,-2.1197919845581055,-1.2793561220169067,-4.573025703430176,-3.548755645751953
600,-2.064344882965088,-1.2409263849258423,-4.390192985534668,-3.5574283599853516
700,-2.1014041900634766,-1.284958004951477,-4.252950191497803,-3.620955228805542
800,-2.1700785160064697,-1.3395841121673584,-4.179798126220703,-3.7939581871032715
900,-2.107468605041504,-1.2645927667617798,-3.848571538925171,-3.6297173500061035
1000,-2.14591646194458,-1.3306752443313599,-3.468383312225342,-3.6304123401641846
1100,-1.985159993171692,-1.2277988195419312,-2.6333167552948,-3.425600528717041
1200,-2.005474328994751,-1.2524752616882324,-1.939802885055542,-3.3116323947906494
1300,-2.0529098510742188,-1.2568799257278442,-1.6495182514190674,-3.1773900985717773
1400,-2.063167095184326,-1.2284045219421387,-1.5781387090682983,-3.053109645843506
1500,-2.0507264137268066,-1.2077826261520386,-1.5887489318847656,-3.0345706939697266
1600,-2.1144204139709473,-1.299880027770996,-1.589905023574829,-3.100520610809326
1700,-2.215871572494507,-1.3546773195266724,-1.5855857133865356,-3.0604164600372314
1800,-2.146690845489502,-1.3358687162399292,-1.5253421068191528,-3.1066157817840576
1900,-2.0746679306030273,-1.3111028671264648,-1.4594612121582031,-2.992701768875122
2000,-2.1919891834259033,-1.349563479423523,-1.578391671180725,-3.042045831680298
2100,-2.12697172164917,-1.295928716659546,-1.5488152503967285,-3.0130908489227295
2200,-2.1621804237365723,-1.3622616529464722,-1.5580190420150757,-3.059041976928711
2300,-2.177710771560669,-1.327107310295105,-1.5266685485839844,-3.022927761077881
2400,-2.215620279312134,-1.2869161367416382,-1.5549590587615967,-3.0192618370056152
2500,-2.233665943145752,-1.3028972148895264,-1.534829020500183,-3.0055480003356934
2600,-2.2357964515686035,-1.3241573572158813,-1.4523770809173584,-2.9873716831207275
2700,-2.3211886882781982,-1.3501338958740234,-1.5284565687179565,-3.055691957473755
2800,-2.277719020843506,-1.262107014656067,-1.5182667970657349,-3.0667178630828857
2900,-2.300812005996704,-1.311338186264038,-1.5042179822921753,-3.0641942024230957
3000,-2.327587842941284,-1.3144596815109253,-1.5251458883285522,-3.0752124786376953
3100,-2.3625941276550293,-1.3383206129074097,-1.5654295682907104,-3.0874948501586914
3200,-2.3143348693847656,-1.2730040550231934,-1.4754441976547241,-3.0355899333953857
3300,-2.3362743854522705,-1.282150387763977,-1.4919477701187134,-3.0566418170928955
3400,-2.349669933319092,-1.2542781829833984,-1.4592761993408203,-3.0317113399505615
3500,-2.3769800662994385,-1.2900582551956177,-1.4531733989715576,-3.0752816200256348
3600,-2.426619052886963,-1.3641221523284912,-1.5718823671340942,-3.131187915802002
3700,-2.485215425491333,-1.4456425905227661,-1.6177079677581787,-3.1909070014953613
3800,-2.4351744651794434,-1.3659168481826782,-1.5959382057189941,-3.1351566314697266
3900,-2.3927745819091797,-1.31703782081604,-1.5450390577316284,-3.1089563369750977
4000,-2.414217948913574,-1.347525954246521,-1.57542884349823,-3.146404266357422
4100,-2.440873146057129,-1.36399507522583,-1.5577033758163452,-3.126372814178467
4200,-2.459481954574585,-1.354851484298706,-1.538320541381836,-3.0874173641204834
4300,-2.437155246734619,-1.2803627252578735,-1.4821211099624634,-3.0731427669525146
4400,-2.4555623531341553,-1.2709338665008545,-1.503501057624817,-3.052269697189331
4500,-2.4932289123535156,-1.3020076751708984,-1.509319543838501,-3.119950771331787
4600,-2.481534481048584,-1.3584237098693848,-1.5540685653686523,-3.0636913776397705
4700,-2.530172348022461,-1.4169204235076904,-1.5515964031219482,-3.153059959411621
4800,-2.512432336807251,-1.3999801874160767,-1.539734125137329,-3.104520320892334
4900,-2.526845932006836,-1.3884001970291138,-1.5463135242462158,-3.099064826965332
5000,-2.553927183151245,-1.374946117401123,-1.5679370164871216,-3.1203575134277344
5100,-2.5814919471740723,-1.4455260038375854,-1.6166268587112427,-3.2264957427978516
5200,-2.521862745285034,-1.3292334079742432,-1.5606541633605957,-3.127603530883789
5300,-2.579460620880127,-1.4442015886306763,-1.617773413658142,-3.213502883911133
5400,-2.630927801132202,-1.379880428314209,-1.5778974294662476,-3.1652913093566895
5500,-2.6033687591552734,-1.392236351966858,-1.6228123903274536,-3.227896213531494
5600,-2.5453898906707764,-1.3915388584136963,-1.631491780281067,-3.2145273685455322
5700,-2.560781717300415,-1.3702917098999023,-1.6015253067016602,-3.1714775562286377
5800,-2.6102213859558105,-1.4411735534667969,-1.623085856437683,-3.1876394748687744
5900,-2.6613667011260986,-1.4223982095718384,-1.6322288513183594,-3.255544662475586
6000,-2.637709140777588,-1.4463481903076172,-1.6124284267425537,-3.2379586696624756
6100,-2.5970094203948975,-1.4322047233581543,-1.6119697093963623,-3.188429594039917
6200,-2.591789960861206,-1.4877218008041382,-1.6897685527801514,-3.268129587173462
6300,-2.6220219135284424,-1.4675195217132568,-1.6460223197937012,-3.249225616455078
6400,-2.644618034362793,-1.4977110624313354,-1.6699960231781006,-3.299349069595337
6500,-2.641995906829834,-1.3890886306762695,-1.606222152709961,-3.208833694458008
6600,-2.718665599822998,-1.4050536155700684,-1.622922658920288,-3.2558910846710205
6700,-2.673917055130005,-1.393810749053955,-1.5942938327789307,-3.2806921005249023
6800,-2.735769271850586,-1.439945101737976,-1.5861659049987793,-3.254997491836548
6900,-2.7998461723327637,-1.4312695264816284,-1.6524986028671265,-3.2901413440704346
7000,-2.817786931991577,-1.4488056898117065,-1.6498632431030273,-3.3626465797424316
7100,-2.771101236343384,-1.4838072061538696,-1.6312907934188843,-3.286663055419922
7200,-2.748311996459961,-1.419796347618103,-1.5927420854568481,-3.2292211055755615
7300,-2.743894577026367,-1.4538573026657104,-1.629507064819336,-3.2733497619628906
7400,-2.782165288925171,-1.460074543952942,-1.6783415079116821,-3.3277246952056885
7500,-2.7846503257751465,-1.4788198471069336,-1.6918331384658813,-3.313796043395996
7600,-2.8592817783355713,-1.5542495250701904,-1.7112995386123657,-3.3463797569274902
7700,-2.7982614040374756,-1.4317961931228638,-1.5965288877487183,-3.242011785507202
7800,-2.8456199169158936,-1.522608995437622,-1.6230889558792114,-3.3319365978240967
7900,-2.843398332595825,-1.4694775342941284,-1.566454529762268,-3.200566530227661
8000,-2.8232476711273193,-1.4619427919387817,-1.5728603601455688,-3.272144079208374
8100,-2.90155029296875,-1.5730537176132202,-1.6720162630081177,-3.337827682495117
8200,-2.836031436920166,-1.5524705648422241,-1.6942975521087646,-3.291379451751709
8300,-2.7790400981903076,-1.5647385120391846,-1.6137806177139282,-3.2797954082489014
8400,-2.7517051696777344,-1.5186150074005127,-1.637992262840271,-3.3064424991607666
8500,-2.8598403930664062,-1.5450515747070312,-1.6786518096923828,-3.345081329345703
8600,-2.861734390258789,-1.62599778175354,-1.7557309865951538,-3.391367197036743
8700,-2.7969582080841064,-1.6195645332336426,-1.6740458011627197,-3.237220048904419
8800,-2.8170101642608643,-1.6496553421020508,-1.7535501718521118,-3.32486891746521
8900,-2.7580888271331787,-1.557502269744873,-1.6910361051559448,-3.2603752613067627
9000,-2.772252082824707,-1.546675682067871,-1.633418083190918,-3.2964625358581543
9100,-2.781595230102539,-1.5669114589691162,-1.6371220350265503,-3.2563111782073975
9200,-2.785581350326538,-1.5614142417907715,-1.641432285308838,-3.2490687370300293
9300,-2.790459156036377,-1.5526221990585327,-1.6433250904083252,-3.247018575668335
9400,-2.7975175380706787,-1.556119441986084,-1.6515789031982422,-3.2538599967956543
9500,-2.799429416656494,-1.5612298250198364,-1.650133490562439,-3.254593849182129
9600,-2.808114528656006,-1.5672532320022583,-1.6561230421066284,-3.258716583251953
9700,-2.8017101287841797,-1.5612393617630005,-1.6504515409469604,-3.253586769104004
9800,-2.808074951171875,-1.566226601600647,-1.6578835248947144,-3.257577419281006
9900,-2.8071603775024414,-1.5628464221954346,-1.6619328260421753,-3.258552312850952
10000,-2.8099772930145264,-1.5641030073165894,-1.664915919303894,-3.260815382003784
