1,1.1852575540542603,0.4160369038581848,0.36011403799057007,1.8172454833984375
100,1.5899500846862793,0.4362589418888092,0.4367596507072449,1.9903039932250977
200,1.7577273845672607,0.4728623926639557,0.4681023359298706,2.0165774822235107
300,1.8171964883804321,0.46300357580184937,0.4648337960243225,2.0574960708618164
400,1.8580150604248047,0.5187124609947205,0.4826109707355499,2.077394962310791
500,1.91365647315979,0.5878149271011353,0.5302454829216003,2.0961902141571045
600,1.9780243635177612,0.6112968325614929,0.5598970055580139,2.1398682594299316
700,1.9706101417541504,0.686581552028656,0.5851392149925232,2.1096742153167725
800,2.0047175884246826,0.7296862006187439,0.6064183712005615,2.1273210048675537
900,2.015171766281128,0.7713337540626526,0.6325349807739258,2.1394405364990234
1000,2.052525281906128,0.8244714736938477,0.6746131777763367,2.1882760524749756
1100,2.077221632003784,0.8615720272064209,0.7327340245246887,2.2048990726470947
1200,2.081449270248413,0.8807448148727417,0.778278648853302,2.1984684467315674
1300,2.091526746749878,0.8630079030990601,0.7884523868560791,2.216798782348633
1400,2.084028720855713,0.8873724937438965,0.8032549023628235,2.237074136734009
1500,2.096022844314575,0.9180831909179688,0.8476239442825317,2.2436177730560303
1600,2.1325089931488037,0.9490491151809692,0.8686413168907166,2.296443462371826
1700,2.1345458030700684,0.9418861865997314,0.8928698301315308,2.2486648559570312
1800,2.165797233581543,0.9677376747131348,0.8911325931549072,2.2595174312591553
1900,2.157968521118164,0.9982475638389587,0.8629446029663086,2.2658143043518066
2000,2.1585872173309326,1.0248401165008545,0.9070425629615784,2.2841057777404785
2100,2.171630620956421,1.0377516746520996,0.9303532242774963,2.28588604927063
2200,2.2432522773742676,1.0819758176803589,0.9842832088470459,2.335991859436035
2300,2.2527177333831787,1.1010949611663818,1.0077909231185913,2.324308395385742
2400,2.2890963554382324,1.1099492311477661,1.0008434057235718,2.3173320293426514
2500,2.2765512466430664,1.1205114126205444,1.051292061805725,2.3745110034942627
2600,2.3143508434295654,1.1523500680923462,1.029406189918518,2.3485875129699707
2700,2.316927909851074,1.1623047590255737,1.060154676437378,2.347134828567505
2800,2.340451240539551,1.1567530632019043,1.0336425304412842,2.3786704540252686
2900,2.3775994777679443,1.1653101444244385,1.0417970418930054,2.387378215789795
3000,2.390878915786743,1.181218147277832,1.0384677648544312,2.391535997390747
3100,2.4077682495117188,1.1622591018676758,1.028684139251709,2.378305673599243
3200,2.422236442565918,1.1660000085830688,1.0319209098815918,2.3816254138946533
3300,2.41051983833313,1.1923272609710693,1.0103631019592285,2.3731117248535156
3400,2.399329900741577,1.241510033607483,1.015005111694336,2.348989248275757
3500,2.392085552215576,1.2332556247711182,1.0202230215072632,2.368119716644287
3600,2.4009814262390137,1.269352912902832,1.0504817962646484,2.366598606109619
3700,2.3602514266967773,1.2722830772399902,1.0777157545089722,2.3567399978637695
3800,2.3746495246887207,1.3287272453308105,1.058159589767456,2.390993356704712
3900,2.4209418296813965,1.3454580307006836,1.0619451999664307,2.371807336807251
4000,2.4565961360931396,1.3771604299545288,1.036872148513794,2.381279468536377
4100,2.493568181991577,1.3894423246383667,1.0463151931762695,2.392393112182617
4200,2.448256731033325,1.3644872903823853,1.0339508056640625,2.3694794178009033
4300,2.3885395526885986,1.354735255241394,1.0699464082717896,2.364651679992676
4400,2.351719617843628,1.3369255065917969,1.0807781219482422,2.352285623550415
4500,2.3537521362304688,1.359547734260559,1.073431134223938,2.365513324737549
4600,2.400895595550537,1.37250816822052,1.072266936302185,2.361219882965088
4700,2.4076344966888428,1.3910664319992065,1.107174277305603,2.3833730220794678
4800,2.428759813308716,1.3669041395187378,1.136896014213562,2.403507947921753
4900,2.440452814102173,1.3655205965042114,1.1374601125717163,2.394052028656006
5000,2.400240421295166,1.3856111764907837,1.1129571199417114,2.3995611667633057
5100,2.4007623195648193,1.3825576305389404,1.1648974418640137,2.418377161026001
5200,2.4057564735412598,1.3893845081329346,1.168627142906189,2.4241883754730225
5300,2.4401650428771973,1.3828836679458618,1.1757086515426636,2.4208016395568848
5400,2.4353811740875244,1.352916955947876,1.1653835773468018,2.411893606185913
5500,2.442685842514038,1.3507006168365479,1.1179540157318115,2.4140074253082275
5600,2.456926107406616,1.367388367652893,1.126314401626587,2.404893636703491
5700,2.465104341506958,1.3888983726501465,1.1348772048950195,2.3937549591064453
5800,2.4663355350494385,1.416304111480713,1.1440401077270508,2.4108893871307373
5900,2.5175766944885254,1.409803867340088,1.1155470609664917,2.4181604385375977
6000,2.484917163848877,1.377498745918274,1.1232969760894775,2.3969569206237793
6100,2.4853262901306152,1.3767904043197632,1.1220818758010864,2.427137851715088
6200,2.5008652210235596,1.3422781229019165,1.1414506435394287,2.3924062252044678
6300,2.516301393508911,1.3641293048858643,1.1963478326797485,2.434021472930908
6400,2.5294077396392822,1.3912276029586792,1.1762793064117432,2.436028480529785
6500,2.544764280319214,1.3650087118148804,1.168312668800354,2.4379265308380127
6600,2.540153741836548,1.3498550653457642,1.156622052192688,2.4622597694396973
6700,2.5610735416412354,1.3667104244232178,1.1555250883102417,2.432922601699829
6800,2.568472146987915,1.376875638961792,1.1697558164596558,2.453427314758301
6900,2.5472004413604736,1.3512814044952393,1.1560002565383911,2.459320068359375
7000,2.5020153522491455,1.3454607725143433,1.129815697669983,2.475123167037964
7100,2.5069406032562256,1.3678208589553833,1.118976354598999,2.4564638137817383
7200,2.5065784454345703,1.367728590965271,1.148423194885254,2.4250028133392334
7300,2.475048780441284,1.3522230386734009,1.1517776250839233,2.4296061992645264
7400,2.4705803394317627,1.3512309789657593,1.1412712335586548,2.4362900257110596
7500,2.452502489089966,1.3645070791244507,1.1127312183380127,2.3972561359405518
7600,2.445467233657837,1.3505864143371582,1.1401619911193848,2.4030516147613525
7700,2.468053102493286,1.3455305099487305,1.1143501996994019,2.4187355041503906
7800,2.5176167488098145,1.3555783033370972,1.0692912340164185,2.4269015789031982
7900,2.4716906547546387,1.3917343616485596,1.114739179611206,2.3909780979156494
8000,2.505960464477539,1.3547805547714233,1.1589925289154053,2.4442453384399414
8100,2.491732120513916,1.3291285037994385,1.1491020917892456,2.4503629207611084
8200,2.4458611011505127,1.3255841732025146,1.1655646562576294,2.4245495796203613
8300,2.435175895690918,1.3005998134613037,1.1674388647079468,2.4121756553649902
8400,2.468034505844116,1.3515474796295166,1.1614078283309937,2.435976266860962
8500,2.467296838760376,1.3531161546707153,1.171898603439331,2.4708263874053955
8600,2.5001261234283447,1.3591251373291016,1.1589826345443726,2.4122390747070312
8700,2.4852354526519775,1.3610968589782715,1.185854434967041,2.4190280437469482
8800,2.4980757236480713,1.3793925046920776,1.189751148223877,2.4344351291656494
8900,2.481490135192871,1.4074475765228271,1.1747561693191528,2.42970609664917
9000,2.5119223594665527,1.3892322778701782,1.1718981266021729,2.4396042823791504
9100,2.5382466316223145,1.367750644683838,1.17157781124115,2.454115152359009
9200,2.531912088394165,1.3753060102462769,1.181473970413208,2.4509944915771484
9300,2.5258402824401855,1.3776395320892334,1.1836122274398804,2.454540729522705
9400,2.5262060165405273,1.3741960525512695,1.182529330253601,2.4516069889068604
9500,2.5290322303771973,1.3718640804290771,1.1867809295654297,2.4557576179504395
9600,2.528820514678955,1.3713895082473755,1.1893970966339111,2.4582436084747314
9700,2.5315840244293213,1.3768339157104492,1.1904220581054688,2.459791660308838
9800,2.53062105178833,1.3804670572280884,1.1934691667556763,2.4645285606384277
9900,2.5311641693115234,1.3797906637191772,1.194153904914856,2.462614059448242
10000,2.5292301177978516,1.3823007345199585,1.1958056688308716,2.463853120803833
