1,-2.6721911430358887,-1.4172090291976929,-1.9344438314437866,-1.8535808324813843
100,-3.208836555480957,-2.6991350650787354,-2.9535982608795166,-2.9576759338378906
200,-3.504483938217163,-3.163954257965088,-3.2524242401123047,-3.2886769771575928
300,-3.6037237644195557,-3.150601625442505,-3.342089891433716,-3.3477401733398438
400,-3.5508029460906982,-3.173151731491089,-3.2848894596099854,-3.404249668121338
500,-3.6928741931915283,-3.232806921005249,-3.425596237182617,-3.5696401596069336
600,-3.718151569366455,-3.284468173980713,-3.4117374420166016,-3.5985841751098633
700,-3.7075204849243164,-3.2531373500823975,-3.396104335784912,-3.566593647003174
800,-3.7791922092437744,-3.340266704559326,-3.4287757873535156,-3.6242830753326416
900,-3.5967013835906982,-3.1648004055023193,-3.2446470260620117,-3.472018003463745
1000,-3.685814142227173,-3.320516347885132,-3.4079713821411133,-3.58689284324646
1100,-3.7087342739105225,-3.292367935180664,-3.3803815841674805,-3.550058364868164
1200,-3.7723398208618164,-3.3536109924316406,-3.4342997074127197,-3.6726131439208984
1300,-3.8191068172454834,-3.365586996078491,-3.439373016357422,-3.653677463531494
1400,-3.687704086303711,-3.208935499191284,-3.4057860374450684,-3.571329116821289
1500,-3.6972715854644775,-3.235387086868286,-3.3684966564178467,-3.5718469619750977
1600,-3.8348309993743896,-3.3556957244873047,-3.496659755706787,-3.6604201793670654
1700,-3.835129976272583,-3.385864496231079,-3.520109176635742,-3.6919031143188477
1800,-3.662862777709961,-3.255053758621216,-3.3068759441375732,-3.535998821258545
1900,-3.6759610176086426,-3.2456836700439453,-3.3637466430664062,-3.5107126235961914
2000,-3.7103309631347656,-3.282269239425659,-3.4235594272613525,-3.5909030437469482
2100,-3.788318634033203,-3.2965891361236572,-3.439042568206787,-3.616971492767334
2200,-3.640059471130371,-3.186094045639038,-3.285233497619629,-3.5308337211608887
2300,-3.769890069961548,-3.285719394683838,-3.448622703552246,-3.59462308883667
2400,-3.6830270290374756,-3.2127225399017334,-3.401634693145752,-3.530359983444214
2500,-3.6246511936187744,-3.178452730178833,-3.3369274139404297,-3.4925436973571777
2600,-3.6867289543151855,-3.2385404109954834,-3.3543639183044434,-3.532132148742676
2700,-3.7682809829711914,-3.330847978591919,-3.450467586517334,-3.596177816390991
2800,-3.7269413471221924,-3.27158260345459,-3.408552646636963,-3.6002347469329834
2900,-3.659883975982666,-3.2926502227783203,-3.3732759952545166,-3.5779290199279785
3000,-3.5808486938476562,-3.1425516605377197,-3.2615442276000977,-3.453721284866333
3100,-3.7011935710906982,-3.272249937057495,-3.4199366569519043,-3.5197641849517822
3200,-3.687844753265381,-3.2699363231658936,-3.3626601696014404,-3.5861470699310303
3300,-3.731712579727173,-3.359823226928711,-3.4021875858306885,-3.5955471992492676
3400,-3.6374573707580566,-3.2508351802825928,-3.3781046867370605,-3.5390100479125977
3500,-3.713353395462036,-3.312770128250122,-3.436253786087036,-3.526602029800415
3600,-3.6830785274505615,-3.2484123706817627,-3.4164552688598633,-3.5321967601776123
3700,-3.6017775535583496,-3.2401442527770996,-3.3056628704071045,-3.475649356842041
3800,-3.680070161819458,-3.2508833408355713,-3.3434972763061523,-3.5661089420318604
3900,-3.663975715637207,-3.177025556564331,-3.313570261001587,-3.486375093460083
4000,-3.7006568908691406,-3.19916033744812,-3.3412411212921143,-3.5602049827575684
4100,-3.724431037902832,-3.236116886138916,-3.385735034942627,-3.5765316486358643
4200,-3.6900651454925537,-3.2009317874908447,-3.366713762283325,-3.5580666065216064
4300,-3.756849765777588,-3.3605828285217285,-3.4889581203460693,-3.611154556274414
4400,-3.6494572162628174,-3.2433619499206543,-3.321873188018799,-3.5510942935943604
4500,-3.658111333847046,-3.187817335128784,-3.262394666671753,-3.4971206188201904
4600,-3.7228057384490967,-3.2545485496520996,-3.3759303092956543,-3.5599241256713867
4700,-3.671497106552124,-3.2412827014923096,-3.3540053367614746,-3.5546772480010986
4800,-3.749812602996826,-3.2378740310668945,-3.3671298027038574,-3.609367609024048
4900,-3.758105993270874,-3.29823899269104,-3.3333237171173096,-3.6203579902648926
5000,-3.757481575012207,-3.2993905544281006,-3.4271645545959473,-3.6395249366760254
5100,-3.8038761615753174,-3.296440839767456,-3.420248508453369,-3.6435256004333496
5200,-3.6167969703674316,-3.176734209060669,-3.306248188018799,-3.4612832069396973
5300,-3.6335833072662354,-3.15393328666687,-3.3035662174224854,-3.4988515377044678
5400,-3.6656253337860107,-3.1933035850524902,-3.3425076007843018,-3.518662452697754
5500,-3.7023160457611084,-3.2777538299560547,-3.417389154434204,-3.5512876510620117
5600,-3.7349278926849365,-3.264458656311035,-3.4030001163482666,-3.5273661613464355
5700,-3.6857681274414062,-3.215656280517578,-3.387971878051758,-3.523148775100708
5800,-3.6328999996185303,-3.2243785858154297,-3.338406801223755,-3.4856958389282227
5900,-3.636643886566162,-3.133678913116455,-3.2683019638061523,-3.475186586380005
6000,-3.6349315643310547,-3.1699893474578857,-3.2750375270843506,-3.477173089981079
6100,-3.729123592376709,-3.292527914047241,-3.3962504863739014,-3.5521271228790283
6200,-3.6172685623168945,-3.2478647232055664,-3.3609719276428223,-3.5099945068359375
6300,-3.685422897338867,-3.3199737071990967,-3.433978319168091,-3.577305316925049
6400,-3.639669895172119,-3.201730251312256,-3.3391010761260986,-3.478186845779419
6500,-3.5367555618286133,-3.1491522789001465,-3.2676215171813965,-3.3665771484375
6600,-3.6711795330047607,-3.299154758453369,-3.3803551197052,-3.4958529472351074
6700,-3.702652931213379,-3.3015387058258057,-3.431094169616699,-3.542250156402588
6800,-3.779632091522217,-3.33357834815979,-3.4046690464019775,-3.5680978298187256
6900,-3.729910135269165,-3.29006028175354,-3.38377046585083,-3.535425901412964
7000,-3.72050404548645,-3.2326574325561523,-3.4200098514556885,-3.574808120727539
7100,-3.7549338340759277,-3.3807919025421143,-3.482483386993408,-3.6261844635009766
7200,-3.6980111598968506,-3.2357611656188965,-3.406669855117798,-3.5415773391723633
7300,-3.6803414821624756,-3.282654285430908,-3.3927674293518066,-3.569289207458496
7400,-3.54939603805542,-3.1950523853302,-3.29376482963562,-3.4176025390625
7500,-3.7506730556488037,-3.348783254623413,-3.420851469039917,-3.6113953590393066
7600,-3.7152678966522217,-3.2883400917053223,-3.4203908443450928,-3.5683393478393555
7700,-3.7396273612976074,-3.294321298599243,-3.451653003692627,-3.631096124649048
7800,-3.638183355331421,-3.181100606918335,-3.3152430057525635,-3.5360817909240723
7900,-3.762293577194214,-3.2925055027008057,-3.4518392086029053,-3.617750644683838
8000,-3.676389694213867,-3.26383900642395,-3.397155523300171,-3.5471887588500977
8100,-3.749103307723999,-3.319352626800537,-3.4325926303863525,-3.6448333263397217
8200,-3.7299859523773193,-3.3201894760131836,-3.453385591506958,-3.5929038524627686
8300,-3.7365658283233643,-3.344236373901367,-3.4366567134857178,-3.613835573196411
8400,-3.67456316947937,-3.2387754917144775,-3.359697103500366,-3.5093536376953125
8500,-3.749584674835205,-3.3090124130249023,-3.419717311859131,-3.6408462524414062
8600,-3.7129862308502197,-3.2728724479675293,-3.4239866733551025,-3.606884002685547
8700,-3.776458978652954,-3.286231279373169,-3.454375982284546,-3.578643560409546
8800,-3.7374818325042725,-3.2826948165893555,-3.4014487266540527,-3.589564561843872
8900,-3.63629150390625,-3.176652669906616,-3.334773302078247,-3.486839532852173
9000,-3.6715924739837646,-3.2800092697143555,-3.3612887859344482,-3.526672840118408
9100,-3.6897730827331543,-3.265446901321411,-3.369037389755249,-3.5274062156677246
9200,-3.6812386512756348,-3.2546157836914062,-3.371131420135498,-3.519587755203247
9300,-3.6869401931762695,-3.258373260498047,-3.3734045028686523,-3.527726650238037
9400,-3.6841747760772705,-3.255174398422241,-3.3728339672088623,-3.5290095806121826
9500,-3.6810004711151123,-3.2483036518096924,-3.376899242401123,-3.529607057571411
9600,-3.6843721866607666,-3.252375364303589,-3.375720977783203,-3.535886526107788
9700,-3.6898434162139893,-3.2479944229125977,-3.3711557388305664,-3.538947820663452
9800,-3.684065818786621,-3.246195077896118,-3.3668885231018066,-3.534428834915161
9900,-3.687187910079956,-3.2479019165039062,-3.368178367614746,-3.5406782627105713
10000,-3.687037229537964,-3.2470147609710693,-3.3687283992767334,-3.5382180213928223
