1,4.702023029327393
100,1.6630691289901733
200,1.5451658964157104
300,1.4497278928756714
400,1.4284844398498535
500,1.290325403213501
600,1.2356053590774536
700,1.2389140129089355
800,1.2309751510620117
900,1.1914687156677246
1000,1.1748247146606445
1100,1.1865170001983643
1200,1.1819653511047363
1300,1.147263765335083
1400,1.152740478515625
1500,1.1416449546813965
1600,1.1746299266815186
1700,1.2071934938430786
1800,1.190048336982727
1900,1.176711082458496
2000,1.1917088031768799
2100,1.143748164176941
2200,1.1606290340423584
2300,1.1586686372756958
2400,1.149796724319458
2500,1.138497233390808
2600,1.1384608745574951
2700,1.1521185636520386
2800,1.131879210472107
2900,1.166611671447754
3000,1.1176502704620361
3100,1.1459118127822876
3200,1.1995986700057983
3300,1.1662156581878662
3400,1.0989490747451782
3500,1.1485986709594727
3600,1.160114049911499
3700,1.132683515548706
3800,1.1259745359420776
3900,1.1242496967315674
4000,1.1094520092010498
4100,1.0984481573104858
4200,1.0798758268356323
4300,1.1783770322799683
4400,1.1613689661026
4500,1.1849424839019775
4600,1.1778960227966309
4700,1.1734726428985596
4800,1.1568472385406494
4900,1.1152645349502563
5000,1.15969717502594
5100,1.1082746982574463
5200,1.0957489013671875
5300,1.1150156259536743
5400,1.1839534044265747
5500,1.1585991382598877
5600,1.1645902395248413
5700,1.1379424333572388
5800,1.1556613445281982
5900,1.157252550125122
6000,1.1440277099609375
6100,1.1477667093276978
6200,1.1430836915969849
6300,1.1581964492797852
6400,1.1518499851226807
6500,1.134280800819397
6600,1.1572060585021973
6700,1.2054359912872314
6800,1.1605596542358398
6900,1.1433323621749878
7000,1.1168359518051147
7100,1.1517360210418701
7200,1.1806867122650146
7300,1.2092088460922241
7400,1.1976679563522339
7500,1.1970982551574707
7600,1.1939812898635864
7700,1.1599912643432617
7800,1.1279809474945068
7900,1.1515250205993652
8000,1.0959490537643433
8100,1.1808973550796509
8200,1.2209961414337158
8300,1.13339364528656
8400,1.1393574476242065
8500,1.1579121351242065
8600,1.1528617143630981
8700,1.1724258661270142
8800,1.1709007024765015
8900,1.1332389116287231
9000,1.1287474632263184
9100,1.1450183391571045
9200,1.1506679058074951
9300,1.1431118249893188
9400,1.1433000564575195
9500,1.1561839580535889
9600,1.1620079278945923
9700,1.158810019493103
9800,1.1632752418518066
9900,1.162018895149231
10000,1.1563211679458618
