1,2.4006290435791016
10,2.5517501831054688
20,2.3172717094421387
30,2.355593681335449
40,2.3603804111480713
50,2.360816240310669
60,2.354879379272461
70,2.341844320297241
80,2.3057165145874023
90,2.309234619140625
100,2.2897307872772217
110,2.308175563812256
120,2.2939770221710205
130,2.274275779724121
140,2.2648019790649414
150,2.2785556316375732
160,2.265063524246216
170,2.2548375129699707
180,2.2708935737609863
190,2.243553876876831
200,2.239856719970703
210,2.208761692047119
220,2.179253339767456
230,2.174588441848755
240,2.1651504039764404
250,2.1745877265930176
260,2.1604816913604736
270,2.1560733318328857
280,2.1514222621917725
290,2.1411030292510986
300,2.1428167819976807
310,2.144186019897461
320,2.155587911605835
330,2.1518518924713135
340,2.156043529510498
350,2.164065361022949
360,2.1464788913726807
370,2.159252882003784
380,2.1190648078918457
390,2.103146553039551
400,2.1077091693878174
410,2.0957746505737305
420,2.0905675888061523
430,2.09763765335083
440,2.1138885021209717
450,2.103360652923584
460,2.065361261367798
470,2.0619723796844482
480,2.0456230640411377
490,2.0382070541381836
500,2.0241377353668213
510,2.020108938217163
520,2.0244100093841553
530,2.0484890937805176
540,2.027432918548584
550,2.012207508087158
560,2.0120723247528076
570,2.0029022693634033
580,1.9883440732955933
590,1.9676486253738403
600,1.9575655460357666
610,1.9514474868774414
620,1.9648158550262451
630,1.9464380741119385
640,1.9525479078292847
650,1.9454010725021362
660,1.9487230777740479
670,1.9507255554199219
680,1.9464694261550903
690,1.9324851036071777
700,1.9288372993469238
710,1.9008444547653198
720,1.9232770204544067
730,1.891747236251831
740,1.8624199628829956
750,1.8697060346603394
760,1.8726625442504883
770,1.8820782899856567
780,1.866417646408081
790,1.8945612907409668
800,1.868276596069336
810,1.8757660388946533
820,1.8633594512939453
830,1.8633359670639038
840,1.8647364377975464
850,1.8549531698226929
860,1.820060133934021
870,1.8252439498901367
880,1.82582688331604
890,1.8233810663223267
900,1.840641736984253
910,1.83971107006073
920,1.8059993982315063
930,1.8203493356704712
940,1.8198457956314087
950,1.8047828674316406
960,1.785374402999878
970,1.7937854528427124
980,1.7612069845199585
990,1.740880012512207
1000,1.7681556940078735
1010,1.7471187114715576
1020,1.758506178855896
1030,1.7896586656570435
1040,1.7760140895843506
1050,1.7721723318099976
1060,1.7720316648483276
1070,1.7693395614624023
1080,1.7503325939178467
1090,1.7627484798431396
1100,1.7599674463272095
1110,1.7651790380477905
1120,1.744571328163147
1130,1.7524338960647583
1140,1.7373052835464478
1150,1.7505406141281128
1160,1.7338008880615234
1170,1.725032925605774
1180,1.710140347480774
1190,1.7233388423919678
1200,1.7427862882614136
1210,1.7384331226348877
1220,1.7357176542282104
1230,1.728268027305603
1240,1.6942344903945923
1250,1.666275978088379
1260,1.6657949686050415
1270,1.6791229248046875
1280,1.6722757816314697
1290,1.6688023805618286
1300,1.6666685342788696
1310,1.6546560525894165
1320,1.6840227842330933
1330,1.6865711212158203
1340,1.678001046180725
1350,1.6706396341323853
1360,1.679577350616455
1370,1.6845815181732178
1380,1.6706922054290771
1390,1.6512528657913208
1400,1.6530109643936157
1410,1.6820374727249146
1420,1.680433750152588
1430,1.6442292928695679
1440,1.651447057723999
1450,1.681386947631836
1460,1.6670106649398804
1470,1.6952828168869019
1480,1.6775709390640259
1490,1.6616688966751099
1500,1.6832059621810913
1510,1.6528373956680298
1520,1.670527696609497
1530,1.6480998992919922
1540,1.643986701965332
1550,1.6489551067352295
1560,1.6370073556900024
1570,1.6213486194610596
1580,1.6137514114379883
1590,1.6432385444641113
1600,1.6009219884872437
1610,1.6164590120315552
1620,1.616115689277649
1630,1.6031492948532104
1640,1.6184918880462646
1650,1.6219348907470703
1660,1.6196668148040771
1670,1.5947685241699219
1680,1.6011888980865479
1690,1.5925463438034058
1700,1.6074074506759644
1710,1.6212671995162964
1720,1.6447868347167969
1730,1.6484345197677612
1740,1.633584976196289
1750,1.6338293552398682
1760,1.6173874139785767
1770,1.6065019369125366
1780,1.603453278541565
1790,1.616283655166626
1800,1.6213375329971313
1810,1.6191445589065552
1820,1.6149277687072754
1830,1.6163280010223389
1840,1.6321358680725098
1850,1.6340923309326172
1860,1.6071972846984863
1870,1.6479448080062866
1880,1.621690273284912
1890,1.6179567575454712
1900,1.606987476348877
1910,1.646790862083435
1920,1.614493727684021
1930,1.6082124710083008
1940,1.627064824104309
1950,1.6054006814956665
1960,1.584533929824829
1970,1.6071709394454956
1980,1.6036560535430908
1990,1.5690340995788574
2000,1.5840641260147095
2010,1.5812251567840576
2020,1.5793142318725586
2030,1.582493782043457
2040,1.5712300539016724
2050,1.5679521560668945
2060,1.5718494653701782
2070,1.5580576658248901
2080,1.517050862312317
2090,1.5293341875076294
2100,1.5521752834320068
2110,1.5556808710098267
2120,1.5360491275787354
2130,1.5410953760147095
2140,1.5301930904388428
2150,1.5208125114440918
2160,1.4994139671325684
2170,1.5053086280822754
2180,1.5186362266540527
2190,1.5078696012496948
2200,1.5043931007385254
2210,1.5172539949417114
2220,1.502282738685608
2230,1.5369471311569214
2240,1.5170634984970093
2250,1.5043290853500366
2260,1.5128912925720215
2270,1.487922191619873
2280,1.4805961847305298
2290,1.4928253889083862
2300,1.5066781044006348
2310,1.4957036972045898
2320,1.4891794919967651
2330,1.471898078918457
2340,1.4978854656219482
2350,1.478020191192627
2360,1.4831186532974243
2370,1.496827244758606
2380,1.5102324485778809
2390,1.5100027322769165
2400,1.501197099685669
2410,1.482538104057312
2420,1.4587836265563965
2430,1.4759423732757568
2440,1.4747192859649658
2450,1.4793939590454102
2460,1.5024418830871582
2470,1.521894097328186
2480,1.5200724601745605
2490,1.502872347831726
2500,1.5091177225112915
2510,1.529751181602478
2520,1.51056706905365
2530,1.495921015739441
2540,1.4974068403244019
2550,1.486525297164917
2560,1.484585165977478
2570,1.5014010667800903
2580,1.4929516315460205
2590,1.4843018054962158
2600,1.457507610321045
2610,1.461944341659546
2620,1.480388879776001
2630,1.4723340272903442
2640,1.4718505144119263
2650,1.4590092897415161
2660,1.466220736503601
2670,1.4903602600097656
2680,1.4906448125839233
2690,1.4778130054473877
2700,1.4753550291061401
2710,1.4498181343078613
2720,1.4705814123153687
2730,1.449338674545288
2740,1.435386300086975
2750,1.4289734363555908
2760,1.428695559501648
2770,1.4471896886825562
2780,1.4285944700241089
2790,1.4164109230041504
2800,1.4266506433486938
2810,1.4653874635696411
2820,1.4321541786193848
2830,1.4405165910720825
2840,1.43962562084198
2850,1.413532018661499
2860,1.3975437879562378
2870,1.4076565504074097
2880,1.441895842552185
2890,1.4471584558486938
2900,1.4112801551818848
2910,1.4445773363113403
2920,1.4473669528961182
2930,1.4492689371109009
2940,1.4405864477157593
2950,1.4602504968643188
2960,1.4185949563980103
2970,1.4205443859100342
2980,1.439550518989563
2990,1.4387441873550415
3000,1.4532610177993774
3010,1.4594870805740356
3020,1.4547665119171143
3030,1.4750628471374512
3040,1.4822711944580078
3050,1.4703102111816406
3060,1.4513237476348877
3070,1.4557666778564453
3080,1.4618682861328125
3090,1.4695611000061035
3100,1.4565026760101318
3110,1.4530192613601685
3120,1.4568109512329102
3130,1.4410954713821411
3140,1.44929039478302
3150,1.4512940645217896
3160,1.4565995931625366
3170,1.4659440517425537
3180,1.4304133653640747
3190,1.4235838651657104
3200,1.4307509660720825
3210,1.4391404390335083
3220,1.4209356307983398
3230,1.440211534500122
3240,1.45447838306427
3250,1.4668846130371094
3260,1.4446157217025757
3270,1.4478559494018555
3280,1.4399081468582153
3290,1.426570177078247
3300,1.4323993921279907
3310,1.445792317390442
3320,1.4307332038879395
3330,1.432263970375061
3340,1.4027515649795532
3350,1.406341791152954
3360,1.42722749710083
3370,1.4268404245376587
3380,1.4289888143539429
3390,1.4115359783172607
3400,1.4381672143936157
3410,1.4477887153625488
3420,1.4478307962417603
3430,1.4549765586853027
3440,1.462037444114685
3450,1.4693293571472168
3460,1.4702937602996826
3470,1.4793674945831299
3480,1.4595212936401367
3490,1.4865683317184448
3500,1.491586446762085
3510,1.4747809171676636
3520,1.4723650217056274
3530,1.445088267326355
3540,1.4390112161636353
3550,1.458487868309021
3560,1.4587998390197754
3570,1.4520806074142456
3580,1.449290156364441
3590,1.4324064254760742
3600,1.4476381540298462
3610,1.4081474542617798
3620,1.4185742139816284
3630,1.4075803756713867
3640,1.4014142751693726
3650,1.391906976699829
3660,1.4074794054031372
3670,1.405623435974121
3680,1.397289514541626
3690,1.4088118076324463
3700,1.4206353425979614
3710,1.4213870763778687
3720,1.4088090658187866
3730,1.3997935056686401
3740,1.4039041996002197
3750,1.4065366983413696
3760,1.3993412256240845
3770,1.3906689882278442
3780,1.3928292989730835
3790,1.3778713941574097
3800,1.3495463132858276
3810,1.3558138608932495
3820,1.3635603189468384
3830,1.3683944940567017
3840,1.3869972229003906
3850,1.369165301322937
3860,1.3758392333984375
3870,1.378921389579773
3880,1.384030818939209
3890,1.370300054550171
3900,1.3988021612167358
3910,1.3632943630218506
3920,1.3394821882247925
3930,1.342602252960205
3940,1.3608397245407104
3950,1.3392999172210693
3960,1.3372714519500732
3970,1.343501329421997
3980,1.3282227516174316
3990,1.3370307683944702
4000,1.3284406661987305
4010,1.319700837135315
4020,1.3073171377182007
4030,1.3267014026641846
4040,1.3193867206573486
4050,1.317225456237793
4060,1.2969543933868408
4070,1.288541316986084
4080,1.3052055835723877
4090,1.3274976015090942
4100,1.3416166305541992
4110,1.3640300035476685
4120,1.358404278755188
4130,1.3517343997955322
4140,1.347764492034912
4150,1.3421719074249268
4160,1.3515726327896118
4170,1.3491090536117554
4180,1.3525387048721313
4190,1.3451018333435059
4200,1.3666276931762695
4210,1.3713420629501343
4220,1.35806143283844
4230,1.3640146255493164
4240,1.378487467765808
4250,1.4017114639282227
4260,1.3797273635864258
4270,1.3872708082199097
4280,1.4115980863571167
4290,1.389379858970642
4300,1.4150125980377197
4310,1.4101794958114624
4320,1.3880958557128906
4330,1.3758423328399658
4340,1.4061704874038696
4350,1.3807237148284912
4360,1.4095298051834106
4370,1.4005461931228638
4380,1.3823808431625366
4390,1.3565951585769653
4400,1.3464263677597046
4410,1.3391321897506714
4420,1.3301730155944824
4430,1.336208462715149
4440,1.3387197256088257
4450,1.3483428955078125
4460,1.3546513319015503
4470,1.3791667222976685
4480,1.3746907711029053
4490,1.3839750289916992
4500,1.368310809135437
4510,1.3817574977874756
4520,1.377931833267212
4530,1.3729608058929443
4540,1.3774539232254028
4550,1.381468415260315
4560,1.3888870477676392
4570,1.3881306648254395
4580,1.3837631940841675
4590,1.3758074045181274
4600,1.374151587486267
4610,1.3757271766662598
4620,1.3732510805130005
4630,1.3715717792510986
4640,1.3701590299606323
4650,1.370393991470337
4660,1.3707456588745117
4670,1.3720370531082153
4680,1.3731603622436523
4690,1.3741837739944458
4700,1.3733514547348022
4710,1.3741099834442139
4720,1.3734123706817627
4730,1.3723816871643066
4740,1.368929386138916
4750,1.3667552471160889
4760,1.3653202056884766
4770,1.3642168045043945
4780,1.3627427816390991
4790,1.3624231815338135
4800,1.362275242805481
4810,1.362891435623169
4820,1.3650212287902832
4830,1.3656038045883179
4840,1.366180181503296
4850,1.3662768602371216
4860,1.3673144578933716
4870,1.3675386905670166
4880,1.3682368993759155
4890,1.367185115814209
4900,1.3670737743377686
4910,1.366252064704895
4920,1.3660730123519897
4930,1.3663122653961182
4940,1.3654075860977173
4950,1.3660852909088135
4960,1.366987705230713
4970,1.366302728652954
4980,1.3659887313842773
4990,1.366161584854126
5000,1.3654636144638062
