1,1.4381273984909058
100,1.5615314245224
200,1.4548472166061401
300,1.4123119115829468
400,1.4033918380737305
500,1.422812819480896
600,1.391312599182129
700,1.374814748764038
800,1.3599367141723633
900,1.3717353343963623
1000,1.3531007766723633
1100,1.3680003881454468
1200,1.3372472524642944
1300,1.346962332725525
1400,1.34953773021698
1500,1.2949248552322388
1600,1.310137152671814
1700,1.307498812675476
1800,1.3032513856887817
1900,1.2829395532608032
2000,1.2954641580581665
2100,1.2631686925888062
2200,1.2880210876464844
2300,1.2677974700927734
2400,1.2689729928970337
2500,1.2325077056884766
2600,1.2540842294692993
2700,1.2425239086151123
2800,1.2421519756317139
2900,1.2249963283538818
3000,1.2294793128967285
3100,1.2358746528625488
3200,1.2296009063720703
3300,1.2147592306137085
3400,1.2347183227539062
3500,1.2137105464935303
3600,1.1879574060440063
3700,1.1927834749221802
3800,1.1876327991485596
3900,1.1904542446136475
4000,1.1645703315734863
4100,1.1882034540176392
4200,1.1660090684890747
4300,1.1532732248306274
4400,1.167441964149475
4500,1.1637029647827148
4600,1.1540628671646118
4700,1.1415547132492065
4800,1.1462759971618652
4900,1.116930603981018
5000,1.1346116065979004
5100,1.1238189935684204
5200,1.126537561416626
5300,1.1223160028457642
5400,1.1296299695968628
5500,1.145438313484192
5600,1.1325315237045288
5700,1.1067297458648682
5800,1.104742169380188
5900,1.0964778661727905
6000,1.110053539276123
6100,1.1032524108886719
6200,1.0965198278427124
6300,1.096798300743103
6400,1.1132124662399292
6500,1.1056755781173706
6600,1.1046651601791382
6700,1.103540301322937
6800,1.0876063108444214
6900,1.0985966920852661
7000,1.1011695861816406
7100,1.1048864126205444
7200,1.088057279586792
7300,1.0926969051361084
7400,1.1049829721450806
7500,1.0948176383972168
7600,1.1075855493545532
7700,1.0924707651138306
7800,1.0884722471237183
7900,1.0791221857070923
8000,1.0780833959579468
8100,1.0895473957061768
8200,1.0696178674697876
8300,1.0853224992752075
8400,1.075954794883728
8500,1.0646860599517822
8600,1.0572515726089478
8700,1.072095274925232
8800,1.0692716836929321
8900,1.0547226667404175
9000,1.062836766242981
9100,1.0665984153747559
9200,1.0615713596343994
9300,1.0596376657485962
9400,1.058780550956726
9500,1.0605170726776123
9600,1.058326005935669
9700,1.0541975498199463
9800,1.0522022247314453
9900,1.0554351806640625
10000,1.057159662246704
