1,0.5819745063781738,-0.1511426419019699,-0.220703125,1.036407470703125
100,0.6612164378166199,-0.13432197272777557,-0.21340738236904144,1.234306812286377
200,0.6733718514442444,-0.13133953511714935,-0.20824334025382996,1.215441107749939
300,0.6405628323554993,-0.1101556122303009,-0.192966029047966,1.2380352020263672
400,0.7005374431610107,-0.0841134637594223,-0.16061656177043915,1.2971071004867554
500,0.715269148349762,-0.03775668889284134,-0.1176849827170372,1.3231533765792847
600,0.7688820958137512,-0.022008366882801056,-0.10473476350307465,1.3334532976150513
700,0.7427176833152771,-0.033121079206466675,-0.0948537215590477,1.3351764678955078
800,0.7446163296699524,-0.03111054003238678,-0.10542864352464676,1.3367563486099243
900,0.7528325915336609,-0.011110060848295689,-0.08747969567775726,1.369260311126709
1000,0.7440453767776489,-0.009551513940095901,-0.08940272033214569,1.36181640625
1100,0.7269168496131897,-0.05018541216850281,-0.12184561043977737,1.3512698411941528
1200,0.7472702264785767,-0.028924092650413513,-0.08877746760845184,1.3355770111083984
1300,0.7308067083358765,-0.030434098094701767,-0.10479506850242615,1.3134300708770752
1400,0.6995444893836975,-0.04633994400501251,-0.13487565517425537,1.3136178255081177
1500,0.7005177140235901,-0.0348849818110466,-0.12527340650558472,1.3206963539123535
1600,0.7072285413742065,-0.04675878584384918,-0.12910521030426025,1.3174569606781006
1700,0.7251986861228943,-0.03906463086605072,-0.11106806993484497,1.3111588954925537
1800,0.7187051177024841,-0.05791025608778,-0.12711426615715027,1.3013231754302979
1900,0.7046745419502258,-0.06273199617862701,-0.15414045751094818,1.2789093255996704
2000,0.7129224538803101,-0.06726618111133575,-0.12096156179904938,1.3032803535461426
2100,0.7212640047073364,-0.04422746226191521,-0.12113417685031891,1.320963740348816
2200,0.7394141554832458,-0.037226613610982895,-0.1065785363316536,1.3420003652572632
2300,0.7283753752708435,-0.037341367453336716,-0.11294358223676682,1.329699158668518
2400,0.7174577116966248,-0.07050785422325134,-0.137078657746315,1.3002092838287354
2500,0.6999462246894836,-0.04512561485171318,-0.14550305902957916,1.328909993171692
2600,0.7052994966506958,-0.0498400516808033,-0.14467450976371765,1.2930865287780762
2700,0.7103756666183472,-0.05572836846113205,-0.1255551278591156,1.305757761001587
2800,0.7193998694419861,-0.047762688249349594,-0.13217955827713013,1.3179250955581665
2900,0.7485468983650208,-0.042130399495363235,-0.10808856040239334,1.334822177886963
3000,0.7112334966659546,-0.04566473886370659,-0.13006865978240967,1.3232762813568115
3100,0.7210475206375122,-0.0649101734161377,-0.14155997335910797,1.3179306983947754
3200,0.7119654417037964,-0.05099065601825714,-0.13245905935764313,1.3317310810089111
3300,0.6957730054855347,-0.07013500481843948,-0.1571815460920334,1.2907098531723022
3400,0.6901848316192627,-0.0454423651099205,-0.13480301201343536,1.2934966087341309
3500,0.7040165662765503,-0.0853353962302208,-0.1596636325120926,1.288320779800415
3600,0.7058423757553101,-0.08507966250181198,-0.13248634338378906,1.2904142141342163
3700,0.7256259918212891,-0.0560772567987442,-0.14837013185024261,1.2921102046966553
3800,0.7318399548530579,-0.027491940185427666,-0.12844592332839966,1.3318463563919067
3900,0.7167981863021851,-0.05673668161034584,-0.12787684798240662,1.323569655418396
4000,0.7344774007797241,-0.04377325624227524,-0.13349510729312897,1.3273396492004395
4100,0.7156309485435486,-0.06088915839791298,-0.13868065178394318,1.303789734840393
4200,0.6948909759521484,-0.06507518142461777,-0.13121099770069122,1.2969838380813599
4300,0.6947479844093323,-0.08472289144992828,-0.15314678847789764,1.2640143632888794
4400,0.7018145322799683,-0.05068425089120865,-0.12843431532382965,1.3114194869995117
4500,0.7249919772148132,-0.08111941069364548,-0.14464792609214783,1.289313793182373
4600,0.720358669757843,-0.03445656597614288,-0.1404486745595932,1.3238747119903564
4700,0.7645461559295654,-0.04340643063187599,-0.1281978040933609,1.3314653635025024
4800,0.7307729125022888,-0.05400971695780754,-0.10414224117994308,1.3276994228363037
4900,0.722438395023346,-0.06740813702344894,-0.12765346467494965,1.3162004947662354
5000,0.7347614765167236,-0.03407035768032074,-0.11591365933418274,1.3168153762817383
5100,0.7028666734695435,-0.06250271201133728,-0.12229272723197937,1.2974048852920532
5200,0.7021781206130981,-0.06551004201173782,-0.1432245820760727,1.328862190246582
5300,0.7120399475097656,-0.04266839474439621,-0.12796254456043243,1.3173340559005737
5400,0.7339451909065247,-0.05149662494659424,-0.1066460907459259,1.3306446075439453
5500,0.7286993861198425,-0.057079870253801346,-0.1293419897556305,1.308449625968933
5600,0.7034804821014404,-0.0805787593126297,-0.1547703742980957,1.2760134935379028
5700,0.6951043009757996,-0.05788110941648483,-0.14202697575092316,1.2800462245941162
5800,0.7308341264724731,-0.03778553381562233,-0.11122274398803711,1.3425893783569336
5900,0.7368391752243042,-0.03609270974993706,-0.12463875859975815,1.3359326124191284
6000,0.724237859249115,-0.035857249051332474,-0.11439980566501617,1.3147773742675781
6100,0.7637019157409668,0.004754494875669479,-0.07230789959430695,1.4051340818405151
6200,0.7367902398109436,-0.030462214723229408,-0.10643918812274933,1.3559545278549194
6300,0.7528184652328491,-0.030491583049297333,-0.10637851059436798,1.3422435522079468
6400,0.7244797945022583,-0.03116459771990776,-0.11598231643438339,1.3616929054260254
6500,0.7332199811935425,-0.08793781697750092,-0.1425214409828186,1.2897207736968994
6600,0.7056810259819031,-0.07422231137752533,-0.1455577313899994,1.292137861251831
6700,0.6945968866348267,-0.09468930214643478,-0.15862850844860077,1.2572271823883057
6800,0.7052922248840332,-0.05983369052410126,-0.13088619709014893,1.3034101724624634
6900,0.699191153049469,-0.05632680281996727,-0.1325843781232834,1.3050830364227295
7000,0.6859438419342041,-0.05798693373799324,-0.12345881760120392,1.325435757637024
7100,0.7422483563423157,-0.04825621843338013,-0.11743111908435822,1.311208724975586
7200,0.7228087186813354,-0.04656371474266052,-0.12228809297084808,1.3183214664459229
7300,0.7277442812919617,-0.05483923852443695,-0.11799554526805878,1.3223271369934082
7400,0.727678656578064,-0.05550230294466019,-0.13307598233222961,1.3106874227523804
7500,0.7061601281166077,-0.03516007214784622,-0.12375115603208542,1.3362562656402588
7600,0.7285894155502319,-0.046247683465480804,-0.1081867516040802,1.334003210067749
7700,0.7168893218040466,-0.0446571409702301,-0.11467421799898148,1.325998306274414
7800,0.725561261177063,-0.04950473830103874,-0.13097123801708221,1.2941371202468872
7900,0.7258148193359375,-0.023115860298275948,-0.1110597476363182,1.3316102027893066
8000,0.7518962025642395,-0.015334105119109154,-0.08863353729248047,1.3695038557052612
8100,0.7256893515586853,-0.03952528163790703,-0.11958370357751846,1.3445266485214233
8200,0.7410581707954407,-0.04323729872703552,-0.09913420677185059,1.3296750783920288
8300,0.7511374950408936,-0.036220621317625046,-0.10871309787034988,1.335963487625122
8400,0.7446693181991577,-0.04483988136053085,-0.10812950134277344,1.3448805809020996
8500,0.7180773615837097,-0.05535076558589935,-0.1195417046546936,1.3200355768203735
8600,0.7016170024871826,-0.054840393364429474,-0.14710842072963715,1.2859902381896973
8700,0.7036344408988953,-0.06731291115283966,-0.140181303024292,1.2898695468902588
8800,0.7054298520088196,-0.08084697276353836,-0.15679185092449188,1.2837128639221191
8900,0.7136042714118958,-0.08675545454025269,-0.16988828778266907,1.2498403787612915
9000,0.7202759981155396,-0.07658437639474869,-0.15079079568386078,1.297324776649475
9100,0.7235363721847534,-0.06826696544885635,-0.13901899755001068,1.3023700714111328
9200,0.7167854309082031,-0.06571319699287415,-0.13318008184432983,1.3091886043548584
9300,0.7193598747253418,-0.061973053961992264,-0.13265669345855713,1.3098556995391846
9400,0.7196065187454224,-0.059655167162418365,-0.13441726565361023,1.3071801662445068
9500,0.7190730571746826,-0.06134540215134621,-0.1376640945672989,1.3055561780929565
9600,0.7180863618850708,-0.058991439640522,-0.13560894131660461,1.306125283241272
9700,0.718403160572052,-0.057460688054561615,-0.1331472396850586,1.3072166442871094
9800,0.7162483930587769,-0.057556308805942535,-0.13448214530944824,1.308861494064331
9900,0.7181463241577148,-0.056834448128938675,-0.1350117027759552,1.3105156421661377
10000,0.7173935770988464,-0.056146521121263504,-0.13407111167907715,1.3101588487625122
