1,-0.0008923430577851832,-0.005810389295220375,-0.002196288900449872
100,0.047525789588689804,-0.15996837615966797,-0.03947105258703232
200,0.07650395482778549,-0.19173438847064972,-0.03972635790705681
300,0.0712207481265068,-0.19745756685733795,-0.03958633542060852
400,0.06822526454925537,-0.21074950695037842,-0.040003158152103424
500,0.06909625977277756,-0.20804132521152496,-0.040783461183309555
600,0.06864310055971146,-0.2118767946958542,-0.03749236837029457
700,0.0731491670012474,-0.20681512355804443,-0.03953693062067032
800,0.07655231654644012,-0.19195643067359924,-0.03687691688537598
900,0.08298248797655106,-0.19270572066307068,-0.0367254875600338
1000,0.07755059748888016,-0.18487566709518433,-0.03706355765461922
1100,0.08178023248910904,-0.1953934282064438,-0.038657255470752716
1200,0.07629360258579254,-0.19507336616516113,-0.037086423486471176
1300,0.07822100073099136,-0.18606410920619965,-0.03510626032948494
1400,0.06386685371398926,-0.1824774146080017,-0.03457053378224373
1500,0.07067085802555084,-0.18596825003623962,-0.03532181680202484
1600,0.07046420872211456,-0.17825379967689514,-0.03324584662914276
1700,0.06203664466738701,-0.18245737254619598,-0.03356066718697548
1800,0.06378766149282455,-0.1820378452539444,-0.032523054629564285
1900,0.06461139768362045,-0.17596863210201263,-0.03735077753663063
2000,0.07463671267032623,-0.18424271047115326,-0.031632013618946075
2100,0.06767808645963669,-0.1712673306465149,-0.032074280083179474
2200,0.06925925612449646,-0.16824577748775482,-0.0317392572760582
2300,0.06659623980522156,-0.1723756641149521,-0.032772570848464966
2400,0.06398874521255493,-0.17123988270759583,-0.033767715096473694
2500,0.06265280395746231,-0.1731986403465271,-0.03198005631566048
2600,0.0636313259601593,-0.16689051687717438,-0.032358404248952866
2700,0.06318379938602448,-0.1661045104265213,-0.031171765178442
2800,0.06416824460029602,-0.16855821013450623,-0.02857697755098343
2900,0.05843597650527954,-0.16407053172588348,-0.02904980443418026
3000,0.06067701801657677,-0.17142006754875183,-0.029664071276783943
3100,0.051963042467832565,-0.17532752454280853,-0.030421821400523186
3200,0.056071050465106964,-0.17688186466693878,-0.031906235963106155
3300,0.06441463530063629,-0.17775383591651917,-0.030810821801424026
3400,0.06558459252119064,-0.17493119835853577,-0.03167843818664551
3500,0.06724286824464798,-0.175629124045372,-0.031118221580982208
3600,0.054426535964012146,-0.17284734547138214,-0.03276030719280243
3700,0.054883282631635666,-0.17155000567436218,-0.033120982348918915
3800,0.05303444713354111,-0.1723453402519226,-0.032072070986032486
3900,0.05864078179001808,-0.16478069126605988,-0.029008537530899048
4000,0.0610845722258091,-0.16782589256763458,-0.030368395149707794
4100,0.06599545478820801,-0.16614466905593872,-0.031416501849889755
4200,0.06679670512676239,-0.1750192493200302,-0.031962666660547256
4300,0.06338486820459366,-0.17231914401054382,-0.031335264444351196
4400,0.06258169561624527,-0.16608181595802307,-0.029021047055721283
4500,0.0621936209499836,-0.1615024209022522,-0.030861228704452515
4600,0.061320897191762924,-0.16659444570541382,-0.030280523002147675
4700,0.060168735682964325,-0.1585008054971695,-0.029319168999791145
4800,0.06612847745418549,-0.15378554165363312,-0.029291663318872452
4900,0.06940672546625137,-0.15723900496959686,-0.029465055093169212
5000,0.06556804478168488,-0.1623668521642685,-0.030406005680561066
5100,0.06229957193136215,-0.15563620626926422,-0.02892053872346878
5200,0.054344020783901215,-0.1593051552772522,-0.028614619746804237
5300,0.054602254182100296,-0.1511743664741516,-0.027162041515111923
5400,0.05811795964837074,-0.15778152644634247,-0.026969758793711662
5500,0.0560508631169796,-0.16226190328598022,-0.029040370136499405
5600,0.055468909442424774,-0.16312956809997559,-0.02960938774049282
5700,0.05519337207078934,-0.16662541031837463,-0.029846690595149994
5800,0.060726553201675415,-0.16304168105125427,-0.030293438583612442
5900,0.062176935374736786,-0.16445226967334747,-0.02911326475441456
6000,0.062420424073934555,-0.16608823835849762,-0.0275142639875412
6100,0.05369694158434868,-0.16551199555397034,-0.027067657560110092
6200,0.0520944781601429,-0.17030172049999237,-0.025949040427803993
6300,0.054593030363321304,-0.16743230819702148,-0.02737623266875744
6400,0.06270207464694977,-0.1678268313407898,-0.02820105478167534
6500,0.05934446305036545,-0.15930640697479248,-0.026377331465482712
6600,0.06685499101877213,-0.15828092396259308,-0.028149789199233055
6700,0.06669966131448746,-0.16868384182453156,-0.0277368426322937
6800,0.06746093183755875,-0.17094503343105316,-0.03112068958580494
6900,0.06106956675648689,-0.16178607940673828,-0.026067199185490608
7000,0.06573114544153214,-0.15587958693504333,-0.02985130250453949
7100,0.05910080671310425,-0.15875640511512756,-0.0290863998234272
7200,0.05559597536921501,-0.15981698036193848,-0.02942284382879734
7300,0.05749375373125076,-0.16121995449066162,-0.030118264257907867
7400,0.04746457189321518,-0.1585572063922882,-0.027126040309667587
7500,0.05386335402727127,-0.158882737159729,-0.02737058326601982
7600,0.054908692836761475,-0.16091912984848022,-0.028848107904195786
7700,0.053153350949287415,-0.16510023176670074,-0.02698107622563839
7800,0.04982785880565643,-0.1706388145685196,-0.028223413974046707
7900,0.052829038351774216,-0.17482690513134003,-0.030491121113300323
8000,0.05521736294031143,-0.17254731059074402,-0.029592612758278847
8100,0.04721381142735481,-0.1652711182832718,-0.02489549294114113
8200,0.048150692135095596,-0.16544252634048462,-0.027624351903796196
8300,0.055943068116903305,-0.16099074482917786,-0.026058979332447052
8400,0.05907601863145828,-0.15152974426746368,-0.02500743418931961
8500,0.06362532824277878,-0.14899632334709167,-0.025732794776558876
8600,0.06661959737539291,-0.14914284646511078,-0.027449747547507286
8700,0.06945493072271347,-0.15070849657058716,-0.0262532290071249
8800,0.07022000104188919,-0.1488414853811264,-0.025982873514294624
8900,0.07567743957042694,-0.14904460310935974,-0.027035122737288475
9000,0.07685215026140213,-0.14502406120300293,-0.02444658987224102
9100,0.07568538188934326,-0.14440229535102844,-0.025499636307358742
9200,0.07200967520475388,-0.14215418696403503,-0.02490941621363163
9300,0.0751817598938942,-0.13997666537761688,-0.024916812777519226
9400,0.07650056481361389,-0.1392272561788559,-0.025021865963935852
9500,0.07981785386800766,-0.13825231790542603,-0.02472684532403946
9600,0.08228493481874466,-0.13647404313087463,-0.024625509977340698
9700,0.08317320048809052,-0.13560616970062256,-0.024643126875162125
9800,0.08268321305513382,-0.1366545557975769,-0.02501015178859234
9900,0.08219647407531738,-0.13866832852363586,-0.025067007169127464
10000,0.08198998868465424,-0.1401584893465042,-0.025507204234600067
