1,0.5002812147140503
100,0.6391575932502747
200,0.6952123641967773
300,0.7300843596458435
400,0.7486873269081116
500,0.7426595091819763
600,0.7639151811599731
700,0.8007433414459229
800,0.7866889238357544
900,0.8192371129989624
1000,0.8105919361114502
1100,0.8146122097969055
1200,0.8549081683158875
1300,0.8271764516830444
1400,0.8319689035415649
1500,0.8017304539680481
1600,0.8241711258888245
1700,0.8370521664619446
1800,0.8249403834342957
1900,0.8339180946350098
2000,0.8653038144111633
2100,0.8600752353668213
2200,0.8333225250244141
2300,0.8908348083496094
2400,0.8874616622924805
2500,0.8789985775947571
2600,0.9018457531929016
2700,0.8958542943000793
2800,0.8524617552757263
2900,0.871604859828949
3000,0.8742133975028992
3100,0.85918128490448
3200,0.8480520248413086
3300,0.9008278250694275
3400,0.8319682478904724
3500,0.8411045074462891
3600,0.855990469455719
3700,0.8611208200454712
3800,0.8402066230773926
3900,0.8391406536102295
4000,0.8315154910087585
4100,0.8895393013954163
4200,0.7974565625190735
4300,0.8607583045959473
4400,0.848892867565155
4500,0.8328257203102112
4600,0.8500677347183228
4700,0.8106251358985901
4800,0.8348333239555359
4900,0.8249122500419617
5000,0.8663051128387451
5100,0.852689802646637
5200,0.8568108677864075
5300,0.8663097023963928
5400,0.8606590628623962
5500,0.8689719438552856
5600,0.8273412585258484
5700,0.8510216474533081
5800,0.8804834485054016
5900,0.8532227277755737
6000,0.8862144351005554
6100,0.8528962731361389
6200,0.8360929489135742
6300,0.8646790385246277
6400,0.86857008934021
6500,0.8189207315444946
6600,0.850268542766571
6700,0.858113706111908
6800,0.8575090169906616
6900,0.820249080657959
7000,0.8243658542633057
7100,0.8590187430381775
7200,0.8386567831039429
7300,0.8459627628326416
7400,0.8516758680343628
7500,0.8313829898834229
7600,0.8380980491638184
7700,0.8270779848098755
7800,0.8250629901885986
7900,0.8544257283210754
8000,0.8520084619522095
8100,0.810390055179596
8200,0.8172294497489929
8300,0.8509803414344788
8400,0.8555101156234741
8500,0.860281229019165
8600,0.8746395707130432
8700,0.8754971027374268
8800,0.8523862361907959
8900,0.8662222027778625
9000,0.8272116184234619
9100,0.8394629955291748
9200,0.8513697981834412
9300,0.858343780040741
9400,0.8544824719429016
9500,0.850132405757904
9600,0.8461214303970337
9700,0.8413406014442444
9800,0.8384677171707153
9900,0.8394839763641357
10000,0.84117192029953
