1,1.4488106966018677
100,1.3440476655960083
200,1.2440913915634155
300,1.2254438400268555
400,1.1911704540252686
500,1.2050162553787231
600,1.1853179931640625
700,1.196291446685791
800,1.2040883302688599
900,1.1959704160690308
1000,1.1823091506958008
1100,1.1749693155288696
1200,1.1517292261123657
1300,1.1411110162734985
1400,1.123030185699463
1500,1.110682725906372
1600,1.1003568172454834
1700,1.118394136428833
1800,1.1136947870254517
1900,1.0624330043792725
2000,1.0723844766616821
2100,1.072830080986023
2200,1.0775343179702759
2300,1.0879936218261719
2400,1.079973816871643
2500,1.092698097229004
2600,1.0666157007217407
2700,1.0706628561019897
2800,1.042364478111267
2900,1.0475163459777832
3000,1.0604639053344727
3100,1.079210877418518
3200,1.0572113990783691
3300,1.0774171352386475
3400,1.0525048971176147
3500,1.064173698425293
3600,1.0554051399230957
3700,1.0886834859848022
3800,1.076422929763794
3900,1.0775920152664185
4000,1.081911563873291
4100,1.0697237253189087
4200,1.042056918144226
4300,1.0124287605285645
4400,1.05845308303833
4500,1.0143704414367676
4600,1.0450094938278198
4700,1.0156916379928589
4800,1.0019506216049194
4900,0.9971247911453247
5000,1.0302808284759521
5100,1.0308114290237427
5200,1.0391616821289062
5300,1.0530390739440918
5400,1.0351699590682983
5500,1.0589687824249268
5600,1.0075205564498901
5700,1.0136305093765259
5800,1.0149271488189697
5900,1.00583016872406
6000,1.0286972522735596
6100,1.0421407222747803
6200,1.0466086864471436
6300,1.0568583011627197
6400,1.075469970703125
6500,1.0423117876052856
6600,1.0260682106018066
6700,1.0457603931427002
6800,1.0142321586608887
6900,1.0253605842590332
7000,1.026915431022644
7100,1.0330830812454224
7200,1.0317463874816895
7300,1.0213265419006348
7400,1.0237376689910889
7500,1.0205034017562866
7600,1.0043416023254395
7700,1.0111101865768433
7800,1.0154261589050293
7900,1.0020350217819214
8000,1.0380357503890991
8100,1.037282943725586
8200,1.0510436296463013
8300,1.031313419342041
8400,1.0350615978240967
8500,1.0474350452423096
8600,1.0458171367645264
8700,1.0006814002990723
8800,1.0125654935836792
8900,1.0393320322036743
9000,1.0428338050842285
9100,1.027077078819275
9200,1.0360536575317383
9300,1.0301513671875
9400,1.0271919965744019
9500,1.0200251340866089
9600,1.02021324634552
9700,1.0220931768417358
9800,1.0233795642852783
9900,1.018528699874878
10000,1.0207337141036987
