1,1.5574458837509155
100,1.48374342918396
200,1.2862298488616943
300,1.211458444595337
400,1.1785295009613037
500,1.1936429738998413
600,1.1647162437438965
700,1.168029546737671
800,1.1638343334197998
900,1.1678918600082397
1000,1.1466299295425415
1100,1.1605548858642578
1200,1.1369249820709229
1300,1.1430939435958862
1400,1.141647458076477
1500,1.1251155138015747
1600,1.1314226388931274
1700,1.1049970388412476
1800,1.124411940574646
1900,1.102448582649231
2000,1.0977646112442017
2100,1.1040273904800415
2200,1.079721212387085
2300,1.0926234722137451
2400,1.0834225416183472
2500,1.0914027690887451
2600,1.0716816186904907
2700,1.0651679039001465
2800,1.05744206905365
2900,1.0538278818130493
3000,1.0491658449172974
3100,1.0524861812591553
3200,1.0566980838775635
3300,1.0450459718704224
3400,1.0378960371017456
3500,1.0447593927383423
3600,1.0512341260910034
3700,1.049058198928833
3800,1.0534697771072388
3900,1.0495775938034058
4000,1.0405110120773315
4100,1.0290945768356323
4200,1.0379431247711182
4300,1.0289289951324463
4400,1.0380492210388184
4500,1.0314794778823853
4600,1.0364331007003784
4700,1.0305837392807007
4800,1.022834062576294
4900,1.005988359451294
5000,1.0165539979934692
5100,1.012694239616394
5200,1.0137381553649902
5300,1.028030276298523
5400,1.018798589706421
5500,1.0158393383026123
5600,1.0204968452453613
5700,1.011723518371582
5800,1.0336685180664062
5900,1.025485873222351
6000,1.008994221687317
6100,1.0169625282287598
6200,0.9982578158378601
6300,1.0154377222061157
6400,1.0119014978408813
6500,1.0348433256149292
6600,1.0204741954803467
6700,1.0050787925720215
6800,1.009069561958313
6900,1.0017818212509155
7000,1.0129716396331787
7100,1.021376609802246
7200,1.0104612112045288
7300,1.0250059366226196
7400,0.9964281916618347
7500,1.010685682296753
7600,1.022292971611023
7700,1.0057318210601807
7800,1.0089281797409058
7900,1.0151351690292358
8000,1.002996802330017
8100,1.0137090682983398
8200,1.013005256652832
8300,0.9906235933303833
8400,0.9925471544265747
8500,0.9737708568572998
8600,0.9876282215118408
8700,0.9840623140335083
8800,0.9950220584869385
8900,1.0034244060516357
9000,1.0032755136489868
9100,1.010256052017212
9200,1.0055474042892456
9300,1.003250002861023
9400,1.0042142868041992
9500,1.0076953172683716
9600,1.006941556930542
9700,1.00220787525177
9800,1.0013474225997925
9900,1.0003561973571777
10000,0.9986692667007446
