1,2.7681264877319336
100,2.9029746055603027
200,2.8966879844665527
300,2.8939261436462402
400,2.8872246742248535
500,2.862800359725952
600,2.852015495300293
700,2.8198816776275635
800,2.7898356914520264
900,2.7605481147766113
1000,2.742767095565796
1100,2.738851547241211
1200,2.7156968116760254
1300,2.703765869140625
1400,2.6956875324249268
1500,2.6828529834747314
1600,2.6622583866119385
1700,2.6425986289978027
1800,2.613903760910034
1900,2.5999176502227783
2000,2.5481629371643066
2100,2.5411131381988525
2200,2.4955105781555176
2300,2.4854283332824707
2400,2.478501081466675
2500,2.455617666244507
2600,2.446817398071289
2700,2.3857598304748535
2800,2.3683724403381348
2900,2.362961530685425
3000,2.378633737564087
3100,2.3564538955688477
3200,2.3415117263793945
3300,2.315159559249878
3400,2.3063554763793945
3500,2.2919681072235107
3600,2.2904582023620605
3700,2.2921788692474365
3800,2.2536637783050537
3900,2.2410507202148438
4000,2.2147634029388428
4100,2.2180392742156982
4200,2.199939250946045
4300,2.2165839672088623
4400,2.2037298679351807
4500,2.1962265968322754
4600,2.1738474369049072
4700,2.1473140716552734
4800,2.1271371841430664
4900,2.1299123764038086
5000,2.10260009765625
5100,2.08473539352417
5200,2.0829296112060547
5300,2.067596912384033
5400,2.0628645420074463
5500,2.031909465789795
5600,2.035903215408325
5700,2.021261692047119
5800,1.9986919164657593
5900,1.9863990545272827
6000,1.9760843515396118
6100,1.9581626653671265
6200,1.9428508281707764
6300,1.914894938468933
6400,1.9054057598114014
6500,1.8961586952209473
6600,1.8940539360046387
6700,1.901944637298584
6800,1.8711857795715332
6900,1.838092565536499
7000,1.8419173955917358
7100,1.831543207168579
7200,1.8029013872146606
7300,1.786826252937317
7400,1.7811551094055176
7500,1.7764755487442017
7600,1.765638828277588
7700,1.7473499774932861
7800,1.7537925243377686
7900,1.7464874982833862
8000,1.727644681930542
8100,1.7019939422607422
8200,1.6919515132904053
8300,1.7160766124725342
8400,1.7079896926879883
8500,1.6905344724655151
8600,1.6971830129623413
8700,1.6760410070419312
8800,1.6526298522949219
8900,1.6325998306274414
9000,1.6313090324401855
9100,1.6314020156860352
9200,1.626733660697937
9300,1.618942141532898
9400,1.6111634969711304
9500,1.609855055809021
9600,1.6070427894592285
9700,1.6033439636230469
9800,1.6047924757003784
9900,1.6038626432418823
10000,1.5998293161392212
