1,0.0,0.0,0.0
100,0.19436107575893402,0.06279846280813217,0.01609071157872677
200,0.22101399302482605,0.058383166790008545,0.021612156182527542
300,0.23366351425647736,0.05973299965262413,0.0217573381960392
400,0.24206528067588806,0.07408440858125687,0.021355928853154182
500,0.2518930733203888,0.0600852333009243,0.01924177072942257
600,0.26497671008110046,0.06231585517525673,0.016671279445290565
700,0.26166269183158875,0.06612442433834076,0.014129864983260632
800,0.2544142007827759,0.06627294421195984,0.01348981074988842
900,0.25128552317619324,0.06164705753326416,0.010632235556840897
1000,0.25117993354797363,0.06483078002929688,0.01031062938272953
1100,0.25802409648895264,0.06385351717472076,0.013989435508847237
1200,0.259015828371048,0.06083852797746658,0.010289252735674381
1300,0.256454199552536,0.05866887420415878,0.009515807963907719
1400,0.2557295858860016,0.06523770093917847,0.01196240819990635
1500,0.24819815158843994,0.0631052777171135,0.008680285885930061
1600,0.24635685980319977,0.0706811174750328,0.008796163834631443
1700,0.2515723407268524,0.08222659677267075,0.012331515550613403
1800,0.2379271686077118,0.06651049107313156,0.009524526074528694
1900,0.23602832853794098,0.04831042140722275,0.008674763143062592
2000,0.22984768450260162,0.06096683070063591,0.007712205406278372
2100,0.23015064001083374,0.055071871727705,0.006406583357602358
2200,0.23102939128875732,0.05017499998211861,0.0032614832744002342
2300,0.22148701548576355,0.05128462612628937,0.0044858017936348915
2400,0.22434772551059723,0.056468479335308075,0.007872981019318104
2500,0.2280760109424591,0.056177619844675064,0.0006135912844911218
2600,0.22580356895923615,0.05453815683722496,-0.00074982043588534
2700,0.22636763751506805,0.05130843073129654,-0.00012980005703866482
2800,0.21843715012073517,0.04423370212316513,-0.005425029434263706
2900,0.21628151834011078,0.04381295293569565,-0.004066235385835171
3000,0.2186436653137207,0.02609078213572502,-0.006139988079667091
3100,0.21250975131988525,0.03071662224829197,-0.0071564046666026115
3200,0.21578295528888702,0.03353060781955719,-0.0035080639645457268
3300,0.2237996757030487,0.029120828956365585,-0.004407032392919064
3400,0.21766811609268188,0.0293150395154953,-0.003032755572348833
3500,0.21339157223701477,0.028492175042629242,-0.006808095145970583
3600,0.20992746949195862,0.020572487264871597,-0.007036582101136446
3700,0.2037138193845749,0.03459964320063591,-0.006385404616594315
3800,0.2042287141084671,0.026666957885026932,-0.007036123424768448
3900,0.20513150095939636,0.01782190054655075,-0.009584406390786171
4000,0.20167772471904755,0.02477193996310234,-0.0044128019362688065
4100,0.19709497690200806,0.025904474779963493,-0.004725386388599873
4200,0.20283205807209015,0.027577683329582214,-0.0047825113870203495
4300,0.21052303910255432,0.014264638535678387,-0.007545987609773874
4400,0.20356568694114685,0.011637000367045403,-0.009723980911076069
4500,0.19523291289806366,0.022451747208833694,-0.009729393757879734
4600,0.1900821328163147,0.02994629368185997,-0.006564152892678976
4700,0.18977829813957214,0.02744067832827568,-0.0038776700384914875
4800,0.18974366784095764,0.026490800082683563,-0.00611129542812705
4900,0.18902850151062012,0.02823408506810665,-0.004116366151720285
5000,0.1929405927658081,0.03593498468399048,-0.003431352088227868
5100,0.18675631284713745,0.03574372082948685,-0.0004918513586744666
5200,0.19217196106910706,0.035508546978235245,-0.003388035576790571
5300,0.18434832990169525,0.0341983437538147,-0.004496089182794094
5400,0.18098294734954834,0.03618064522743225,-0.0024935922119766474
5500,0.17755697667598724,0.036257412284612656,-0.004162773489952087
5600,0.16797873377799988,0.028349097818136215,-0.0009499969310127199
5700,0.17592337727546692,0.025066988542675972,-0.0024625929072499275
5800,0.17109420895576477,0.03322592005133629,-5.740555934607983e-06
5900,0.1678580790758133,0.029481396079063416,-0.0007397967856377363
6000,0.16407303512096405,0.032820332795381546,-0.004469088278710842
6100,0.16990987956523895,0.028678059577941895,-0.003914442844688892
6200,0.1608557552099228,0.02838403359055519,-0.004242487717419863
6300,0.1583644300699234,0.02373478375375271,-0.0029430806171149015
6400,0.15573805570602417,0.03075006976723671,-0.004379783291369677
6500,0.164425790309906,0.027772923931479454,-0.003152763471007347
6600,0.16202764213085175,0.030767373740673065,-0.005116163287311792
6700,0.16152305901050568,0.030310511589050293,-0.0032000141218304634
6800,0.16550521552562714,0.03820701315999031,-0.0012702610110864043
6900,0.17016097903251648,0.04723753780126572,-0.004393696319311857
7000,0.17532305419445038,0.052495528012514114,-0.003785856068134308
7100,0.17339205741882324,0.062210582196712494,-0.002527286997064948
7200,0.16315875947475433,0.05936292186379433,-0.0012140274047851562
7300,0.16383248567581177,0.06115274131298065,0.0029387359973043203
7400,0.1634400188922882,0.0582580640912056,0.0015960033051669598
7500,0.16662366688251495,0.0772491842508316,0.006489181891083717
7600,0.16943281888961792,0.0748872458934784,0.005278878379613161
7700,0.1652335226535797,0.0757579654455185,0.005336429923772812
7800,0.1674230694770813,0.07698714733123779,0.0038586470764130354
7900,0.16103634238243103,0.07796277850866318,0.006893882527947426
8000,0.15769867599010468,0.07996516674757004,0.006245351862162352
8100,0.14689499139785767,0.07867834717035294,0.0030828178860247135
8200,0.15052422881126404,0.07740435004234314,0.0049360161647200584
8300,0.15361204743385315,0.06935273855924606,0.004304617177695036
8400,0.15793035924434662,0.07483877241611481,0.008464219979941845
8500,0.1620660275220871,0.07396689802408218,0.00497793685644865
8600,0.1570294052362442,0.07151109725236893,0.002563493326306343
8700,0.14658568799495697,0.07666698098182678,0.004040094092488289
8800,0.14732520282268524,0.0762646272778511,0.0027300803922116756
8900,0.15396748483181,0.0788140818476677,0.002741931239143014
9000,0.15591536462306976,0.06707057356834412,0.0030544588807970285
9100,0.14787156879901886,0.06226015463471413,0.0013969821156933904
9200,0.14508546888828278,0.06331942230463028,0.0016900483751669526
9300,0.1458917111158371,0.06482235342264175,0.002014210680499673
9400,0.14744356274604797,0.06791504472494125,0.0024688602425158024
9500,0.15026162564754486,0.06903273612260818,0.00273960642516613
9600,0.1514175981283188,0.06873291730880737,0.0022626228164881468
9700,0.15163442492485046,0.06802153587341309,0.0017355021554976702
9800,0.15305458009243011,0.07046734541654587,0.002034482080489397
9900,0.15556207299232483,0.06945470720529556,0.0018942459719255567
10000,0.15713122487068176,0.06997006386518478,0.0017991940258070827
