1,-1.403059482574463,-1.6089768409729004,-1.202132225036621,-1.4724411964416504
100,-1.8911612033843994,-1.693625569343567,-1.584038496017456,-2.6076176166534424
200,-1.9421510696411133,-1.4843451976776123,-1.5150409936904907,-2.807126522064209
300,-1.9630906581878662,-1.4067223072052002,-1.5442085266113281,-2.8507659435272217
400,-2.054810047149658,-1.417364239692688,-1.515277624130249,-2.9018967151641846
500,-2.099100351333618,-1.382111668586731,-1.5521552562713623,-2.960160732269287
600,-2.1293516159057617,-1.4055440425872803,-1.5575274229049683,-2.980926990509033
700,-2.1894850730895996,-1.3237501382827759,-1.5292624235153198,-3.014936923980713
800,-2.1675009727478027,-1.3422502279281616,-1.5024453401565552,-2.970104694366455
900,-2.2167141437530518,-1.3482054471969604,-1.5559266805648804,-3.042346239089966
1000,-2.1834585666656494,-1.3230819702148438,-1.5309995412826538,-2.979412317276001
1100,-2.2035484313964844,-1.3481858968734741,-1.5234700441360474,-2.9992635250091553
1200,-2.282266616821289,-1.4055535793304443,-1.5470730066299438,-3.0325915813446045
1300,-2.316255807876587,-1.409860610961914,-1.5578256845474243,-3.036290168762207
1400,-2.3498482704162598,-1.4058446884155273,-1.5712878704071045,-3.0915307998657227
1500,-2.378891706466675,-1.4594529867172241,-1.6132097244262695,-3.106443166732788
1600,-2.3771848678588867,-1.4399346113204956,-1.5710259675979614,-3.083441734313965
1700,-2.3477492332458496,-1.4613440036773682,-1.5545058250427246,-3.1084721088409424
1800,-2.4380595684051514,-1.4850213527679443,-1.6233338117599487,-3.1306207180023193
1900,-2.4137144088745117,-1.4662675857543945,-1.615107536315918,-3.1669418811798096
2000,-2.4117164611816406,-1.4678651094436646,-1.6123082637786865,-3.116321325302124
2100,-2.4616830348968506,-1.5196486711502075,-1.6545047760009766,-3.1183249950408936
2200,-2.49902606010437,-1.5348927974700928,-1.6719111204147339,-3.1827261447906494
2300,-2.496647596359253,-1.4803391695022583,-1.620827317237854,-3.153324604034424
2400,-2.495530366897583,-1.5560448169708252,-1.6765823364257812,-3.1914923191070557
2500,-2.509690761566162,-1.505528450012207,-1.6152364015579224,-3.159271717071533
2600,-2.5920913219451904,-1.5473605394363403,-1.6307706832885742,-3.1913902759552
2700,-2.597240686416626,-1.5816470384597778,-1.7181127071380615,-3.2565832138061523
2800,-2.6257965564727783,-1.5945736169815063,-1.708269715309143,-3.272845506668091
2900,-2.62738299369812,-1.5743497610092163,-1.6733118295669556,-3.2187387943267822
3000,-2.7082176208496094,-1.6289526224136353,-1.684816598892212,-3.2489635944366455
3100,-2.6939032077789307,-1.5628256797790527,-1.6456825733184814,-3.233950614929199
3200,-2.726104974746704,-1.5180110931396484,-1.645760416984558,-3.2237541675567627
3300,-2.6780502796173096,-1.4733628034591675,-1.610321283340454,-3.2013466358184814
3400,-2.730854034423828,-1.5416508913040161,-1.661624550819397,-3.2496988773345947
3500,-2.744513511657715,-1.5733230113983154,-1.6375738382339478,-3.228297710418701
3600,-2.6956539154052734,-1.5441350936889648,-1.6301668882369995,-3.2215757369995117
3700,-2.688831329345703,-1.5466351509094238,-1.6566307544708252,-3.2254953384399414
3800,-2.7384181022644043,-1.5395606756210327,-1.6379789113998413,-3.246565341949463
3900,-2.7527730464935303,-1.580789566040039,-1.678236484527588,-3.274672031402588
4000,-2.752459764480591,-1.593809962272644,-1.6738083362579346,-3.2609236240386963
4100,-2.731215000152588,-1.611638069152832,-1.6674818992614746,-3.2632622718811035
4200,-2.7487401962280273,-1.6081868410110474,-1.6901545524597168,-3.295161247253418
4300,-2.765634775161743,-1.580651044845581,-1.6834028959274292,-3.2714672088623047
4400,-2.791308641433716,-1.595754861831665,-1.696199655532837,-3.307643175125122
4500,-2.792335271835327,-1.6143970489501953,-1.7229598760604858,-3.316789150238037
4600,-2.742830991744995,-1.621329665184021,-1.68842613697052,-3.230370044708252
4700,-2.7373547554016113,-1.6506410837173462,-1.6929597854614258,-3.2772483825683594
4800,-2.7111918926239014,-1.679693341255188,-1.7058836221694946,-3.263382911682129
4900,-2.7053143978118896,-1.6750606298446655,-1.6909761428833008,-3.2867138385772705
5000,-2.735177755355835,-1.7195940017700195,-1.7560900449752808,-3.2994747161865234
5100,-2.7137081623077393,-1.672629714012146,-1.731094241142273,-3.2745258808135986
5200,-2.8226370811462402,-1.7360115051269531,-1.778427243232727,-3.3586268424987793
5300,-2.850522756576538,-1.7394417524337769,-1.7720534801483154,-3.3429923057556152
5400,-2.8448574542999268,-1.803141713142395,-1.8289319276809692,-3.379213571548462
5500,-2.7852659225463867,-1.7580889463424683,-1.8058905601501465,-3.346257448196411
5600,-2.7278544902801514,-1.7442011833190918,-1.7667595148086548,-3.330174684524536
5700,-2.7541816234588623,-1.7753311395645142,-1.8055816888809204,-3.341499090194702
5800,-2.7109851837158203,-1.7165395021438599,-1.7727749347686768,-3.283372640609741
5900,-2.80366587638855,-1.8237873315811157,-1.838372826576233,-3.380758047103882
6000,-2.8399810791015625,-1.804778814315796,-1.8335094451904297,-3.347264528274536
6100,-2.8871817588806152,-1.8396940231323242,-1.8743237257003784,-3.4017295837402344
6200,-2.889008045196533,-1.8192633390426636,-1.8481934070587158,-3.3969850540161133
6300,-2.9248290061950684,-1.8611987829208374,-1.8977251052856445,-3.467585325241089
6400,-2.93890380859375,-1.868768334388733,-1.9028114080429077,-3.4671573638916016
6500,-2.9122495651245117,-1.852754831314087,-1.8756709098815918,-3.413100004196167
6600,-2.905820608139038,-1.873616337776184,-1.846377968788147,-3.400980234146118
6700,-2.921006441116333,-1.903031349182129,-1.9156882762908936,-3.4456324577331543
6800,-2.87370228767395,-1.8405811786651611,-1.8594300746917725,-3.375894784927368
6900,-2.906780481338501,-1.8764086961746216,-1.8939120769500732,-3.45609450340271
7000,-2.8464760780334473,-1.8496252298355103,-1.8625991344451904,-3.3982791900634766
7100,-2.8842499256134033,-1.8792967796325684,-1.8879528045654297,-3.429750442504883
7200,-2.8556387424468994,-1.8322526216506958,-1.8727024793624878,-3.419891834259033
7300,-2.894850254058838,-1.8956114053726196,-1.9060779809951782,-3.4137649536132812
7400,-2.91916823387146,-1.8946778774261475,-1.9387391805648804,-3.451005697250366
7500,-2.843827486038208,-1.8249553442001343,-1.8626492023468018,-3.3910982608795166
7600,-2.8434576988220215,-1.8629769086837769,-1.8846001625061035,-3.4057302474975586
7700,-2.855756998062134,-1.877242088317871,-1.9008668661117554,-3.3970601558685303
7800,-2.880328893661499,-1.8408572673797607,-1.8707809448242188,-3.4229958057403564
7900,-2.8695459365844727,-1.885955810546875,-1.8980392217636108,-3.4275481700897217
8000,-2.9159176349639893,-1.8828423023223877,-1.9282808303833008,-3.4485204219818115
8100,-2.9315314292907715,-1.8869190216064453,-1.957316517829895,-3.446655750274658
8200,-2.942842960357666,-1.873082160949707,-1.920916199684143,-3.4429547786712646
8300,-3.004875898361206,-1.9193837642669678,-2.0098800659179688,-3.526045799255371
8400,-2.976469039916992,-1.9001944065093994,-1.977866291999817,-3.513993978500366
8500,-2.9838972091674805,-1.9229861497879028,-1.9533250331878662,-3.50791072845459
8600,-2.9877750873565674,-1.8355227708816528,-1.926844835281372,-3.4757497310638428
8700,-3.0541279315948486,-1.8904330730438232,-1.9291810989379883,-3.532863140106201
8800,-3.023324728012085,-1.847705602645874,-1.914194107055664,-3.4681625366210938
8900,-3.009652614593506,-1.8647509813308716,-1.8970390558242798,-3.452606201171875
9000,-3.010854721069336,-1.871250867843628,-1.93186616897583,-3.475489854812622
9100,-2.998023509979248,-1.865296721458435,-1.893811583518982,-3.4646332263946533
9200,-2.9909162521362305,-1.8500522375106812,-1.8956964015960693,-3.4580495357513428
9300,-2.993217706680298,-1.8517704010009766,-1.8971894979476929,-3.460963249206543
9400,-2.985971450805664,-1.8539292812347412,-1.9013065099716187,-3.459273099899292
9500,-2.9931910037994385,-1.8647677898406982,-1.9108235836029053,-3.465641975402832
9600,-2.98886775970459,-1.8611364364624023,-1.9149532318115234,-3.4648733139038086
9700,-2.986212730407715,-1.8631069660186768,-1.9154398441314697,-3.4651570320129395
9800,-2.9837567806243896,-1.8606125116348267,-1.9132802486419678,-3.462068796157837
9900,-2.9817991256713867,-1.8560826778411865,-1.9098265171051025,-3.4605090618133545
10000,-2.9793243408203125,-1.8521150350570679,-1.9078266620635986,-3.4591410160064697
