1,0.5454148054122925
100,0.6088018417358398
200,0.6161202788352966
300,0.6685852408409119
400,0.6797007918357849
500,0.6839936971664429
600,0.7203769087791443
700,0.7459248304367065
800,0.7337403297424316
900,0.7128679752349854
1000,0.6989496946334839
1100,0.7290624976158142
1200,0.7250683307647705
1300,0.756895124912262
1400,0.7232232093811035
1500,0.726298451423645
1600,0.7486715912818909
1700,0.7608513832092285
1800,0.7841103076934814
1900,0.7697240114212036
2000,0.7555214762687683
2100,0.7582592964172363
2200,0.783601701259613
2300,0.7348967790603638
2400,0.7757730484008789
2500,0.7512125372886658
2600,0.7615109086036682
2700,0.8048264384269714
2800,0.7846807837486267
2900,0.795568585395813
3000,0.8378045558929443
3100,0.7691068053245544
3200,0.766588568687439
3300,0.7567710280418396
3400,0.7962313294410706
3500,0.7900443077087402
3600,0.7978556752204895
3700,0.7555285096168518
3800,0.7940056920051575
3900,0.813653290271759
4000,0.8237636685371399
4100,0.7942234873771667
4200,0.8133249878883362
4300,0.7877511382102966
4400,0.8275954723358154
4500,0.8546396493911743
4600,0.8179070949554443
4700,0.7950314879417419
4800,0.7876275777816772
4900,0.779485821723938
5000,0.7730501294136047
5100,0.7529166340827942
5200,0.785930335521698
5300,0.7776778340339661
5400,0.8107474446296692
5500,0.8205831050872803
5600,0.7902430891990662
5700,0.7961200475692749
5800,0.7398732900619507
5900,0.8021794557571411
6000,0.7906195521354675
6100,0.8178568482398987
6200,0.8251126408576965
6300,0.8544061183929443
6400,0.8406182527542114
6500,0.8259280323982239
6600,0.7968707084655762
6700,0.8158190846443176
6800,0.8212372660636902
6900,0.8406591415405273
7000,0.8525710105895996
7100,0.8107248544692993
7200,0.7764431238174438
7300,0.8227587342262268
7400,0.8814012408256531
7500,0.7913441061973572
7600,0.8031837940216064
7700,0.8159451484680176
7800,0.7727437615394592
7900,0.7904493808746338
8000,0.7940288186073303
8100,0.8094940781593323
8200,0.8015048503875732
8300,0.8580493330955505
8400,0.8312875032424927
8500,0.8335371613502502
8600,0.7933658957481384
8700,0.8055657744407654
8800,0.7820423245429993
8900,0.8268458843231201
9000,0.8263151049613953
9100,0.8243843913078308
9200,0.8180234432220459
9300,0.8074285984039307
9400,0.8104381561279297
9500,0.8211687207221985
9600,0.8224703669548035
9700,0.8156422972679138
9800,0.8124243021011353
9900,0.80843186378479
10000,0.804509162902832
