1,-2.315276622772217,-1.5729496479034424,-1.6083979606628418,-2.74609637260437
100,-2.516832113265991,-1.725830078125,-1.7619191408157349,-3.1078736782073975
200,-2.5329678058624268,-1.631717562675476,-1.7180671691894531,-3.114013910293579
300,-2.542072296142578,-1.6001932621002197,-1.703468918800354,-3.1468451023101807
400,-2.581310272216797,-1.6379883289337158,-1.7216124534606934,-3.227093458175659
500,-2.605686664581299,-1.6420484781265259,-1.7440738677978516,-3.211048126220703
600,-2.631829023361206,-1.643784523010254,-1.7526042461395264,-3.2499117851257324
700,-2.6347694396972656,-1.6723631620407104,-1.764874815940857,-3.248094081878662
800,-2.6412577629089355,-1.667356252670288,-1.74251127243042,-3.2364227771759033
900,-2.6929633617401123,-1.7023402452468872,-1.7823376655578613,-3.275137424468994
1000,-2.656770944595337,-1.7008910179138184,-1.7691208124160767,-3.2684545516967773
1100,-2.6762030124664307,-1.7053173780441284,-1.7828142642974854,-3.275381088256836
1200,-2.6945085525512695,-1.7324819564819336,-1.8239896297454834,-3.3083627223968506
1300,-2.7079708576202393,-1.730272650718689,-1.8232120275497437,-3.2996108531951904
1400,-2.6721813678741455,-1.7102550268173218,-1.7874194383621216,-3.273160457611084
1500,-2.6976795196533203,-1.7190691232681274,-1.8129560947418213,-3.294743537902832
1600,-2.7359516620635986,-1.7234797477722168,-1.8289202451705933,-3.3237619400024414
1700,-2.7516846656799316,-1.7280765771865845,-1.8487049341201782,-3.3462603092193604
1800,-2.7241146564483643,-1.73590886592865,-1.836558222770691,-3.3108839988708496
1900,-2.7208306789398193,-1.7470948696136475,-1.8307008743286133,-3.295663595199585
2000,-2.7242002487182617,-1.7578963041305542,-1.8551148176193237,-3.336153984069824
2100,-2.7557663917541504,-1.7707103490829468,-1.8882049322128296,-3.355658769607544
2200,-2.7308809757232666,-1.7326061725616455,-1.853416085243225,-3.333181858062744
2300,-2.7481775283813477,-1.7423726320266724,-1.8482028245925903,-3.3077995777130127
2400,-2.766178607940674,-1.772855281829834,-1.869002342224121,-3.330813407897949
2500,-2.7575814723968506,-1.7570551633834839,-1.8532836437225342,-3.3223423957824707
2600,-2.7450475692749023,-1.7410989999771118,-1.8474206924438477,-3.3384361267089844
2700,-2.78865385055542,-1.7637351751327515,-1.858298897743225,-3.341248035430908
2800,-2.8380610942840576,-1.7631374597549438,-1.8666564226150513,-3.3555376529693604
2900,-2.833887815475464,-1.756597638130188,-1.8603217601776123,-3.3544201850891113
3000,-2.848827838897705,-1.755885362625122,-1.8484207391738892,-3.372460126876831
3100,-2.85636568069458,-1.7569340467453003,-1.85282564163208,-3.3582468032836914
3200,-2.903876304626465,-1.7833977937698364,-1.8655200004577637,-3.400038003921509
3300,-2.877072811126709,-1.7785342931747437,-1.8390620946884155,-3.350796699523926
3400,-2.866266965866089,-1.8029042482376099,-1.8553531169891357,-3.3561954498291016
3500,-2.8269338607788086,-1.7707369327545166,-1.8182810544967651,-3.321931838989258
3600,-2.818582534790039,-1.813144326210022,-1.863403558731079,-3.332705020904541
3700,-2.8439528942108154,-1.844964623451233,-1.8804336786270142,-3.383598804473877
3800,-2.8691978454589844,-1.826414942741394,-1.8525766134262085,-3.3623085021972656
3900,-2.888077974319458,-1.8207725286483765,-1.8448662757873535,-3.3612895011901855
4000,-2.8765809535980225,-1.811903715133667,-1.8221817016601562,-3.3459537029266357
4100,-2.89292573928833,-1.8107110261917114,-1.8305388689041138,-3.3370697498321533
4200,-2.9133472442626953,-1.84610116481781,-1.850990653038025,-3.3594794273376465
4300,-2.8894996643066406,-1.8540709018707275,-1.8498852252960205,-3.350428581237793
4400,-2.8299031257629395,-1.8134764432907104,-1.8284831047058105,-3.3151981830596924
4500,-2.8665080070495605,-1.8407416343688965,-1.863791823387146,-3.338683843612671
4600,-2.8556079864501953,-1.8305895328521729,-1.8463252782821655,-3.342332363128662
4700,-2.864405393600464,-1.846193552017212,-1.844961404800415,-3.3625597953796387
4800,-2.881673574447632,-1.846538782119751,-1.863432765007019,-3.3579070568084717
4900,-2.8625662326812744,-1.8270422220230103,-1.8490879535675049,-3.338770866394043
5000,-2.8563830852508545,-1.848030924797058,-1.8684463500976562,-3.371691942214966
5100,-2.87044095993042,-1.8502018451690674,-1.896309733390808,-3.375607967376709
5200,-2.8278298377990723,-1.8226509094238281,-1.8723498582839966,-3.358107328414917
5300,-2.781602621078491,-1.7966405153274536,-1.8456987142562866,-3.31992244720459
5400,-2.7966976165771484,-1.8210160732269287,-1.8621541261672974,-3.3362908363342285
5500,-2.8513693809509277,-1.8374459743499756,-1.8837171792984009,-3.3689041137695312
5600,-2.830242156982422,-1.8246829509735107,-1.8553701639175415,-3.3412418365478516
5700,-2.867387056350708,-1.8375139236450195,-1.8894333839416504,-3.353801727294922
5800,-2.8585543632507324,-1.8421753644943237,-1.889879584312439,-3.3586208820343018
5900,-2.8301491737365723,-1.826237440109253,-1.8609594106674194,-3.3414556980133057
6000,-2.846355676651001,-1.8487640619277954,-1.896368384361267,-3.3834900856018066
6100,-2.8545162677764893,-1.852164626121521,-1.890901803970337,-3.384758472442627
6200,-2.873229742050171,-1.844579815864563,-1.902212381362915,-3.38590145111084
6300,-2.852630138397217,-1.8205407857894897,-1.8916864395141602,-3.3699114322662354
6400,-2.878469944000244,-1.839492917060852,-1.8919984102249146,-3.37284517288208
6500,-2.8628463745117188,-1.8179155588150024,-1.8590824604034424,-3.3350439071655273
6600,-2.8692264556884766,-1.7990964651107788,-1.8385528326034546,-3.333641290664673
6700,-2.871553897857666,-1.7919633388519287,-1.8279670476913452,-3.3227157592773438
6800,-2.9256556034088135,-1.7988874912261963,-1.8612465858459473,-3.3840110301971436
6900,-2.9103329181671143,-1.7970060110092163,-1.8455108404159546,-3.348769426345825
7000,-2.8544764518737793,-1.7786893844604492,-1.8238199949264526,-3.356084108352661
7100,-2.855034828186035,-1.8034663200378418,-1.8491928577423096,-3.334507942199707
7200,-2.8251354694366455,-1.7767333984375,-1.8424900770187378,-3.3290295600891113
7300,-2.8315446376800537,-1.7905422449111938,-1.840566635131836,-3.3373663425445557
7400,-2.8086585998535156,-1.8113752603530884,-1.8543342351913452,-3.342834949493408
7500,-2.8222923278808594,-1.8287638425827026,-1.8604602813720703,-3.368520498275757
7600,-2.873185157775879,-1.8603116273880005,-1.8777174949645996,-3.3549489974975586
7700,-2.8258724212646484,-1.8182389736175537,-1.8641692399978638,-3.3659427165985107
7800,-2.8117756843566895,-1.7923308610916138,-1.8349789381027222,-3.3357436656951904
7900,-2.8220055103302,-1.808876872062683,-1.8448761701583862,-3.3305716514587402
8000,-2.842161178588867,-1.814775824546814,-1.8668633699417114,-3.35683012008667
8100,-2.8655054569244385,-1.8100547790527344,-1.8844996690750122,-3.380286693572998
8200,-2.8296403884887695,-1.811241865158081,-1.8780792951583862,-3.359844923019409
8300,-2.805889844894409,-1.7613292932510376,-1.8555588722229004,-3.3564810752868652
8400,-2.8561251163482666,-1.7985832691192627,-1.8849197626113892,-3.351292371749878
8500,-2.877312660217285,-1.8265273571014404,-1.9024869203567505,-3.4023051261901855
8600,-2.8786699771881104,-1.8183690309524536,-1.893109679222107,-3.3834304809570312
8700,-2.842741012573242,-1.7921775579452515,-1.8809152841567993,-3.3599050045013428
8800,-2.8751347064971924,-1.8056024312973022,-1.8760145902633667,-3.3677093982696533
8900,-2.878441572189331,-1.8042844533920288,-1.8831723928451538,-3.375479221343994
9000,-2.870760202407837,-1.7975757122039795,-1.8739142417907715,-3.3544669151306152
9100,-2.888306140899658,-1.78665292263031,-1.8547555208206177,-3.3594648838043213
9200,-2.890084981918335,-1.795546531677246,-1.8528414964675903,-3.358672618865967
9300,-2.8914618492126465,-1.8034460544586182,-1.8653603792190552,-3.3619234561920166
9400,-2.8931021690368652,-1.811270833015442,-1.8762506246566772,-3.3686418533325195
9500,-2.888139009475708,-1.8041654825210571,-1.878818392753601,-3.3709876537323
9600,-2.892056465148926,-1.806868553161621,-1.8812901973724365,-3.374297857284546
9700,-2.896879196166992,-1.8064788579940796,-1.878144383430481,-3.377570390701294
9800,-2.8977596759796143,-1.8114142417907715,-1.8774712085723877,-3.3772435188293457
9900,-2.8982133865356445,-1.8083406686782837,-1.8785512447357178,-3.3770575523376465
10000,-2.896703004837036,-1.8090713024139404,-1.876029372215271,-3.3759889602661133
