1,0.5015929937362671
100,0.6995294690132141
200,0.7603574991226196
300,0.753882110118866
400,0.7927113771438599
500,0.8047129511833191
600,0.8317094445228577
700,0.8246726989746094
800,0.8083145022392273
900,0.8262091875076294
1000,0.8214258551597595
1100,0.8231427669525146
1200,0.8389388918876648
1300,0.8267410397529602
1400,0.8076078295707703
1500,0.8418461084365845
1600,0.8503745198249817
1700,0.8411774635314941
1800,0.8205268979072571
1900,0.8247703313827515
2000,0.8415288925170898
2100,0.8494700193405151
2200,0.8469817042350769
2300,0.8170201182365417
2400,0.8685833811759949
2500,0.8373334407806396
2600,0.8189302086830139
2700,0.8395644426345825
2800,0.8250492215156555
2900,0.8292257189750671
3000,0.8277246356010437
3100,0.8447156548500061
3200,0.8405877947807312
3300,0.8403912782669067
3400,0.8252066373825073
3500,0.8482498526573181
3600,0.8538259267807007
3700,0.8686688542366028
3800,0.8158518671989441
3900,0.8319988250732422
4000,0.832645833492279
4100,0.8162763714790344
4200,0.8586463332176208
4300,0.8409343957901001
4400,0.8216845989227295
4500,0.8413559198379517
4600,0.8167023062705994
4700,0.8510307669639587
4800,0.8368164896965027
4900,0.8336202502250671
5000,0.8433244824409485
5100,0.8436331152915955
5200,0.8227108716964722
5300,0.8024599552154541
5400,0.8355578184127808
5500,0.8735436201095581
5600,0.8171004056930542
5700,0.8610703945159912
5800,0.8332515954971313
5900,0.7945232391357422
6000,0.8335862755775452
6100,0.8629458546638489
6200,0.8301158547401428
6300,0.8160311579704285
6400,0.8380045294761658
6500,0.8040242791175842
6600,0.8191943168640137
6700,0.8314943909645081
6800,0.8263617157936096
6900,0.8478796482086182
7000,0.8323644399642944
7100,0.8129845261573792
7200,0.825151264667511
7300,0.8483855724334717
7400,0.8489086031913757
7500,0.862769365310669
7600,0.8522943258285522
7700,0.8499423265457153
7800,0.8195907473564148
7900,0.8335139155387878
8000,0.8472851514816284
8100,0.8524356484413147
8200,0.8264515995979309
8300,0.7879163026809692
8400,0.8416125774383545
8500,0.8720701932907104
8600,0.8430991172790527
8700,0.8225796222686768
8800,0.8259402513504028
8900,0.8099218010902405
9000,0.8362228870391846
9100,0.8285952210426331
9200,0.8259252309799194
9300,0.8308823704719543
9400,0.8405654430389404
9500,0.8346865177154541
9600,0.8388848900794983
9700,0.8378866314888
9800,0.8399336934089661
9900,0.8412889838218689
10000,0.8391729593276978
