1,0.6806482076644897
100,0.9668099284172058
200,1.104377269744873
300,1.2247461080551147
400,1.3387290239334106
500,1.391523003578186
600,1.4094934463500977
700,1.4978841543197632
800,1.4946026802062988
900,1.4989573955535889
1000,1.53426992893219
1100,1.5497190952301025
1200,1.5521266460418701
1300,1.5953441858291626
1400,1.565476655960083
1500,1.6268255710601807
1600,1.6069488525390625
1700,1.5955092906951904
1800,1.6441911458969116
1900,1.6658549308776855
2000,1.6563550233840942
2100,1.6723397970199585
2200,1.6596266031265259
2300,1.6985530853271484
2400,1.6620961427688599
2500,1.6414049863815308
2600,1.6819071769714355
2700,1.6344883441925049
2800,1.6096112728118896
2900,1.5927379131317139
3000,1.5570719242095947
3100,1.5828425884246826
3200,1.5558156967163086
3300,1.604811429977417
3400,1.5497145652770996
3500,1.5640031099319458
3600,1.5816975831985474
3700,1.5554548501968384
3800,1.5833126306533813
3900,1.609707236289978
4000,1.6316018104553223
4100,1.6736764907836914
4200,1.6902539730072021
4300,1.695670247077942
4400,1.7599258422851562
4500,1.6226112842559814
4600,1.6455862522125244
4700,1.6908745765686035
4800,1.6615931987762451
4900,1.6632866859436035
5000,1.5978996753692627
5100,1.580049753189087
5200,1.5562396049499512
5300,1.5649981498718262
5400,1.5546963214874268
5500,1.532872200012207
5600,1.5780056715011597
5700,1.569289207458496
5800,1.5607939958572388
5900,1.5872548818588257
6000,1.581177830696106
6100,1.6533435583114624
6200,1.6709835529327393
6300,1.697338342666626
6400,1.7285038232803345
6500,1.6753299236297607
6600,1.6819862127304077
6700,1.7064318656921387
6800,1.6967651844024658
6900,1.6202141046524048
7000,1.6434900760650635
7100,1.6597673892974854
7200,1.6905076503753662
7300,1.6879980564117432
7400,1.6812950372695923
7500,1.6529390811920166
7600,1.5892833471298218
7700,1.6299539804458618
7800,1.6841973066329956
7900,1.6115434169769287
8000,1.5908114910125732
8100,1.6645835638046265
8200,1.6421281099319458
8300,1.5966182947158813
8400,1.6143685579299927
8500,1.6356573104858398
8600,1.594589352607727
8700,1.653761625289917
8800,1.6178786754608154
8900,1.6173659563064575
9000,1.5636318922042847
9100,1.564510703086853
9200,1.5641191005706787
9300,1.5619988441467285
9400,1.561989426612854
9500,1.5627433061599731
9600,1.561782956123352
9700,1.563205599784851
9800,1.5623862743377686
9900,1.5610830783843994
10000,1.5611598491668701
