1,0.22141599655151367
100,0.18356384336948395
200,0.17952248454093933
300,0.17910604178905487
400,0.17826884984970093
500,0.18105316162109375
600,0.18009279668331146
700,0.18081845343112946
800,0.1790941059589386
900,0.17979979515075684
1000,0.179774671792984
1100,0.18024179339408875
1200,0.18020479381084442
1300,0.18151336908340454
1400,0.18081912398338318
1500,0.1804625242948532
1600,0.18035635352134705
1700,0.18038061261177063
1800,0.1800067126750946
1900,0.179743692278862
2000,0.1813245415687561
2100,0.1803508698940277
2200,0.1805211305618286
2300,0.17990265786647797
2400,0.18054677546024323
2500,0.18028239905834198
2600,0.18149496614933014
2700,0.18089079856872559
2800,0.180211141705513
2900,0.179545059800148
3000,0.18175403773784637
3100,0.18083371222019196
3200,0.1802235096693039
3300,0.18030641973018646
3400,0.18086373805999756
3500,0.18019698560237885
3600,0.17982660233974457
3700,0.17960578203201294
3800,0.18109345436096191
3900,0.18108342587947845
4000,0.18018758296966553
4100,0.18218889832496643
4200,0.18099619448184967
4300,0.18162569403648376
4400,0.1802402287721634
4500,0.18073858320713043
4600,0.18164172768592834
4700,0.1796785593032837
4800,0.18062789738178253
4900,0.1807047575712204
5000,0.17928841710090637
5100,0.18007662892341614
5200,0.17982864379882812
5300,0.1798948496580124
5400,0.18029211461544037
5500,0.18073540925979614
5600,0.1800580471754074
5700,0.18003115057945251
5800,0.17930397391319275
5900,0.17936289310455322
6000,0.1802566796541214
6100,0.1808273047208786
6200,0.18020448088645935
6300,0.17963208258152008
6400,0.18089160323143005
6500,0.1796332597732544
6600,0.18012064695358276
6700,0.18049564957618713
6800,0.1811785250902176
6900,0.18025347590446472
7000,0.18122658133506775
7100,0.18078921735286713
7200,0.18130318820476532
7300,0.17969146370887756
7400,0.17980191111564636
7500,0.17924752831459045
7600,0.18047215044498444
7700,0.18065716326236725
7800,0.18148407340049744
7900,0.18005284667015076
8000,0.17978647351264954
8100,0.18119613826274872
8200,0.18064986169338226
8300,0.1807284951210022
8400,0.18042750656604767
8500,0.1818000227212906
8600,0.18050967156887054
8700,0.17954270541667938
8800,0.1797727644443512
8900,0.18033619225025177
9000,0.18010804057121277
9100,0.180037721991539
9200,0.17997069656848907
9300,0.1803177446126938
9400,0.1801927089691162
9500,0.180043563246727
9600,0.17999675869941711
9700,0.18002283573150635
9800,0.180099755525589
9900,0.1801406443119049
10000,0.18017826974391937
