1,2.1857833862304688
100,1.9866431951522827
200,1.6332478523254395
300,1.43979012966156
400,1.2383266687393188
500,1.1604734659194946
600,1.1577799320220947
700,0.958382785320282
800,1.017765998840332
900,1.0321744680404663
1000,0.821973443031311
1100,0.9087603688240051
1200,0.9067946076393127
1300,0.8309758305549622
1400,0.8916597962379456
1500,0.8045870065689087
1600,0.7493460774421692
1700,0.7970253229141235
1800,0.78001469373703
1900,0.7526331543922424
2000,0.7576279640197754
2100,0.6852729916572571
2200,0.7957139611244202
2300,0.7548078894615173
2400,0.6810908913612366
2500,0.7332412600517273
2600,0.6978246569633484
2700,0.7909682393074036
2800,0.8050021529197693
2900,0.8566243648529053
3000,0.8522076606750488
3100,0.8950034976005554
3200,0.9098761677742004
3300,0.803046703338623
3400,0.8398635387420654
3500,0.8813930153846741
3600,0.8230907320976257
3700,0.8506621718406677
3800,0.7663820385932922
3900,0.8013211488723755
4000,0.7801769971847534
4100,0.6273010969161987
4200,0.570832371711731
4300,0.6633053421974182
4400,0.6416242122650146
4500,0.7304588556289673
4600,0.7123656272888184
4700,0.7016607522964478
4800,0.7336490750312805
4900,0.7186155915260315
5000,0.9186463356018066
5100,0.9503216743469238
5200,0.9735356569290161
5300,0.933397650718689
5400,0.9492452144622803
5500,0.9747925400733948
5600,0.9195371270179749
5700,0.8799893856048584
5800,0.9202141165733337
5900,0.8698758482933044
6000,0.8593175411224365
6100,0.7803098559379578
6200,0.6807113289833069
6300,0.6851890683174133
6400,0.7523577213287354
6500,0.8091555833816528
6600,0.7273800373077393
6700,0.6764522194862366
6800,0.6397624611854553
6900,0.8476009368896484
7000,0.7270632982254028
7100,0.7215114235877991
7200,0.6901111602783203
7300,0.7602849006652832
7400,0.6530786752700806
7500,0.7210940718650818
7600,0.8034015893936157
7700,0.6623978614807129
7800,0.7033025026321411
7900,0.8066504001617432
8000,0.8123835325241089
8100,0.6825001239776611
8200,0.6970821022987366
8300,0.8680315017700195
8400,0.821150004863739
8500,0.7045126557350159
8600,0.808523416519165
8700,0.7566206455230713
8800,0.8601864576339722
8900,0.8187345266342163
9000,0.8803587555885315
9100,0.8963495492935181
9200,0.9104470014572144
9300,0.9134562611579895
9400,0.9136074781417847
9500,0.9070960879325867
9600,0.904813289642334
9700,0.902658224105835
9800,0.900435209274292
9900,0.9032942652702332
10000,0.905576765537262
