1,4.726303577423096
100,2.577486515045166
200,2.659710168838501
300,2.636070489883423
400,2.6791138648986816
500,2.754315137863159
600,2.6857686042785645
700,2.6244428157806396
800,2.5535154342651367
900,2.582458734512329
1000,2.484286069869995
1100,2.5458126068115234
1200,2.5546579360961914
1300,2.650244951248169
1400,2.530895948410034
1500,2.402970790863037
1600,2.6458098888397217
1700,2.657266855239868
1800,2.4907658100128174
1900,2.5452756881713867
2000,2.5482888221740723
2100,2.582732915878296
2200,2.528214693069458
2300,2.574375629425049
2400,2.5131025314331055
2500,2.5197317600250244
2600,2.490953207015991
2700,2.551759958267212
2800,2.485542058944702
2900,2.519340991973877
3000,2.4712374210357666
3100,2.4747862815856934
3200,2.5571722984313965
3300,2.6359448432922363
3400,2.5863451957702637
3500,2.6330151557922363
3600,2.6295700073242188
3700,2.6176540851593018
3800,2.6671383380889893
3900,2.612454891204834
4000,2.4866268634796143
4100,2.5681376457214355
4200,2.6172845363616943
4300,2.6360020637512207
4400,2.6230876445770264
4500,2.64418363571167
4600,2.572375535964966
4700,2.4307563304901123
4800,2.5432090759277344
4900,2.5679051876068115
5000,2.551287889480591
5100,2.595106601715088
5200,2.4448304176330566
5300,2.5349652767181396
5400,2.616135835647583
5500,2.8038387298583984
5600,2.574000358581543
5700,2.66011118888855
5800,2.499478578567505
5900,2.4540727138519287
6000,2.5308663845062256
6100,2.603043794631958
6200,2.4721219539642334
6300,2.5516157150268555
6400,2.4919965267181396
6500,2.528775691986084
6600,2.4811363220214844
6700,2.643777370452881
6800,2.562561273574829
6900,2.5770249366760254
7000,2.548649787902832
7100,2.6475183963775635
7200,2.6177518367767334
7300,2.6787893772125244
7400,2.5977494716644287
7500,2.5560057163238525
7600,2.5615999698638916
7700,2.570237398147583
7800,2.6079087257385254
7900,2.5947277545928955
8000,2.586069107055664
8100,2.547471284866333
8200,2.6442484855651855
8300,2.475193738937378
8400,2.5907256603240967
8500,2.5790159702301025
8600,2.633530616760254
8700,2.5370945930480957
8800,2.592332124710083
8900,2.610940456390381
9000,2.4589664936065674
9100,2.5304148197174072
9200,2.5231549739837646
9300,2.554408073425293
9400,2.5518412590026855
9500,2.55539608001709
9600,2.5513968467712402
9700,2.5471861362457275
9800,2.5436134338378906
9900,2.5489985942840576
10000,2.5476901531219482
