1,-0.0008923430577851832,-0.005810389295220375,0.0
100,0.031234513968229294,-0.15997463464736938,-0.03714369982481003
200,0.04992459714412689,-0.18818314373493195,-0.03755733743309975
300,0.059501804411411285,-0.19945283234119415,-0.04302169755101204
400,0.058815859258174896,-0.21484434604644775,-0.04331198334693909
500,0.06204709783196449,-0.20863895118236542,-0.04130150005221367
600,0.05962784215807915,-0.20074450969696045,-0.03944699838757515
700,0.060058802366256714,-0.21139979362487793,-0.039346400648355484
800,0.05797349661588669,-0.21361389756202698,-0.039070844650268555
900,0.05860532820224762,-0.21475735306739807,-0.04093758389353752
1000,0.053996194154024124,-0.2034396082162857,-0.0393388494849205
1100,0.05298462137579918,-0.21437373757362366,-0.0416097454726696
1200,0.0544668585062027,-0.2138095647096634,-0.04144615679979324
1300,0.05743221193552017,-0.22176839411258698,-0.041874416172504425
1400,0.054947905242443085,-0.21610426902770996,-0.042348552495241165
1500,0.05293719470500946,-0.20841915905475616,-0.039945825934410095
1600,0.0574219673871994,-0.20412331819534302,-0.04102501645684242
1700,0.05822484940290451,-0.21246275305747986,-0.04022962972521782
1800,0.05117329955101013,-0.2072530835866928,-0.03793865442276001
1900,0.0551845021545887,-0.19822366535663605,-0.04122340306639671
2000,0.056098390370607376,-0.19839754700660706,-0.037620190531015396
2100,0.06141882762312889,-0.19630810618400574,-0.03752075135707855
2200,0.0656789019703865,-0.19593653082847595,-0.0366520993411541
2300,0.06540405750274658,-0.19203753769397736,-0.03785612806677818
2400,0.069454625248909,-0.18757441639900208,-0.03555670008063316
2500,0.0632619634270668,-0.18928726017475128,-0.03517024964094162
2600,0.0553484670817852,-0.1801360696554184,-0.03189266473054886
2700,0.0630711019039154,-0.17726127803325653,-0.03339098393917084
2800,0.062278617173433304,-0.1807524412870407,-0.031881384551525116
2900,0.06392912566661835,-0.1754400134086609,-0.0317295677959919
3000,0.05908952280879021,-0.17955224215984344,-0.03223271295428276
3100,0.053022515028715134,-0.18293718993663788,-0.032573238015174866
3200,0.05860734358429909,-0.18534377217292786,-0.03185334429144859
3300,0.05316993221640587,-0.18781785666942596,-0.0316188745200634
3400,0.050082653760910034,-0.1837545484304428,-0.0319400429725647
3500,0.0547911673784256,-0.1859395056962967,-0.03286033123731613
3600,0.05493267998099327,-0.17490354180335999,-0.032081667333841324
3700,0.05305741727352142,-0.17569106817245483,-0.03222595900297165
3800,0.04470762982964516,-0.1742616593837738,-0.031628094613552094
3900,0.04920830577611923,-0.17792391777038574,-0.030121464282274246
4000,0.05491805821657181,-0.1763327568769455,-0.030505891889333725
4100,0.056193359196186066,-0.17573168873786926,-0.028836579993367195
4200,0.05484432727098465,-0.1772356480360031,-0.03075883723795414
4300,0.05439271777868271,-0.17292867600917816,-0.030627848580479622
4400,0.06259255856275558,-0.17396505177021027,-0.029931897297501564
4500,0.060900505632162094,-0.16847027838230133,-0.03156103938817978
4600,0.05737205594778061,-0.17087961733341217,-0.030830616131424904
4700,0.05949493497610092,-0.16849149763584137,-0.029512321576476097
4800,0.0601152665913105,-0.1618037223815918,-0.03006174974143505
4900,0.05839307978749275,-0.16584856808185577,-0.028861554339528084
5000,0.05695296451449394,-0.16950152814388275,-0.029659217223525047
5100,0.05409645661711693,-0.16492269933223724,-0.02963733673095703
5200,0.05475585535168648,-0.16760747134685516,-0.030286595225334167
5300,0.0579630546271801,-0.16289788484573364,-0.030310548841953278
5400,0.05196051672101021,-0.16206912696361542,-0.02967817150056362
5500,0.05582815781235695,-0.16636663675308228,-0.029955871403217316
5600,0.05187643691897392,-0.17346328496932983,-0.0308229960501194
5700,0.04973064735531807,-0.16545531153678894,-0.028680408373475075
5800,0.05125247314572334,-0.1683211624622345,-0.03059748001396656
5900,0.053534455597400665,-0.17083804309368134,-0.02804548665881157
6000,0.06303973495960236,-0.16899274289608002,-0.029626403003931046
6100,0.05932694301009178,-0.16703179478645325,-0.026737553998827934
6200,0.05904124677181244,-0.16754202544689178,-0.028612669557332993
6300,0.05608947575092316,-0.1603335291147232,-0.028666188940405846
6400,0.05702383443713188,-0.16727489233016968,-0.0290390457957983
6500,0.062174566090106964,-0.16259326040744781,-0.027377881109714508
6600,0.06334646791219711,-0.16189324855804443,-0.028476255014538765
6700,0.06449718028306961,-0.16252857446670532,-0.02730063535273075
6800,0.06723269820213318,-0.1566907912492752,-0.02747083082795143
6900,0.06917580962181091,-0.1584930717945099,-0.027485422790050507
7000,0.06959477812051773,-0.15738432109355927,-0.029292171820998192
7100,0.06122402846813202,-0.15799930691719055,-0.028902433812618256
7200,0.05830015614628792,-0.16228558123111725,-0.02779212035238743
7300,0.058930654078722,-0.16108256578445435,-0.028569718822836876
7400,0.056537676602602005,-0.16388851404190063,-0.028595497831702232
7500,0.059925537556409836,-0.1696501076221466,-0.030688684433698654
7600,0.06197584420442581,-0.16613250970840454,-0.03179917484521866
7700,0.05983556807041168,-0.1665680706501007,-0.02789580635726452
7800,0.058413561433553696,-0.16787341237068176,-0.027330322191119194
7900,0.055348221212625504,-0.16475416719913483,-0.02977127581834793
8000,0.059196535497903824,-0.16543245315551758,-0.029743662104010582
8100,0.06120513007044792,-0.16493922472000122,-0.027869462966918945
8200,0.05742235854268074,-0.16081105172634125,-0.029612544924020767
8300,0.06501409411430359,-0.1571066677570343,-0.028016148135066032
8400,0.06295353174209595,-0.1601087898015976,-0.02934076637029648
8500,0.0711168423295021,-0.1602926254272461,-0.029851390048861504
8600,0.07539556920528412,-0.15994815528392792,-0.029603000730276108
8700,0.0742565244436264,-0.16123035550117493,-0.029672469943761826
8800,0.06934216618537903,-0.16049189865589142,-0.029217209666967392
8900,0.07034283876419067,-0.16260133683681488,-0.03055070899426937
9000,0.06650075316429138,-0.1505773514509201,-0.025091413408517838
9100,0.07004089653491974,-0.1533428579568863,-0.02799304388463497
9200,0.0705595314502716,-0.14867112040519714,-0.027297165244817734
9300,0.06971365213394165,-0.1462368369102478,-0.02727891132235527
9400,0.06901056319475174,-0.14605669677257538,-0.027157168835401535
9500,0.07106253504753113,-0.14465205371379852,-0.02663649059832096
9600,0.0719698891043663,-0.14462390542030334,-0.027033284306526184
9700,0.07233839482069016,-0.1462612897157669,-0.027243204414844513
9800,0.07278592884540558,-0.1481557935476303,-0.027710605412721634
9900,0.07159017771482468,-0.15011943876743317,-0.02777095139026642
10000,0.06984920054674149,-0.15178078413009644,-0.028152108192443848
