1,1.4913322925567627
100,1.7483437061309814
200,1.4242316484451294
300,1.4204515218734741
400,1.330539345741272
500,1.3150068521499634
600,1.2362048625946045
700,1.225218653678894
800,1.2571392059326172
900,1.2332987785339355
1000,1.2073609828948975
1100,1.182996153831482
1200,1.2565590143203735
1300,1.2052147388458252
1400,1.2331827878952026
1500,1.2065294981002808
1600,1.1586178541183472
1700,1.141788363456726
1800,1.1184656620025635
1900,1.145810604095459
2000,1.1661535501480103
2100,1.1283583641052246
2200,1.1101993322372437
2300,1.1269265413284302
2400,1.1562409400939941
2500,1.1825188398361206
2600,1.1414541006088257
2700,1.109555721282959
2800,1.1177864074707031
2900,1.0862398147583008
3000,1.0641474723815918
3100,1.0329639911651611
3200,1.0704022645950317
3300,1.0391849279403687
3400,1.0406649112701416
3500,1.02463960647583
3600,1.0336612462997437
3700,1.0668799877166748
3800,0.9843136072158813
3900,0.9698453545570374
4000,1.0311607122421265
4100,1.044975757598877
4200,0.9947863221168518
4300,1.0048201084136963
4400,0.999644935131073
4500,1.0477758646011353
4600,1.0215466022491455
4700,0.9749336242675781
4800,1.0245455503463745
4900,1.0339531898498535
5000,0.9869100451469421
5100,1.005799412727356
5200,0.9796319007873535
5300,0.9983935356140137
5400,0.9700844287872314
5500,0.9704012870788574
5600,0.9742031097412109
5700,1.0126854181289673
5800,0.9861019849777222
5900,0.9758263826370239
6000,0.9963167309761047
6100,1.0210901498794556
6200,0.992372453212738
6300,0.9873288869857788
6400,0.9790420532226562
6500,0.9246335029602051
6600,1.0090774297714233
6700,0.9397756457328796
6800,0.9789629578590393
6900,0.9670137763023376
7000,0.9711381196975708
7100,0.9394616484642029
7200,0.9320911765098572
7300,0.9759751558303833
7400,0.9598614573478699
7500,1.005203366279602
7600,0.9830244183540344
7700,1.033971905708313
7800,0.9881883859634399
7900,0.9576400518417358
8000,1.0051461458206177
8100,0.9488143920898438
8200,0.9831662178039551
8300,1.0309330224990845
8400,0.9789060354232788
8500,1.0032496452331543
8600,0.9880418181419373
8700,0.9401587247848511
8800,1.0032662153244019
8900,1.0312952995300293
9000,0.9997936487197876
9100,0.9639579653739929
9200,0.956842839717865
9300,0.9756881594657898
9400,0.9897083044052124
9500,0.9883238673210144
9600,0.9904524087905884
9700,0.9897047877311707
9800,0.9867410659790039
9900,0.9849962592124939
10000,0.9917125105857849
