1,2.16085147857666
100,2.435063362121582
200,2.2833666801452637
300,2.265493631362915
400,2.181877613067627
500,2.1427383422851562
600,2.078056573867798
700,2.002676248550415
800,1.9609904289245605
900,1.9513287544250488
1000,1.8716062307357788
1100,1.811971664428711
1200,1.8206133842468262
1300,1.7607601881027222
1400,1.7159721851348877
1500,1.67042076587677
1600,1.6156055927276611
1700,1.5658066272735596
1800,1.535001516342163
1900,1.507591724395752
2000,1.4890376329421997
2100,1.502224326133728
2200,1.47965669631958
2300,1.4236655235290527
2400,1.3763222694396973
2500,1.3555365800857544
2600,1.2874442338943481
2700,1.2817151546478271
2800,1.244933843612671
2900,1.2963510751724243
3000,1.299976110458374
3100,1.2885890007019043
3200,1.2832359075546265
3300,1.3091983795166016
3400,1.3308371305465698
3500,1.3621160984039307
3600,1.3769495487213135
3700,1.3745067119598389
3800,1.360575795173645
3900,1.3757381439208984
4000,1.3194149732589722
4100,1.2537721395492554
4200,1.2198237180709839
4300,1.2594760656356812
4400,1.2095293998718262
4500,1.217758297920227
4600,1.1718218326568604
4700,1.170280933380127
4800,1.1300674676895142
4900,1.1232367753982544
5000,1.1914582252502441
5100,1.1617741584777832
5200,1.202942132949829
5300,1.1748872995376587
5400,1.1897521018981934
5500,1.166100263595581
5600,1.1496654748916626
5700,1.1144825220108032
5800,1.15195894241333
5900,1.1178240776062012
6000,1.1324503421783447
6100,1.1426974534988403
6200,1.1403077840805054
6300,1.1458672285079956
6400,1.148470401763916
6500,1.1845777034759521
6600,1.1418324708938599
6700,1.164226770401001
6800,1.1444875001907349
6900,1.2001129388809204
7000,1.1407442092895508
7100,1.1551518440246582
7200,1.1487667560577393
7300,1.2136322259902954
7400,1.1833503246307373
7500,1.1940284967422485
7600,1.216562271118164
7700,1.204040765762329
7800,1.1844274997711182
7900,1.2011712789535522
8000,1.1782681941986084
8100,1.1689380407333374
8200,1.175254464149475
8300,1.183518648147583
8400,1.1739246845245361
8500,1.1784331798553467
8600,1.1437774896621704
8700,1.130468726158142
8800,1.1338142156600952
8900,1.1123310327529907
9000,1.1525177955627441
9100,1.1230721473693848
9200,1.122174859046936
9300,1.131704330444336
9400,1.133203387260437
9500,1.1318200826644897
9600,1.1250455379486084
9700,1.1169179677963257
9800,1.1106412410736084
9900,1.1120893955230713
10000,1.1145190000534058
