1,0.0,0.0,0.00027155273710377514
100,-0.1601240038871765,-0.08587730675935745,-0.024566873908042908
200,-0.18791960179805756,-0.0917559489607811,-0.022477254271507263
300,-0.201878622174263,-0.10046268999576569,-0.021679341793060303
400,-0.21560221910476685,-0.10626249015331268,-0.020983129739761353
500,-0.21788844466209412,-0.10593737661838531,-0.02321036532521248
600,-0.2219797968864441,-0.11157841235399246,-0.02119135856628418
700,-0.22490553557872772,-0.1131628081202507,-0.01982550323009491
800,-0.22021183371543884,-0.10922897607088089,-0.020365720614790916
900,-0.22117824852466583,-0.10535318404436111,-0.019585687667131424
1000,-0.21405652165412903,-0.10721708089113235,-0.020283594727516174
1100,-0.21066145598888397,-0.10299619287252426,-0.022213200107216835
1200,-0.21312323212623596,-0.10517555475234985,-0.017497818917036057
1300,-0.2217806726694107,-0.10997719317674637,-0.019041510298848152
1400,-0.21913032233715057,-0.11560698598623276,-0.019978851079940796
1500,-0.21784067153930664,-0.11100631207227707,-0.020041003823280334
1600,-0.21427254378795624,-0.11178763955831528,-0.021859433501958847
1700,-0.20941494405269623,-0.109993577003479,-0.020108720287680626
1800,-0.2018536478281021,-0.1070634126663208,-0.01786837726831436
1900,-0.200919970870018,-0.10431770235300064,-0.02004612237215042
2000,-0.20830649137496948,-0.10527389496564865,-0.017909429967403412
2100,-0.20719356834888458,-0.10046395659446716,-0.017477916553616524
2200,-0.19956332445144653,-0.10757474601268768,-0.018079711124300957
2300,-0.19747616350650787,-0.10502466559410095,-0.017080185934901237
2400,-0.1953153759241104,-0.10671040415763855,-0.01409673411399126
2500,-0.19499416649341583,-0.10523303598165512,-0.019742527976632118
2600,-0.19441229104995728,-0.10323618352413177,-0.01676366850733757
2700,-0.19169452786445618,-0.10499858111143112,-0.018913161009550095
2800,-0.1934756338596344,-0.10988231748342514,-0.017984559759497643
2900,-0.19758641719818115,-0.11299767345190048,-0.019405310973525047
3000,-0.19457437098026276,-0.10737980902194977,-0.018987786024808884
3100,-0.19821253418922424,-0.10914485901594162,-0.016520293429493904
3200,-0.19769635796546936,-0.11002759635448456,-0.015435515902936459
3300,-0.19373947381973267,-0.10999376326799393,-0.017804540693759918
3400,-0.18956969678401947,-0.11557412892580032,-0.01493964996188879
3500,-0.183745339512825,-0.11362592875957489,-0.01744648814201355
3600,-0.18105201423168182,-0.11016014218330383,-0.015410978347063065
3700,-0.17839078605175018,-0.11412516981363297,-0.019459469243884087
3800,-0.17633488774299622,-0.10571479052305222,-0.017629018053412437
3900,-0.1818057745695114,-0.10966210812330246,-0.012644140049815178
4000,-0.17507793009281158,-0.11136473715305328,-0.014567892998456955
4100,-0.1720370650291443,-0.1141500398516655,-0.015374748967587948
4200,-0.17132627964019775,-0.1176028773188591,-0.016208466142416
4300,-0.181194007396698,-0.11786887049674988,-0.017414597794413567
4400,-0.17675697803497314,-0.11541995406150818,-0.016104862093925476
4500,-0.17824453115463257,-0.11635050922632217,-0.01938743330538273
4600,-0.17502205073833466,-0.11377125978469849,-0.015396774746477604
4700,-0.17704692482948303,-0.11472555994987488,-0.016786321997642517
4800,-0.17246979475021362,-0.1091582402586937,-0.015774047002196312
4900,-0.17432881891727448,-0.10424645990133286,-0.014280670322477818
5000,-0.1707255244255066,-0.10259130597114563,-0.015616564080119133
5100,-0.16939213871955872,-0.09821723401546478,-0.013207690790295601
5200,-0.16536183655261993,-0.09703116863965988,-0.01752905361354351
5300,-0.16444362699985504,-0.0988159030675888,-0.014704092405736446
5400,-0.165973961353302,-0.09385945647954941,-0.014869367703795433
5500,-0.1658802479505539,-0.0908101424574852,-0.011676590889692307
5600,-0.16347648203372955,-0.08860483765602112,-0.01135864295065403
5700,-0.16089461743831635,-0.08940152078866959,-0.01147497445344925
5800,-0.15578976273536682,-0.08740411698818207,-0.012684975750744343
5900,-0.1567060351371765,-0.0887513980269432,-0.009652546606957912
6000,-0.15969647467136383,-0.08552809804677963,-0.008979306556284428
6100,-0.15788772702217102,-0.08997806161642075,-0.012411708943545818
6200,-0.15373383462429047,-0.09195604920387268,-0.01200419943779707
6300,-0.15222668647766113,-0.0848722904920578,-0.00976776983588934
6400,-0.15539303421974182,-0.08508183807134628,-0.009127159602940083
6500,-0.15376129746437073,-0.08710691332817078,-0.009602222591638565
6600,-0.15585583448410034,-0.09083256870508194,-0.009103981778025627
6700,-0.15915127098560333,-0.09080705791711807,-0.007743126712739468
6800,-0.15968258678913116,-0.09713828563690186,-0.007837238721549511
6900,-0.1536281704902649,-0.09823030233383179,-0.008885550312697887
7000,-0.1554233282804489,-0.09281416982412338,-0.008171937428414822
7100,-0.1503211259841919,-0.09436268359422684,-0.008801284246146679
7200,-0.15144003927707672,-0.09419451653957367,-0.007385160308331251
7300,-0.1567683219909668,-0.09590651839971542,-0.008677729405462742
7400,-0.15600399672985077,-0.09252198040485382,-0.0072059910744428635
7500,-0.15560978651046753,-0.09287673234939575,-0.007335147820413113
7600,-0.15233729779720306,-0.0950370654463768,-0.009396135807037354
7700,-0.1523144245147705,-0.09930133074522018,-0.009267027489840984
7800,-0.15471109747886658,-0.10295151174068451,-0.008766895160079002
7900,-0.15658842027187347,-0.09785520285367966,-0.00667331600561738
8000,-0.15575513243675232,-0.09770911186933517,-0.009460615925490856
8100,-0.15063436329364777,-0.09961804002523422,-0.010171568021178246
8200,-0.14648285508155823,-0.09840153157711029,-0.012135901488363743
8300,-0.14892826974391937,-0.10329266637563705,-0.013490116223692894
8400,-0.14993706345558167,-0.10054096579551697,-0.011231346055865288
8500,-0.14763423800468445,-0.09762834757566452,-0.012658465653657913
8600,-0.14763037860393524,-0.10467669367790222,-0.009041483514010906
8700,-0.14764246344566345,-0.10680443793535233,-0.013412628322839737
8800,-0.14844602346420288,-0.11303520202636719,-0.011840267106890678
8900,-0.15026482939720154,-0.10977641493082047,-0.012243524193763733
9000,-0.14723806083202362,-0.10838056355714798,-0.01423182524740696
9100,-0.14571119844913483,-0.10807754099369049,-0.01282548625022173
9200,-0.14546120166778564,-0.10967088490724564,-0.013593371026217937
9300,-0.14626894891262054,-0.11098923534154892,-0.013761979527771473
9400,-0.1489875763654709,-0.11307088285684586,-0.013568190857768059
9500,-0.1494794487953186,-0.11411023885011673,-0.013593669049441814
9600,-0.14988891780376434,-0.11437404900789261,-0.013710874132812023
9700,-0.14984779059886932,-0.11509578675031662,-0.01352545153349638
9800,-0.14942893385887146,-0.11614888906478882,-0.014064095914363861
9900,-0.14902421832084656,-0.11705091595649719,-0.01424229983240366
10000,-0.14845752716064453,-0.1165749579668045,-0.014035972766578197
