1,0.3692564070224762,0.40216633677482605,0.39702847599983215,0.43628308176994324
100,0.10132031887769699,0.10014259815216064,0.10016096383333206,0.09886839985847473
200,0.10008949786424637,0.09880992025136948,0.09805426746606827,0.09648548066616058
300,0.1000739187002182,0.09772789478302002,0.09758980572223663,0.0960121601819992
400,0.09987539052963257,0.09784533083438873,0.09835423529148102,0.09570478647947311
500,0.09952090680599213,0.09762654453516006,0.09786595404148102,0.0951000526547432
600,0.09981756657361984,0.09783732146024704,0.09832696616649628,0.0950058102607727
700,0.0995766818523407,0.09804567694664001,0.09787505120038986,0.09496590495109558
800,0.09952233731746674,0.09765453636646271,0.09813141822814941,0.09532506763935089
900,0.10001585632562637,0.09804347902536392,0.09775242209434509,0.09477691352367401
1000,0.09979862719774246,0.09747465699911118,0.09808525443077087,0.09532009810209274
1100,0.09972161799669266,0.09754396229982376,0.09771466255187988,0.09450379014015198
1200,0.09971503913402557,0.0975213423371315,0.09764412045478821,0.09483377635478973
1300,0.09943334758281708,0.0978684201836586,0.0981108546257019,0.09530287235975266
1400,0.09963653981685638,0.09786543250083923,0.09792299568653107,0.09540320932865143
1500,0.09951092302799225,0.0971275195479393,0.09766290336847305,0.09510042518377304
1600,0.09901776909828186,0.09767787903547287,0.0974930003285408,0.09524538367986679
1700,0.09921590983867645,0.09732221812009811,0.09810125827789307,0.09594512730836868
1800,0.10015235096216202,0.09747783094644547,0.09798431396484375,0.09479879587888718
1900,0.09987299144268036,0.09713253378868103,0.09779194742441177,0.09518124908208847
2000,0.10005223006010056,0.09815128147602081,0.09830687195062637,0.09516996890306473
2100,0.09983714669942856,0.09798513352870941,0.09775309264659882,0.09500890225172043
2200,0.0997089073061943,0.09791624546051025,0.09812191128730774,0.09505595266819
2300,0.09941178560256958,0.09799772500991821,0.0979747399687767,0.09523843973875046
2400,0.09948808699846268,0.09724683314561844,0.0984719842672348,0.09448821097612381
2500,0.09941788762807846,0.09737075865268707,0.09792323410511017,0.09550338238477707
2600,0.09983476996421814,0.0974879339337349,0.09819191694259644,0.09549236297607422
2700,0.09999340772628784,0.0979839339852333,0.09762060642242432,0.09525259584188461
2800,0.09945772588253021,0.09777721762657166,0.0978318527340889,0.09506011009216309
2900,0.09958689659833908,0.09818720817565918,0.09764881432056427,0.09501022100448608
3000,0.09947630017995834,0.09758414328098297,0.09795792400836945,0.0951559841632843
3100,0.09927934408187866,0.09782068431377411,0.098384790122509,0.0947762206196785
3200,0.09970909357070923,0.097963348031044,0.09798215329647064,0.09484292566776276
3300,0.09998595714569092,0.09756135195493698,0.09818139672279358,0.09496656805276871
3400,0.09975988417863846,0.09774663299322128,0.09837114810943604,0.0956181213259697
3500,0.09973510354757309,0.09802762418985367,0.09787655621767044,0.09524707496166229
3600,0.09928151220083237,0.09819801896810532,0.09841163456439972,0.09491126239299774
3700,0.09940393269062042,0.09734009951353073,0.09802405536174774,0.0954134464263916
3800,0.09987007826566696,0.09787355363368988,0.09805841743946075,0.09530210494995117
3900,0.09949570894241333,0.09756238013505936,0.0980767235159874,0.09543441981077194
4000,0.10008549690246582,0.0974477007985115,0.09806682169437408,0.09532879292964935
4100,0.09969624876976013,0.09813450276851654,0.09795023500919342,0.09530147910118103
4200,0.09976828843355179,0.0972064808011055,0.09810720384120941,0.09521009773015976
4300,0.09946304559707642,0.09752708673477173,0.09815515577793121,0.09564577788114548
4400,0.1000724658370018,0.09753880649805069,0.09816471487283707,0.09526502341032028
4500,0.09953929483890533,0.09773006290197372,0.09851312637329102,0.09505036473274231
4600,0.09976167976856232,0.09728337079286575,0.09794484078884125,0.09432680904865265
4700,0.10035686939954758,0.09735392779111862,0.09806925058364868,0.09492651373147964
4800,0.09946578741073608,0.09725915640592575,0.09845045208930969,0.09488500654697418
4900,0.09929714351892471,0.09831967204809189,0.09807313978672028,0.0956534892320633
5000,0.09950796514749527,0.09835407882928848,0.09826400876045227,0.095480777323246
5100,0.09990821778774261,0.09767977893352509,0.09857272356748581,0.0951090008020401
5200,0.09959135949611664,0.09728927165269852,0.09773438423871994,0.09522991627454758
5300,0.09967295825481415,0.0978982150554657,0.09844876825809479,0.0955701470375061
5400,0.0989915281534195,0.0976809486746788,0.09853251278400421,0.09528852999210358
5500,0.09963002800941467,0.0975230485200882,0.09800859540700912,0.09570378065109253
5600,0.09922143071889877,0.09744133055210114,0.09800196439027786,0.09507964551448822
5700,0.09940991550683975,0.09745405614376068,0.09813591092824936,0.09522523730993271
5800,0.09982914477586746,0.09821341931819916,0.09781047701835632,0.09494667500257492
5900,0.1000983715057373,0.09810741990804672,0.09817769378423691,0.09486832469701767
6000,0.10009684413671494,0.09775315970182419,0.09809848666191101,0.09530904144048691
6100,0.09977643936872482,0.09742629528045654,0.09799910336732864,0.09530971199274063
6200,0.09981872141361237,0.09744493663311005,0.0985398069024086,0.09516387432813644
6300,0.09997320175170898,0.09775736927986145,0.09816919267177582,0.09524926543235779
6400,0.09941361099481583,0.0976775512099266,0.09815085679292679,0.0951395109295845
6500,0.09952225536108017,0.09818842262029648,0.0978444516658783,0.09568431973457336
6600,0.09968648105859756,0.09791699796915054,0.09782431274652481,0.09617923200130463
6700,0.10007224977016449,0.09762629121541977,0.09787332266569138,0.0950094535946846
6800,0.09951327741146088,0.09812808781862259,0.09799748659133911,0.09486936032772064
6900,0.0998295396566391,0.09767073392868042,0.09814079105854034,0.09493657946586609
7000,0.0999954491853714,0.09766600281000137,0.09786372631788254,0.0948670506477356
7100,0.09977887570858002,0.09760674834251404,0.0977257639169693,0.09535851329565048
7200,0.09946925193071365,0.09749877452850342,0.0985274463891983,0.09451991319656372
7300,0.0998528003692627,0.09720618277788162,0.09824337065219879,0.09508845210075378
7400,0.09958773851394653,0.09746146947145462,0.09847705066204071,0.09460371732711792
7500,0.10011076182126999,0.09769421815872192,0.09804503619670868,0.09519477188587189
7600,0.09977090358734131,0.09816813468933105,0.098349429666996,0.0948563888669014
7700,0.09954574704170227,0.09807819873094559,0.09806086122989655,0.09552668035030365
7800,0.10048873722553253,0.09817475080490112,0.09749269485473633,0.09517844766378403
7900,0.09939241409301758,0.09776867926120758,0.09830016642808914,0.09567690640687943
8000,0.09987616539001465,0.09779442846775055,0.09774982184171677,0.09524425119161606
8100,0.09968347102403641,0.09789063781499863,0.09828360378742218,0.09542175382375717
8200,0.09955447912216187,0.09794680029153824,0.09777946025133133,0.09554614871740341
8300,0.09946609288454056,0.09786579757928848,0.09822528809309006,0.09544316679239273
8400,0.09984079748392105,0.0978817492723465,0.09814237803220749,0.09537611156702042
8500,0.09983497112989426,0.09729892015457153,0.09808676689863205,0.09530159085988998
8600,0.09970294684171677,0.09802019596099854,0.09791827946901321,0.09513822197914124
8700,0.09994003921747208,0.09754882007837296,0.09801340103149414,0.09517986327409744
8800,0.09992995113134384,0.09778980165719986,0.09789635986089706,0.09508644789457321
8900,0.09945768862962723,0.09758894145488739,0.0979282334446907,0.0950574055314064
9000,0.09976116567850113,0.09779652208089828,0.0986202284693718,0.0949716791510582
9100,0.09969716519117355,0.09770432859659195,0.09833322465419769,0.09505145251750946
9200,0.09975380450487137,0.09781619906425476,0.09812785685062408,0.09506228566169739
9300,0.09975974261760712,0.09771806001663208,0.09798019379377365,0.09515964984893799
9400,0.09981916099786758,0.09768963605165482,0.09798545390367508,0.0951395183801651
9500,0.09979789704084396,0.09779530763626099,0.09797844290733337,0.09513988345861435
9600,0.09981103241443634,0.09794435650110245,0.09805071353912354,0.0952264741063118
9700,0.09979305416345596,0.09786707162857056,0.0980677381157875,0.09531392902135849
9800,0.09973596781492233,0.09776467084884644,0.09800391644239426,0.09523998945951462
9900,0.09971782565116882,0.09779610484838486,0.09799850732088089,0.09518755227327347
10000,0.09978999942541122,0.09781651943922043,0.0979786068201065,0.09527189284563065
