1,0.5056378245353699
100,0.5916904211044312
200,0.6876670122146606
300,0.6944200396537781
400,0.7188654541969299
500,0.7379836440086365
600,0.7620402574539185
700,0.7703753113746643
800,0.7557023167610168
900,0.7283598184585571
1000,0.7824934124946594
1100,0.7476556301116943
1200,0.772641122341156
1300,0.7777669429779053
1400,0.7245734930038452
1500,0.7311311364173889
1600,0.7327665090560913
1700,0.7475315928459167
1800,0.7543745040893555
1900,0.7853102087974548
2000,0.7339791655540466
2100,0.7357893586158752
2200,0.7365888953208923
2300,0.7783450484275818
2400,0.7485366463661194
2500,0.7236359119415283
2600,0.7844540476799011
2700,0.7687991261482239
2800,0.7833345532417297
2900,0.7530578970909119
3000,0.7512108683586121
3100,0.7674981951713562
3200,0.7878969311714172
3300,0.7241501808166504
3400,0.7322285175323486
3500,0.7176828980445862
3600,0.7203627228736877
3700,0.7518449425697327
3800,0.7724491953849792
3900,0.7414763569831848
4000,0.7647145390510559
4100,0.7694464921951294
4200,0.7469940781593323
4300,0.7908225059509277
4400,0.7898011207580566
4500,0.7724291682243347
4600,0.7879546880722046
4700,0.7738487720489502
4800,0.7660230994224548
4900,0.8000562787055969
5000,0.7721701860427856
5100,0.7773718237876892
5200,0.7523942589759827
5300,0.7337160706520081
5400,0.7929028868675232
5500,0.7460566759109497
5600,0.7729827761650085
5700,0.7943936586380005
5800,0.7963544130325317
5900,0.7505471110343933
6000,0.7815603613853455
6100,0.8053817749023438
6200,0.7938421368598938
6300,0.769921600818634
6400,0.7623856067657471
6500,0.7568371891975403
6600,0.8079234957695007
6700,0.8042917847633362
6800,0.7287453413009644
6900,0.7570395469665527
7000,0.7827429175376892
7100,0.7514168620109558
7200,0.7162010669708252
7300,0.8145962953567505
7400,0.7783450484275818
7500,0.7713277339935303
7600,0.7822766304016113
7700,0.7754411101341248
7800,0.7526339888572693
7900,0.7738901972770691
8000,0.7418920993804932
8100,0.7530286312103271
8200,0.7584767937660217
8300,0.7842455506324768
8400,0.7437044978141785
8500,0.8021390438079834
8600,0.7680857181549072
8700,0.7541134357452393
8800,0.7771685123443604
8900,0.7878555655479431
9000,0.7598269581794739
9100,0.7620845437049866
9200,0.7788835763931274
9300,0.7923769354820251
9400,0.7888249158859253
9500,0.7799097895622253
9600,0.7726070880889893
9700,0.7680038213729858
9800,0.7689014077186584
9900,0.7723685503005981
10000,0.7738426923751831
