1,-0.0008923430577851832,0.0,0.0
100,0.014111419208347797,-0.02947051078081131,0.05671584606170654
200,-0.005181940272450447,-0.0036255959421396255,0.053993385285139084
300,-0.027938421815633774,0.013779099099338055,0.04886908456683159
400,-0.014930583536624908,-0.005019020289182663,0.05630335584282875
500,-0.014127477072179317,8.66129994392395e-06,0.04345544055104256
600,-0.019183287397027016,0.002659299410879612,0.038128238171339035
700,-0.016258029267191887,-0.013495259918272495,0.041686829179525375
800,-0.007569270674139261,-0.0006247912533581257,0.05424536019563675
900,-0.011693083681166172,-0.004192386753857136,0.046846359968185425
1000,-0.003932895138859749,0.007696160115301609,0.05187150463461876
1100,-0.011486699804663658,-0.008065377362072468,0.037509847432374954
1200,-0.015801383182406425,6.862194277346134e-05,0.03931320458650589
1300,-0.03253456950187683,-0.01582055538892746,0.027382109314203262
1400,-0.024841515347361565,-0.0159403495490551,0.023524558171629906
1500,-0.016831645742058754,-0.012197610922157764,0.03064323030412197
1600,-0.017163973301649094,-0.004403381608426571,0.03162316232919693
1700,-0.02154688537120819,-0.018102329224348068,0.010150937363505363
1800,-0.013233665376901627,-0.014404363930225372,0.0195496566593647
1900,-0.025160333141684532,-0.019767096266150475,0.009910881519317627
2000,-0.01667475514113903,-0.016998544335365295,0.025504255667328835
2100,-0.010325457900762558,-0.007651307620108128,0.019004451110959053
2200,-0.010658892802894115,-0.00579614844173193,0.020201608538627625
2300,-0.020908715203404427,-0.027607405558228493,-0.019569870084524155
2400,-0.02278866246342659,-0.014910812489688396,-0.015567511320114136
2500,0.004865003749728203,-0.018598118796944618,0.0036862788256257772
2600,-0.008617186918854713,0.0019123872043564916,0.011404050514101982
2700,-0.008320036344230175,0.005142398178577423,0.01613583229482174
2800,-0.020658928900957108,-0.009753179736435413,0.018364030867815018
2900,-0.03634581342339516,-0.011999625712633133,0.021415777504444122
3000,-0.024838536977767944,-0.011523926630616188,0.02632599137723446
3100,-0.021438581869006157,0.002020723419263959,0.03941207751631737
3200,-0.024778136983513832,-0.0025560955982655287,0.0312841534614563
3300,-0.02749016508460045,-0.003626688150689006,0.024045385420322418
3400,-0.011647853069007397,-0.029086465016007423,0.012801946140825748
3500,-0.03937695175409317,-0.03718547895550728,0.0025751707144081593
3600,-0.016807084903120995,-0.019636647775769234,-0.003253144910559058
3700,-0.02188200131058693,-0.023450935259461403,-0.006361242849379778
3800,-0.017942309379577637,-0.016266878694295883,-0.0007549484143964946
3900,-0.012591036036610603,-0.023543531075119972,-0.013403181917965412
4000,-0.0287740807980299,-0.02261427789926529,-0.01213560625910759
4100,-0.02590004913508892,-0.012849812395870686,-0.008914635516703129
4200,-0.011503280140459538,-0.009121706709265709,-0.02669648639857769
4300,-0.0020766565576195717,-0.023685680702328682,-0.0017120861448347569
4400,-0.02578955516219139,-0.021468251943588257,0.01596299186348915
4500,-0.012204036116600037,-0.003388205310329795,0.021394474431872368
4600,-0.031030097976326942,-0.023707175627350807,0.008979899808764458
4700,-0.032272569835186005,-0.005433832295238972,0.03241858258843422
4800,-0.0007655695080757141,0.013964861631393433,0.03394686430692673
4900,-0.003743457607924938,-0.00538339838385582,0.029460493475198746
5000,-0.01614220067858696,-0.03339192271232605,0.015125194564461708
5100,-0.007290754001587629,-0.010980386286973953,0.006556079722940922
5200,-0.02784801460802555,-0.019215503707528114,0.004337530583143234
5300,-0.009357505477964878,0.003607544582337141,-0.00031019526068121195
5400,-0.02654557302594185,-0.018892943859100342,-0.019362062215805054
5500,-0.030588913708925247,-0.026666292920708656,-0.008766651153564453
5600,-0.029593676328659058,-0.02509854920208454,-0.0050582485273480415
5700,-0.020785074681043625,-0.021878918632864952,-0.029255907982587814
5800,-0.005706505384296179,-0.03244258835911751,-0.04919883981347084
5900,0.003599735675379634,-0.01715976931154728,-0.04418666660785675
6000,0.0007938835769891739,-0.0035836740862578154,-0.05296057090163231
6100,-0.013055818155407906,-0.014324704185128212,-0.04448629170656204
6200,-0.017481470480561256,-0.022334890440106392,-0.048340775072574615
6300,-0.01020811963826418,-0.025092486292123795,-0.035746049135923386
6400,-0.01851450838148594,-0.016216740012168884,-0.029510699212551117
6500,-0.019584806635975838,-0.011083969846367836,-0.028314046561717987
6600,-0.025637049227952957,-0.01834043487906456,-0.033854734152555466
6700,-0.003576117567718029,-0.027085963636636734,-0.019420519471168518
6800,-0.006068270653486252,-0.012203749269247055,-0.013935377821326256
6900,-0.007767591625452042,-0.009546865709125996,-0.025857627391815186
7000,-0.013752901926636696,-0.02654425799846649,-0.010317226871848106
7100,-0.010631399229168892,-0.016544470563530922,0.0026257147546857595
7200,-0.02811278961598873,-0.026671187952160835,0.018166717141866684
7300,-0.012152167968451977,0.0032879516948014498,0.020044002681970596
7400,-0.027933793142437935,-0.009832953102886677,0.023862745612859726
7500,-0.013461544178426266,-0.01430332288146019,0.03125423192977905
7600,-0.013141201809048653,-0.008679086342453957,0.02865028753876686
7700,-0.02289542183279991,-0.008480759337544441,0.04183528199791908
7800,-0.023650672286748886,-2.4195294827222824e-05,0.037159644067287445
7900,-0.020921161398291588,-0.0022570728324353695,0.04359077662229538
8000,-0.013961362652480602,0.0009385782759636641,0.04209699481725693
8100,-0.010966559872031212,-0.01319531723856926,0.057185523211956024
8200,-0.005490696057677269,9.97055321931839e-05,0.05543455109000206
8300,-0.0019305446185171604,0.009872536174952984,0.05074556916952133
8400,-0.013151466846466064,0.003399804001674056,0.04818161204457283
8500,-0.014167637564241886,-0.004999435041099787,0.04302627593278885
8600,0.0015950773376971483,-0.0037423940375447273,0.055642563849687576
8700,-0.01538282260298729,-5.491101182997227e-05,0.04375961050391197
8800,-0.02027677558362484,0.0015579282771795988,0.03998593986034393
8900,-0.03500897064805031,-0.011905591934919357,0.03329472616314888
9000,-0.018521711230278015,-0.003311077831313014,0.04285648465156555
9100,-0.014729243703186512,-0.0013036432210355997,0.03900166600942612
9200,-0.01869017258286476,-0.004326962865889072,0.041831113398075104
9300,-0.020413372665643692,-0.003946842160075903,0.038174618035554886
9400,-0.016797587275505066,-0.0035035887267440557,0.03642714023590088
9500,-0.013552695512771606,0.00014463307161349803,0.03829998895525932
9600,-0.01621132344007492,0.0014600841095671058,0.03887968882918358
9700,-0.014790213666856289,-0.0014355606399476528,0.03751063346862793
9800,-0.015921881422400475,-0.003773492993786931,0.037971802055835724
9900,-0.017712431028485298,-0.004698106553405523,0.039875827729701996
10000,-0.015477566048502922,-0.00329846004024148,0.039075274020433426
