1,4.886293888092041
100,2.2206740379333496
200,3.210164785385132
300,4.128178119659424
400,4.979035377502441
500,4.8458147048950195
600,5.465425491333008
700,5.319599151611328
800,5.933070182800293
900,5.445207595825195
1000,5.802984714508057
1100,5.74364709854126
1200,6.046998500823975
1300,6.663293361663818
1400,6.688610553741455
1500,6.312906742095947
1600,6.320852756500244
1700,7.18285608291626
1800,6.9442572593688965
1900,6.507523536682129
2000,7.373176097869873
2100,6.950925350189209
2200,6.951861381530762
2300,7.052795886993408
2400,8.982656478881836
2500,8.471461296081543
2600,8.071630477905273
2700,8.354439735412598
2800,8.07504940032959
2900,8.195690155029297
3000,7.873332977294922
3100,7.667707920074463
3200,7.33890962600708
3300,7.3780927658081055
3400,7.780844688415527
3500,7.892480373382568
3600,7.988443851470947
3700,7.941924571990967
3800,8.296409606933594
3900,8.024261474609375
4000,7.780216217041016
4100,7.886057376861572
4200,7.470776557922363
4300,7.385152339935303
4400,6.851279258728027
4500,6.698750019073486
4600,6.701490879058838
4700,6.377586841583252
4800,6.705264568328857
4900,6.784374237060547
5000,6.831707954406738
5100,6.895663261413574
5200,7.08593225479126
5300,6.878208160400391
5400,6.8931450843811035
5500,7.251683235168457
5600,6.943580150604248
5700,6.636645793914795
5800,6.855295181274414
5900,6.775036334991455
6000,7.096477508544922
6100,6.940906524658203
6200,7.071634769439697
6300,7.160034656524658
6400,6.838900566101074
6500,7.354093551635742
6600,7.207881927490234
6700,6.912695407867432
6800,7.142520427703857
6900,6.688089847564697
7000,7.070357322692871
7100,7.0202202796936035
7200,7.332018852233887
7300,7.44009256362915
7400,7.395147800445557
7500,7.529601097106934
7600,7.584731578826904
7700,7.899538516998291
7800,7.4127092361450195
7900,7.439402103424072
8000,7.387145519256592
8100,7.52417516708374
8200,7.73449182510376
8300,7.130898475646973
8400,7.296879291534424
8500,7.405428886413574
8600,7.149982929229736
8700,7.785985946655273
8800,7.634995460510254
8900,7.951451301574707
9000,7.9358229637146
9100,8.048517227172852
9200,8.047679901123047
9300,8.051850318908691
9400,7.999719619750977
9500,7.96526575088501
9600,7.977639675140381
9700,7.961202144622803
9800,7.971658706665039
9900,7.964468479156494
10000,7.963223934173584
