1,2.461021661758423
100,2.574779748916626
200,2.515747308731079
300,2.4675166606903076
400,2.4543042182922363
500,2.392354965209961
600,2.347391128540039
700,2.3314571380615234
800,2.3243532180786133
900,2.235877513885498
1000,2.2159907817840576
1100,2.1760568618774414
1200,2.1824986934661865
1300,2.1501011848449707
1400,2.1304638385772705
1500,2.1220452785491943
1600,2.0704619884490967
1700,2.034809112548828
1800,2.0034213066101074
1900,1.9672075510025024
2000,1.956803798675537
2100,1.9376295804977417
2200,1.841361403465271
2300,1.8350015878677368
2400,1.8264164924621582
2500,1.8006800413131714
2600,1.7772465944290161
2700,1.7565335035324097
2800,1.7225152254104614
2900,1.727085828781128
3000,1.738116979598999
3100,1.722005844116211
3200,1.6823252439498901
3300,1.6909124851226807
3400,1.6789453029632568
3500,1.6792889833450317
3600,1.6396816968917847
3700,1.602505087852478
3800,1.562799096107483
3900,1.5656193494796753
4000,1.5477311611175537
4100,1.5507863759994507
4200,1.5582666397094727
4300,1.5337023735046387
4400,1.5199538469314575
4500,1.5501468181610107
4600,1.529174566268921
4700,1.5090421438217163
4800,1.476913332939148
4900,1.4369052648544312
5000,1.4566336870193481
5100,1.409407138824463
5200,1.4407626390457153
5300,1.4422917366027832
5400,1.4196616411209106
5500,1.42336106300354
5600,1.3925058841705322
5700,1.3980191946029663
5800,1.3648905754089355
5900,1.3522573709487915
6000,1.3704012632369995
6100,1.3681200742721558
6200,1.387486219406128
6300,1.379989743232727
6400,1.3982585668563843
6500,1.3827922344207764
6600,1.4010974168777466
6700,1.4425803422927856
6800,1.479312777519226
6900,1.461329698562622
7000,1.4730221033096313
7100,1.429498314857483
7200,1.4426020383834839
7300,1.4600659608840942
7400,1.459761142730713
7500,1.473775863647461
7600,1.4439802169799805
7700,1.4795725345611572
7800,1.4674230813980103
7900,1.4466054439544678
8000,1.4435486793518066
8100,1.4088915586471558
8200,1.399484395980835
8300,1.4235076904296875
8400,1.4441875219345093
8500,1.4266951084136963
8600,1.4299789667129517
8700,1.4598642587661743
8800,1.4537312984466553
8900,1.473003625869751
9000,1.468701958656311
9100,1.4683201313018799
9200,1.4622578620910645
9300,1.460281252861023
9400,1.4644612073898315
9500,1.4716157913208008
9600,1.4745831489562988
9700,1.4723445177078247
9800,1.4681614637374878
9900,1.4644248485565186
10000,1.464181900024414
