1,1.2612056732177734,0.5034997463226318,0.4415283203125,1.9224395751953125
100,1.647743582725525,0.6133766770362854,0.4883606731891632,2.0606768131256104
200,1.793614149093628,0.6584091782569885,0.5185627937316895,2.060349941253662
300,1.8688534498214722,0.7250393629074097,0.5628631711006165,2.104071855545044
400,1.9051457643508911,0.7376972436904907,0.5822553634643555,2.1207644939422607
500,1.9267925024032593,0.8027660846710205,0.6314643621444702,2.1186141967773438
600,1.9876158237457275,0.8140303492546082,0.639513373374939,2.1440277099609375
700,2.0089738368988037,0.8241555690765381,0.6781850457191467,2.140713691711426
800,2.0097806453704834,0.8581646084785461,0.749657928943634,2.169851303100586
900,2.0488572120666504,0.8969127535820007,0.7579376101493835,2.1801626682281494
1000,2.0320558547973633,0.9061731696128845,0.7967095375061035,2.2065656185150146
1100,2.0289738178253174,0.9215869307518005,0.7914585471153259,2.213096857070923
1200,2.07623028755188,0.9498306512832642,0.861444354057312,2.2249579429626465
1300,2.0888144969940186,1.0086311101913452,0.8714988827705383,2.228367328643799
1400,2.107393503189087,1.0474133491516113,0.865837574005127,2.2641263008117676
1500,2.151477575302124,1.0520150661468506,0.8724386692047119,2.256927967071533
1600,2.1813344955444336,1.0893431901931763,0.9094141721725464,2.3014814853668213
1700,2.2015748023986816,1.12156081199646,0.9348214268684387,2.275693416595459
1800,2.184556245803833,1.0975960493087769,0.9267159104347229,2.2666473388671875
1900,2.1909210681915283,1.0937044620513916,0.9617606997489929,2.2943735122680664
2000,2.219076156616211,1.1199160814285278,1.0138834714889526,2.3235719203948975
2100,2.2864320278167725,1.1745789051055908,1.051159143447876,2.345290422439575
2200,2.283062696456909,1.1812360286712646,1.1076912879943848,2.372056484222412
2300,2.334812879562378,1.2362123727798462,1.1256023645401,2.3887100219726562
2400,2.2933402061462402,1.2477649450302124,1.0990599393844604,2.3697519302368164
2500,2.301255464553833,1.293849229812622,1.0997583866119385,2.3966689109802246
2600,2.349390983581543,1.2761259078979492,1.1450473070144653,2.3715569972991943
2700,2.3609440326690674,1.2883511781692505,1.1649580001831055,2.3799853324890137
2800,2.3669934272766113,1.3174763917922974,1.139209508895874,2.3587334156036377
2900,2.3692450523376465,1.323164463043213,1.1373600959777832,2.3808107376098633
3000,2.3970460891723633,1.3642338514328003,1.1047852039337158,2.383390426635742
3100,2.3804714679718018,1.2949278354644775,1.077129602432251,2.3655827045440674
3200,2.3807432651519775,1.3168545961380005,1.0805168151855469,2.4013209342956543
3300,2.4146742820739746,1.3337517976760864,1.092559576034546,2.3781535625457764
3400,2.4007551670074463,1.3385028839111328,1.1004900932312012,2.3760576248168945
3500,2.361666440963745,1.311752438545227,1.1075928211212158,2.337395429611206
3600,2.321118116378784,1.3077211380004883,1.1261754035949707,2.3810830116271973
3700,2.3395581245422363,1.2952609062194824,1.1445260047912598,2.3603227138519287
3800,2.346677303314209,1.3696482181549072,1.156086802482605,2.3986945152282715
3900,2.3913474082946777,1.40339994430542,1.1415858268737793,2.3847851753234863
4000,2.402271032333374,1.3406343460083008,1.1265307664871216,2.404475212097168
4100,2.385153293609619,1.3536845445632935,1.1367665529251099,2.420649766921997
4200,2.3657665252685547,1.3204383850097656,1.150102972984314,2.3956921100616455
4300,2.3838613033294678,1.3024981021881104,1.18180513381958,2.3757286071777344
4400,2.35679030418396,1.2909481525421143,1.1802994012832642,2.3761682510375977
4500,2.349942922592163,1.2946486473083496,1.1593705415725708,2.36513090133667
4600,2.350640058517456,1.3340734243392944,1.1540031433105469,2.3808329105377197
4700,2.383107900619507,1.3831335306167603,1.1427866220474243,2.369887590408325
4800,2.3986141681671143,1.39529287815094,1.1940653324127197,2.402472734451294
4900,2.4070968627929688,1.3689827919006348,1.1598416566848755,2.396437168121338
5000,2.4093666076660156,1.4180265665054321,1.17258882522583,2.385441780090332
5100,2.4648122787475586,1.382521152496338,1.1970170736312866,2.409893751144409
5200,2.5070931911468506,1.3671091794967651,1.231742024421692,2.4876439571380615
5300,2.558307409286499,1.4204021692276,1.2158637046813965,2.472827672958374
5400,2.5654585361480713,1.3932995796203613,1.188571810722351,2.45241117477417
5500,2.546194553375244,1.3694469928741455,1.2146902084350586,2.420832395553589
5600,2.527451276779175,1.3938990831375122,1.2211334705352783,2.41378116607666
5700,2.533780813217163,1.4505916833877563,1.2531719207763672,2.4153828620910645
5800,2.532200813293457,1.4390323162078857,1.278672218322754,2.449084997177124
5900,2.5670430660247803,1.465957522392273,1.2539048194885254,2.4564123153686523
6000,2.5547091960906982,1.4970836639404297,1.247464895248413,2.412571668624878
6100,2.537245750427246,1.4599180221557617,1.2566620111465454,2.4460673332214355
6200,2.505308151245117,1.455851435661316,1.3052464723587036,2.4562201499938965
6300,2.5376768112182617,1.4970710277557373,1.3081917762756348,2.459821939468384
6400,2.5279815196990967,1.5079129934310913,1.2482719421386719,2.458505392074585
6500,2.54887318611145,1.4683161973953247,1.2642474174499512,2.459545135498047
6600,2.5623362064361572,1.468410849571228,1.2619762420654297,2.436615467071533
6700,2.552868366241455,1.4942147731781006,1.248708963394165,2.4174046516418457
6800,2.562206745147705,1.5079600811004639,1.2434252500534058,2.4391515254974365
6900,2.5648276805877686,1.5159963369369507,1.2643983364105225,2.4844658374786377
7000,2.5505001544952393,1.499762773513794,1.2957533597946167,2.4716334342956543
7100,2.590994119644165,1.5353376865386963,1.2679084539413452,2.451918601989746
7200,2.570744514465332,1.536413311958313,1.306339979171753,2.4542629718780518
7300,2.5659830570220947,1.525344729423523,1.3170326948165894,2.4618656635284424
7400,2.572960615158081,1.5752482414245605,1.3082979917526245,2.462982654571533
7500,2.563368797302246,1.606105089187622,1.304307222366333,2.479037046432495
7600,2.6422605514526367,1.5392367839813232,1.3322607278823853,2.501978635787964
7700,2.651634454727173,1.5482608079910278,1.3195189237594604,2.4939026832580566
7800,2.6491808891296387,1.5185093879699707,1.2746516466140747,2.4634764194488525
7900,2.6242291927337646,1.5521228313446045,1.2836097478866577,2.4741392135620117
8000,2.6223926544189453,1.5499675273895264,1.3361116647720337,2.500098943710327
8100,2.6276135444641113,1.5761075019836426,1.3238108158111572,2.5065536499023438
8200,2.6139907836914062,1.5390559434890747,1.3091416358947754,2.501530408859253
8300,2.6074883937835693,1.546945571899414,1.2728866338729858,2.481476306915283
8400,2.6278703212738037,1.5434728860855103,1.283531904220581,2.4715030193328857
8500,2.58437180519104,1.5505739450454712,1.286887764930725,2.489084482192993
8600,2.593944549560547,1.5195368528366089,1.2548454999923706,2.430579662322998
8700,2.599444627761841,1.4910204410552979,1.2847988605499268,2.4709620475769043
8800,2.615358829498291,1.4779773950576782,1.2836310863494873,2.467895269393921
8900,2.587876319885254,1.5506401062011719,1.2952600717544556,2.4535043239593506
9000,2.6169779300689697,1.504091739654541,1.290215253829956,2.486740827560425
9100,2.6202645301818848,1.4952704906463623,1.2693034410476685,2.4728317260742188
9200,2.608987808227539,1.5002641677856445,1.2714743614196777,2.468587636947632
9300,2.609471321105957,1.4969590902328491,1.2742305994033813,2.472970962524414
9400,2.6126904487609863,1.4983052015304565,1.270344853401184,2.4696733951568604
9500,2.6088638305664062,1.4948517084121704,1.2671173810958862,2.4693222045898438
9600,2.602952718734741,1.4913634061813354,1.2664430141448975,2.468888759613037
9700,2.600497245788574,1.4942806959152222,1.2680588960647583,2.4727189540863037
9800,2.5961403846740723,1.496176838874817,1.269733190536499,2.474073648452759
9900,2.594958543777466,1.4980826377868652,1.2680716514587402,2.4746220111846924
10000,2.5958456993103027,1.4972110986709595,1.2669869661331177,2.476944923400879
