1,-1.9688400030136108,-2.2521822452545166,-1.6099838018417358,-3.1073663234710693
100,-2.5111539363861084,-1.9548689126968384,-1.7631367444992065,-3.270354986190796
200,-2.517788887023926,-1.711976170539856,-1.7308911085128784,-3.2268755435943604
300,-2.4912054538726807,-1.59123957157135,-1.6820420026779175,-3.18144154548645
400,-2.470829725265503,-1.5782169103622437,-1.6564425230026245,-3.220111846923828
500,-2.4729127883911133,-1.585767149925232,-1.670118808746338,-3.2053937911987305
600,-2.5232086181640625,-1.5443177223205566,-1.6655054092407227,-3.2227227687835693
700,-2.5964059829711914,-1.5910007953643799,-1.6883407831192017,-3.2797513008117676
800,-2.6060800552368164,-1.5630501508712769,-1.6992058753967285,-3.2827553749084473
900,-2.6285393238067627,-1.5829293727874756,-1.6908609867095947,-3.308823585510254
1000,-2.6171154975891113,-1.5969656705856323,-1.6945043802261353,-3.2997429370880127
1100,-2.64477801322937,-1.6219849586486816,-1.7330154180526733,-3.3208529949188232
1200,-2.6632332801818848,-1.646014928817749,-1.7526233196258545,-3.3558735847473145
1300,-2.6973326206207275,-1.6579865217208862,-1.7568320035934448,-3.3648293018341064
1400,-2.696904182434082,-1.6423914432525635,-1.7249071598052979,-3.3489320278167725
1500,-2.6896536350250244,-1.64248788356781,-1.7258780002593994,-3.326234817504883
1600,-2.758690118789673,-1.680335521697998,-1.7528345584869385,-3.344449043273926
1700,-2.7052903175354004,-1.6285721063613892,-1.7573407888412476,-3.3525140285491943
1800,-2.7201671600341797,-1.6899000406265259,-1.7469911575317383,-3.3670175075531006
1900,-2.7245399951934814,-1.6956013441085815,-1.7895591259002686,-3.3533809185028076
2000,-2.822059392929077,-1.771944284439087,-1.8539073467254639,-3.456404685974121
2100,-2.7594664096832275,-1.699952244758606,-1.8049434423446655,-3.385425329208374
2200,-2.8319027423858643,-1.7761638164520264,-1.857434630393982,-3.4336087703704834
2300,-2.917423725128174,-1.8337764739990234,-1.9100879430770874,-3.4815216064453125
2400,-2.8899829387664795,-1.814225196838379,-1.9145840406417847,-3.4574644565582275
2500,-2.879955530166626,-1.8063868284225464,-1.9068833589553833,-3.484950542449951
2600,-2.9283344745635986,-1.8604207038879395,-1.9232616424560547,-3.503113269805908
2700,-2.909348726272583,-1.8457175493240356,-1.9382213354110718,-3.515615940093994
2800,-2.8930394649505615,-1.8069374561309814,-1.8903199434280396,-3.4737496376037598
2900,-2.910655975341797,-1.8660475015640259,-1.9019267559051514,-3.51534104347229
3000,-2.9061946868896484,-1.835282564163208,-1.8710697889328003,-3.4657654762268066
3100,-2.870896816253662,-1.788756012916565,-1.8562798500061035,-3.447067975997925
3200,-2.9249966144561768,-1.8438613414764404,-1.8746646642684937,-3.5015296936035156
3300,-2.941092014312744,-1.8509994745254517,-1.8591326475143433,-3.4485206604003906
3400,-2.918621063232422,-1.8457342386245728,-1.8583307266235352,-3.4488604068756104
3500,-2.931201219558716,-1.8900597095489502,-1.890034794807434,-3.4639294147491455
3600,-2.8749122619628906,-1.836452841758728,-1.893495798110962,-3.4495303630828857
3700,-2.8690884113311768,-1.8125845193862915,-1.8817901611328125,-3.4751040935516357
3800,-2.8660707473754883,-1.8051204681396484,-1.8639881610870361,-3.4497289657592773
3900,-2.9081549644470215,-1.8431143760681152,-1.86785888671875,-3.4437830448150635
4000,-2.9231064319610596,-1.8322529792785645,-1.8974827527999878,-3.492417573928833
4100,-2.948256254196167,-1.8609297275543213,-1.8993103504180908,-3.4879865646362305
4200,-2.9789953231811523,-1.8575348854064941,-1.944671630859375,-3.5350301265716553
4300,-2.8931775093078613,-1.8117033243179321,-1.9192625284194946,-3.482880115509033
4400,-2.8943369388580322,-1.8238786458969116,-1.9151109457015991,-3.4941916465759277
4500,-2.874467611312866,-1.8095817565917969,-1.8970544338226318,-3.468775749206543
4600,-2.895019769668579,-1.821105718612671,-1.9280236959457397,-3.5005979537963867
4700,-2.9265475273132324,-1.8548423051834106,-1.9139549732208252,-3.5207571983337402
4800,-2.9477624893188477,-1.8468443155288696,-1.9364373683929443,-3.5138869285583496
4900,-2.928168535232544,-1.8407225608825684,-1.8696506023406982,-3.472123146057129
5000,-2.9352385997772217,-1.8407858610153198,-1.890082597732544,-3.496544122695923
5100,-3.0034263134002686,-1.8647477626800537,-1.9452961683273315,-3.5068252086639404
5200,-2.9699172973632812,-1.8152337074279785,-1.902321696281433,-3.485989809036255
5300,-3.0265724658966064,-1.895899772644043,-1.936448097229004,-3.516494035720825
5400,-3.0181283950805664,-1.8634445667266846,-1.9263137578964233,-3.506808042526245
5500,-3.043769598007202,-1.842619776725769,-1.9314802885055542,-3.5051512718200684
5600,-3.0471248626708984,-1.847136378288269,-1.9412623643875122,-3.5512657165527344
5700,-3.0827345848083496,-1.9126172065734863,-1.9782634973526,-3.546020269393921
5800,-3.10184383392334,-1.9430094957351685,-2.0076510906219482,-3.592179536819458
5900,-3.093127727508545,-1.931143045425415,-1.978132724761963,-3.5576601028442383
6000,-3.0540659427642822,-1.9285472631454468,-1.9443299770355225,-3.5303518772125244
6100,-3.063645839691162,-1.9219207763671875,-1.9809991121292114,-3.5715155601501465
6200,-3.021981716156006,-1.9080091714859009,-1.975427269935608,-3.5450007915496826
6300,-3.0681283473968506,-1.9365273714065552,-2.010931968688965,-3.5802457332611084
6400,-3.0795657634735107,-1.925161361694336,-1.9792002439498901,-3.565962553024292
6500,-3.022350549697876,-1.8901290893554688,-1.9363515377044678,-3.4909350872039795
6600,-3.0609123706817627,-1.890699863433838,-1.9190231561660767,-3.5017659664154053
6700,-3.063284397125244,-1.902891755104065,-1.9437450170516968,-3.539921283721924
6800,-3.0887017250061035,-1.9156612157821655,-1.9436726570129395,-3.547687530517578
6900,-3.0592825412750244,-1.9141721725463867,-1.8973551988601685,-3.501495599746704
7000,-3.125622272491455,-1.9404590129852295,-1.9911128282546997,-3.6052823066711426
7100,-3.1149418354034424,-1.9672644138336182,-2.0252325534820557,-3.592270851135254
7200,-3.126168727874756,-1.9767124652862549,-2.011003255844116,-3.5896148681640625
7300,-3.110198974609375,-1.9598294496536255,-1.9971903562545776,-3.5879926681518555
7400,-3.0808589458465576,-1.9906606674194336,-1.9954960346221924,-3.562699317932129
7500,-3.1018924713134766,-2.0025527477264404,-1.992677092552185,-3.5713069438934326
7600,-3.117138147354126,-1.9278134107589722,-1.9554280042648315,-3.515563488006592
7700,-3.124174118041992,-1.9230716228485107,-1.9711376428604126,-3.5718257427215576
7800,-3.1478989124298096,-1.9282433986663818,-1.93025541305542,-3.571791410446167
7900,-3.1376054286956787,-1.9340201616287231,-1.9568933248519897,-3.5769941806793213
8000,-3.1469171047210693,-1.9869424104690552,-1.9905413389205933,-3.581113338470459
8100,-3.1501736640930176,-1.9547570943832397,-1.9873322248458862,-3.5958375930786133
8200,-3.078191041946411,-1.9090466499328613,-1.954371452331543,-3.5428991317749023
8300,-3.08008074760437,-1.9552127122879028,-1.9638540744781494,-3.5320920944213867
8400,-3.0980629920959473,-1.9409208297729492,-1.9507588148117065,-3.5298149585723877
8500,-3.055461883544922,-1.9451227188110352,-1.9603829383850098,-3.542497158050537
8600,-3.077007293701172,-1.9106346368789673,-1.9471921920776367,-3.5443577766418457
8700,-3.1120245456695557,-1.9507343769073486,-2.0010082721710205,-3.5989553928375244
8800,-3.1215717792510986,-1.9665532112121582,-2.0101733207702637,-3.574317455291748
8900,-3.1070058345794678,-1.97748863697052,-2.015829086303711,-3.56754994392395
9000,-3.077662467956543,-1.9273234605789185,-1.9451707601547241,-3.5102322101593018
9100,-3.093238592147827,-1.924010992050171,-1.946539282798767,-3.5336389541625977
9200,-3.096437931060791,-1.9353762865066528,-1.9618501663208008,-3.541273593902588
9300,-3.0999598503112793,-1.9447741508483887,-1.969090461730957,-3.5461106300354004
9400,-3.105379104614258,-1.950924277305603,-1.9722905158996582,-3.550372362136841
9500,-3.1125030517578125,-1.9482002258300781,-1.9801844358444214,-3.5542733669281006
9600,-3.114806652069092,-1.9489666223526,-1.973217487335205,-3.5571842193603516
9700,-3.1124765872955322,-1.94386887550354,-1.9680896997451782,-3.5551822185516357
9800,-3.1126530170440674,-1.9468547105789185,-1.9670767784118652,-3.5552914142608643
9900,-3.112802028656006,-1.9468460083007812,-1.968981385231018,-3.5556771755218506
10000,-3.1103675365448,-1.9480235576629639,-1.969855546951294,-3.5545814037323
