0,0.5
1,0.5054141283035278
2,0.5114119052886963
3,0.5246433019638062
4,0.535647451877594
5,0.53612220287323
6,0.5504434704780579
7,0.5575551986694336
8,0.5686622858047485
9,0.576090395450592
10,0.5922441482543945
11,0.59391850233078
12,0.5999652147293091
13,0.6036847829818726
14,0.5971978902816772
15,0.599459707736969
16,0.6003360152244568
17,0.6030866503715515
18,0.5992435812950134
19,0.6121978163719177
20,0.6066633462905884
21,0.6061862111091614
22,0.6111018061637878
23,0.6158471703529358
24,0.6179751753807068
25,0.619951069355011
26,0.62376868724823
27,0.6226571798324585
28,0.6323328614234924
29,0.6267606616020203
30,0.626944363117218
31,0.6237629652023315
32,0.6185835599899292
33,0.6147575974464417
34,0.6100995540618896
35,0.6145152449607849
36,0.6001173257827759
37,0.5909510850906372
38,0.5988587141036987
39,0.5960270166397095
40,0.5908591747283936
41,0.5929208397865295
42,0.5925027132034302
43,0.5898679494857788
44,0.5875695943832397
45,0.5891172885894775
46,0.601504385471344
47,0.6017885804176331
48,0.5957869291305542
49,0.6023572683334351
50,0.607900083065033
51,0.6107714176177979
52,0.6199826598167419
53,0.6242578625679016
54,0.6255812644958496
55,0.6301020383834839
56,0.6242707967758179
57,0.6285470724105835
58,0.6361928582191467
59,0.6476621627807617
60,0.6487124562263489
61,0.6472869515419006
62,0.6419021487236023
63,0.641987681388855
64,0.6470140218734741
65,0.6568748354911804
66,0.6569627523422241
67,0.6653227806091309
68,0.6562541723251343
69,0.6538702845573425
70,0.6581499576568604
71,0.6645450592041016
72,0.6607701778411865
73,0.6692876219749451
74,0.6623436212539673
75,0.6703507304191589
76,0.6693004965782166
77,0.6772937774658203
78,0.6775731444358826
79,0.6862772107124329
80,0.6877726316452026
81,0.6756955981254578
82,0.6643093824386597
83,0.667147159576416
84,0.6652687191963196
85,0.6785604953765869
86,0.6855775117874146
87,0.6942951083183289
88,0.6831140518188477
89,0.6795443892478943
90,0.6699766516685486
91,0.6739223599433899
92,0.6712456941604614
93,0.6707669496536255
94,0.6733005046844482
95,0.6743015646934509
96,0.675736665725708
97,0.6771956086158752
98,0.6786352396011353
99,0.6782416105270386
100,0.6784064173698425
