0,0.10000000149011612
1,0.4521131217479706
2,0.41967442631721497
3,0.39167383313179016
4,0.36922916769981384
5,0.3458555042743683
6,0.32522013783454895
7,0.3107171654701233
8,0.29769423604011536
9,0.2870127260684967
10,0.2759595811367035
11,0.2673960030078888
12,0.261516809463501
13,0.25803181529045105
14,0.25480571389198303
15,0.25097420811653137
16,0.24870289862155914
17,0.2452927827835083
18,0.2428428828716278
19,0.24103660881519318
20,0.23916657269001007
21,0.23815129697322845
22,0.23766091465950012
23,0.23698686063289642
24,0.23662428557872772
25,0.2361549288034439
26,0.23568940162658691
27,0.23556166887283325
28,0.2351645827293396
29,0.2349139004945755
30,0.2349260300397873
31,0.23475265502929688
32,0.2345563918352127
33,0.23453199863433838
34,0.234405517578125
35,0.2342127114534378
36,0.23409831523895264
37,0.2339799851179123
38,0.2341180443763733
39,0.23395253717899323
40,0.2340141087770462
41,0.2339840680360794
42,0.23372572660446167
43,0.23384058475494385
44,0.23383374512195587
45,0.23387977480888367
46,0.2338300347328186
47,0.23377704620361328
48,0.2336186170578003
49,0.23358376324176788
50,0.23356972634792328
51,0.23371584713459015
52,0.2337397038936615
53,0.2335626482963562
54,0.23347491025924683
55,0.23357835412025452
56,0.23356129229068756
57,0.23346766829490662
58,0.23353616893291473
59,0.23358917236328125
60,0.2335330843925476
61,0.23355922102928162
62,0.2336622029542923
63,0.23376697301864624
64,0.23369358479976654
65,0.23380261659622192
66,0.23343785107135773
67,0.23339201509952545
68,0.23313625156879425
69,0.23330803215503693
70,0.23322604596614838
71,0.2332056164741516
72,0.23319441080093384
73,0.23337222635746002
74,0.23342685401439667
75,0.23347967863082886
76,0.23340822756290436
77,0.23331725597381592
78,0.2331666350364685
79,0.23323488235473633
80,0.2332059144973755
81,0.23319561779499054
82,0.23320218920707703
83,0.23322556912899017
84,0.23313774168491364
85,0.23323382437229156
86,0.23326505720615387
87,0.2332334816455841
88,0.23329712450504303
89,0.23326008021831512
90,0.23312194645404816
91,0.233128622174263
92,0.23321986198425293
93,0.23320865631103516
94,0.23318585753440857
95,0.23316286504268646
96,0.23312407732009888
97,0.23306986689567566
98,0.23305048048496246
99,0.23302684724330902
100,0.23299987614154816
