1,-2.178339719772339,-1.9314440488815308,-1.8503214120864868,-1.6021195650100708
100,-2.4603593349456787,-2.289515972137451,-2.3700673580169678,-2.143893241882324
200,-2.528783082962036,-2.374612808227539,-2.4053640365600586,-2.188981771469116
300,-2.4359989166259766,-2.225332260131836,-2.3075051307678223,-2.1165459156036377
400,-2.478130578994751,-2.294482946395874,-2.3473143577575684,-2.189262866973877
500,-2.520078420639038,-2.2715651988983154,-2.3647565841674805,-2.2463715076446533
600,-2.522416830062866,-2.2893080711364746,-2.3532419204711914,-2.2872514724731445
700,-2.5050852298736572,-2.25677227973938,-2.3168447017669678,-2.252476453781128
800,-2.434929370880127,-2.2312192916870117,-2.2661032676696777,-2.19688081741333
900,-2.4863851070404053,-2.253751754760742,-2.2849338054656982,-2.2528276443481445
1000,-2.556227922439575,-2.3276612758636475,-2.3571085929870605,-2.3338143825531006
1100,-2.534475564956665,-2.256403684616089,-2.3018860816955566,-2.2966275215148926
1200,-2.562791585922241,-2.293321132659912,-2.3339383602142334,-2.3635072708129883
1300,-2.5921571254730225,-2.3233556747436523,-2.353025436401367,-2.376218557357788
1400,-2.518666982650757,-2.2387967109680176,-2.307995319366455,-2.322028636932373
1500,-2.5078649520874023,-2.208160877227783,-2.2716846466064453,-2.2930471897125244
1600,-2.5821239948272705,-2.2894554138183594,-2.3262786865234375,-2.344120502471924
1700,-2.543367385864258,-2.2683589458465576,-2.303264856338501,-2.3579204082489014
1800,-2.5502870082855225,-2.2875924110412598,-2.2899346351623535,-2.3643555641174316
1900,-2.5013082027435303,-2.1948635578155518,-2.246309757232666,-2.3099453449249268
2000,-2.565106153488159,-2.2881364822387695,-2.3548169136047363,-2.40502667427063
2100,-2.5450921058654785,-2.234375476837158,-2.281900644302368,-2.373389959335327
2200,-2.547471523284912,-2.248364210128784,-2.2791225910186768,-2.41532301902771
2300,-2.6107304096221924,-2.273674249649048,-2.324612855911255,-2.4510347843170166
2400,-2.5934524536132812,-2.243109941482544,-2.302647829055786,-2.4533531665802
2500,-2.5905959606170654,-2.239762544631958,-2.31856632232666,-2.440711259841919
2600,-2.6139779090881348,-2.2539353370666504,-2.3205087184906006,-2.4737508296966553
2700,-2.6120214462280273,-2.2925071716308594,-2.3511998653411865,-2.4529078006744385
2800,-2.573761463165283,-2.2485973834991455,-2.3151140213012695,-2.4374499320983887
2900,-2.6019413471221924,-2.2878217697143555,-2.318697929382324,-2.5101125240325928
3000,-2.5461270809173584,-2.185971975326538,-2.2395741939544678,-2.4013028144836426
3100,-2.5232043266296387,-2.1971218585968018,-2.266653537750244,-2.3851094245910645
3200,-2.5446395874023438,-2.220654249191284,-2.249495267868042,-2.430683135986328
3300,-2.6008827686309814,-2.2880685329437256,-2.3151743412017822,-2.4604363441467285
3400,-2.6002743244171143,-2.2609612941741943,-2.3240320682525635,-2.488828420639038
3500,-2.559312582015991,-2.243553400039673,-2.291795492172241,-2.442364454269409
3600,-2.555535316467285,-2.22116756439209,-2.3019886016845703,-2.4165048599243164
3700,-2.5709776878356934,-2.239243745803833,-2.26690673828125,-2.427032470703125
3800,-2.6002800464630127,-2.2739505767822266,-2.2806718349456787,-2.4879016876220703
3900,-2.56024169921875,-2.2088215351104736,-2.233057737350464,-2.4321253299713135
4000,-2.6175038814544678,-2.2374072074890137,-2.3037807941436768,-2.4830777645111084
4100,-2.657986640930176,-2.3043324947357178,-2.3476357460021973,-2.4996049404144287
4200,-2.539793014526367,-2.219865322113037,-2.258216142654419,-2.4079551696777344
4300,-2.552173614501953,-2.2707979679107666,-2.301100492477417,-2.3988022804260254
4400,-2.560133218765259,-2.2234442234039307,-2.2831387519836426,-2.43300199508667
4500,-2.5695908069610596,-2.220776081085205,-2.26347017288208,-2.4229612350463867
4600,-2.6118931770324707,-2.2564945220947266,-2.3169729709625244,-2.451516628265381
4700,-2.5944857597351074,-2.262701988220215,-2.3167150020599365,-2.458557605743408
4800,-2.5576424598693848,-2.220893144607544,-2.2598321437835693,-2.4417548179626465
4900,-2.5589001178741455,-2.246711492538452,-2.285541296005249,-2.4095170497894287
5000,-2.575190544128418,-2.2501869201660156,-2.2780020236968994,-2.409832239151001
5100,-2.591874599456787,-2.206902027130127,-2.2687034606933594,-2.406756639480591
5200,-2.550070285797119,-2.2271134853363037,-2.295487642288208,-2.3799519538879395
5300,-2.530632257461548,-2.2037439346313477,-2.241302967071533,-2.3981728553771973
5400,-2.550471544265747,-2.2261481285095215,-2.278528928756714,-2.406867504119873
5500,-2.592268228530884,-2.2761025428771973,-2.3141653537750244,-2.4445016384124756
5600,-2.5292563438415527,-2.191741943359375,-2.2411060333251953,-2.34914493560791
5700,-2.5615532398223877,-2.2193753719329834,-2.2859511375427246,-2.3903870582580566
5800,-2.5671470165252686,-2.2722108364105225,-2.286125898361206,-2.4540622234344482
5900,-2.6103010177612305,-2.261101484298706,-2.3067188262939453,-2.5004348754882812
6000,-2.5638587474823,-2.2171740531921387,-2.274447441101074,-2.4335782527923584
6100,-2.5936830043792725,-2.239882469177246,-2.286144495010376,-2.457773447036743
6200,-2.5458288192749023,-2.2563467025756836,-2.2837448120117188,-2.4301159381866455
6300,-2.5575568675994873,-2.2362654209136963,-2.286198139190674,-2.420393943786621
6400,-2.5487217903137207,-2.201450824737549,-2.2512240409851074,-2.3995909690856934
6500,-2.5296051502227783,-2.1960060596466064,-2.2512693405151367,-2.355213165283203
6600,-2.563286781311035,-2.244720697402954,-2.2893316745758057,-2.411863088607788
6700,-2.584669351577759,-2.271866798400879,-2.315385103225708,-2.414501428604126
6800,-2.590367078781128,-2.279006242752075,-2.2970399856567383,-2.445793867111206
6900,-2.551492691040039,-2.222299098968506,-2.2603652477264404,-2.4161946773529053
7000,-2.545210361480713,-2.2101519107818604,-2.274393081665039,-2.4204907417297363
7100,-2.5948424339294434,-2.3104710578918457,-2.3400814533233643,-2.4897027015686035
7200,-2.550394296646118,-2.2254135608673096,-2.2951133251190186,-2.4237711429595947
7300,-2.5860226154327393,-2.2484705448150635,-2.3010451793670654,-2.4722447395324707
7400,-2.6146786212921143,-2.3070549964904785,-2.333139419555664,-2.4844815731048584
7500,-2.587583541870117,-2.2557246685028076,-2.28031849861145,-2.472078800201416
7600,-2.6035780906677246,-2.245530605316162,-2.2839653491973877,-2.4699130058288574
7700,-2.5634191036224365,-2.218716859817505,-2.2838218212127686,-2.4760701656341553
7800,-2.5968425273895264,-2.2458889484405518,-2.2947311401367188,-2.492784261703491
7900,-2.5462634563446045,-2.1776559352874756,-2.2776522636413574,-2.4380085468292236
8000,-2.554874897003174,-2.2299716472625732,-2.268009901046753,-2.4510209560394287
8100,-2.542330741882324,-2.2317745685577393,-2.2506179809570312,-2.458070993423462
8200,-2.5869970321655273,-2.256481170654297,-2.293910264968872,-2.483727216720581
8300,-2.5724151134490967,-2.227085828781128,-2.2770867347717285,-2.478397846221924
8400,-2.557159900665283,-2.224766492843628,-2.2572920322418213,-2.468618154525757
8500,-2.617516279220581,-2.275951862335205,-2.333747625350952,-2.5383028984069824
8600,-2.6210081577301025,-2.266364336013794,-2.337754487991333,-2.533836603164673
8700,-2.626546859741211,-2.2577016353607178,-2.312549114227295,-2.5190324783325195
8800,-2.6056230068206787,-2.248575210571289,-2.2905876636505127,-2.4974024295806885
8900,-2.5675556659698486,-2.2173681259155273,-2.2612669467926025,-2.4788568019866943
9000,-2.614882469177246,-2.270156145095825,-2.3159945011138916,-2.522709846496582
9100,-2.6093733310699463,-2.27439284324646,-2.2955102920532227,-2.5210154056549072
9200,-2.6099345684051514,-2.2719624042510986,-2.296963930130005,-2.5225040912628174
9300,-2.607767105102539,-2.2691304683685303,-2.2946624755859375,-2.520803213119507
9400,-2.6088528633117676,-2.273923873901367,-2.296447515487671,-2.521923065185547
9500,-2.608285903930664,-2.2684664726257324,-2.29740834236145,-2.5225775241851807
9600,-2.6101911067962646,-2.2679033279418945,-2.298288106918335,-2.523590564727783
9700,-2.611529588699341,-2.265033483505249,-2.2971763610839844,-2.523977518081665
9800,-2.60827374458313,-2.262356758117676,-2.2941441535949707,-2.518012523651123
9900,-2.609100818634033,-2.261122465133667,-2.2936465740203857,-2.518176794052124
10000,-2.610217809677124,-2.260760545730591,-2.2940385341644287,-2.5193533897399902
