1,-0.002811552258208394,0.0,0.00027155273710377514
100,-0.014079680666327477,-0.021080655977129936,-0.0007105362601578236
200,-0.023581523448228836,-0.021641140803694725,-0.006711093708872795
300,-0.025969238951802254,-0.020185250788927078,0.009956917725503445
400,-0.018996745347976685,-0.014165920205414295,0.01495402492582798
500,-0.004694235976785421,-0.020297974348068237,-5.450897151604295e-05
600,0.009278647601604462,-0.006384433247148991,0.00635793199762702
700,0.0027097188867628574,-0.01690499670803547,0.010245307348668575
800,0.014068796299397945,0.0009064765181392431,0.018927978351712227
900,0.011420728638768196,0.019322678446769714,0.009824343025684357
1000,0.016358407214283943,0.0002544972812756896,0.008793413639068604
1100,0.013126341626048088,-9.962788317352533e-05,-0.0031923851929605007
1200,0.02371980994939804,0.013828095048666,-0.003987462725490332
1300,0.020481383427977562,0.021559566259384155,0.004717612639069557
1400,0.03294645994901657,0.011447148397564888,0.0027521175798028708
1500,0.023902645334601402,0.02353241853415966,0.008605601266026497
1600,0.03435691446065903,0.007538824807852507,0.006428224965929985
1700,0.022200094535946846,0.019542310386896133,0.005498961079865694
1800,0.02800866775214672,0.007444493006914854,0.009768481366336346
1900,0.03736460581421852,0.0037423791363835335,0.0029232571832835674
2000,0.024863313883543015,0.023004505783319473,-0.0005760627100244164
2100,0.024263568222522736,0.014712868258357048,-0.004945604596287012
2200,0.020236089825630188,0.007457292173057795,-0.004486351273953915
2300,0.017601829022169113,0.0029805402737110853,0.005565508268773556
2400,0.009071685373783112,-0.0013983818935230374,0.0023805901873856783
2500,-0.006782069802284241,-0.014656288549304008,0.006927854847162962
2600,-0.008380736224353313,-0.008768611587584019,0.013694096356630325
2700,-0.018764382228255272,-0.0033858888782560825,0.016163339838385582
2800,-0.02217995375394821,-0.0029284991323947906,0.004391055554151535
2900,-0.02980252541601658,-0.013988359831273556,0.004554251674562693
3000,-0.024608908221125603,-0.01326149981468916,0.0068779513239860535
3100,-0.03574858978390694,-0.010461188852787018,0.008460833691060543
3200,-0.0249304361641407,-0.011273758485913277,0.007157076150178909
3300,-0.0354854054749012,-0.011915990151464939,0.0025421944446861744
3400,-0.031022721901535988,-0.014529592357575893,0.006347778253257275
3500,-0.030486516654491425,-0.019473858177661896,0.00041171148768626153
3600,-0.02725991979241371,-0.016576923429965973,-0.0017117495881393552
3700,-0.036056037992239,-0.015385258011519909,-0.012441032566130161
3800,-0.025140495970845222,-0.005117302294820547,-0.0012479289434850216
3900,-0.030422721058130264,-0.019515085965394974,0.004809946287423372
4000,-0.023105382919311523,-0.009773598983883858,0.004812691360712051
4100,-0.02688896469771862,-0.0012737477663904428,0.00148521619848907
4200,-0.02953239157795906,-0.006297553423792124,0.006767417304217815
4300,-0.030357150360941887,-0.005256065167486668,0.0030560619197785854
4400,-0.02035732939839363,-0.005863739177584648,0.011161312460899353
4500,-0.01801747828722,-0.009371998719871044,-0.0058483704924583435
4600,-0.026550104841589928,-0.01421867311000824,0.00848548673093319
4700,-0.03006744384765625,-0.017717208713293076,0.002048351103439927
4800,-0.030518556013703346,-0.013126958161592484,-0.0024863912258297205
4900,-0.02394794672727585,-0.01333663146942854,-0.017899440601468086
5000,0.0103386789560318,-0.017256885766983032,-0.014970903284847736
5100,0.003885772544890642,0.004027873743325472,-0.014064096845686436
5200,-0.0010895442683249712,0.012120096012949944,-0.009497590363025665
5300,-0.00959651917219162,-0.0006257421337068081,-0.014981322921812534
5400,-0.013397196307778358,0.0030560242012143135,-0.008626301772892475
5500,-0.007668375037610531,0.005085875745862722,-0.01625980995595455
5600,-0.005094633903354406,0.008576039224863052,-0.014407695271074772
5700,0.010405153036117554,-0.009887365624308586,-0.014784402213990688
5800,0.03331783413887024,0.007162351626902819,-0.004534380976110697
5900,0.013853425160050392,0.006947914604097605,0.009467286057770252
6000,0.007892368361353874,0.017815567553043365,0.015326526015996933
6100,0.007280698046088219,-0.006945384666323662,0.002599789761006832
6200,-0.006185663864016533,-0.007335511967539787,0.008888296782970428
6300,-0.00858687050640583,0.0016323227901011705,0.021864237263798714
6400,-0.016746772453188896,-0.011056013405323029,0.020656419917941093
6500,-0.020772278308868408,-0.004437441937625408,0.00687857111915946
6600,-0.025707611814141273,-0.00556977279484272,0.0033868979662656784
6700,-0.025172065943479538,0.00398766016587615,0.006288318894803524
6800,-0.027389690279960632,-0.00782578531652689,0.00323512707836926
6900,-0.028706159442663193,-0.008801151998341084,-0.010657327249646187
7000,-0.026837337762117386,-0.015522880479693413,-0.007186288945376873
7100,-0.023386895656585693,-0.022798074409365654,-0.007289092522114515
7200,-0.015243160538375378,-0.025277085602283478,-0.005111498758196831
7300,-0.0006010313518345356,-0.021130215376615524,-0.009242646396160126
7400,-0.007788991555571556,-0.011456575244665146,-0.01768752932548523
7500,0.0011555296368896961,-0.013768342323601246,-0.010790975764393806
7600,-0.003849233966320753,-0.007066475227475166,-0.016941025853157043
7700,-0.008644678629934788,-0.01891249418258667,-0.01962403766810894
7800,-0.021430673077702522,-0.011814138852059841,-0.010721059516072273
7900,-0.028016753494739532,-0.02265549823641777,0.0008550459751859307
8000,-0.03033255971968174,-0.016226574778556824,-0.007481901906430721
8100,-0.028811614960432053,-0.023523850366473198,-0.004778326489031315
8200,-0.02441338449716568,-0.015720432624220848,-0.004048331640660763
8300,-0.018517984077334404,-0.013844409957528114,0.00488047581166029
8400,-0.030648840591311455,-0.004257854074239731,0.004093129653483629
8500,-0.023083413019776344,-0.012820851057767868,0.002290472388267517
8600,-0.026127072051167488,-0.018057653680443764,0.013197127729654312
8700,-0.029565762728452682,-0.00791466049849987,0.004671345464885235
8800,-0.029829712584614754,-0.016326040029525757,0.006078397389501333
8900,-0.020770248025655746,-0.014715291559696198,0.014877690002322197
9000,-0.02829318679869175,-0.00409319531172514,-0.0006730635650455952
9100,-0.026984257623553276,-0.010716992430388927,-0.007098759058862925
9200,-0.033594761043787,-0.010972958989441395,-0.0047168736346066
9300,-0.028723934665322304,-0.009170521050691605,-0.004657309036701918
9400,-0.029812708497047424,-0.011846556328237057,-0.003741030814126134
9500,-0.027846138924360275,-0.015293135307729244,-0.0016119920182973146
9600,-0.025001399219036102,-0.015822462737560272,-0.0020523162093013525
9700,-0.025008058175444603,-0.01662725768983364,-0.0012566654477268457
9800,-0.020353464409708977,-0.01871516928076744,-0.004065819084644318
9900,-0.019808368757367134,-0.01608390174806118,-0.007641550153493881
10000,-0.019447853788733482,-0.013355948030948639,-0.007412908598780632
