1,3.9927268028259277
100,4.087497711181641
200,3.986112356185913
300,3.913770914077759
400,3.712148427963257
500,3.5515992641448975
600,3.2682735919952393
700,3.284996509552002
800,3.2670462131500244
900,3.041696548461914
1000,3.092284679412842
1100,3.097203016281128
1200,2.8613367080688477
1300,2.7915236949920654
1400,2.839221715927124
1500,2.7418553829193115
1600,2.665503978729248
1700,2.4169228076934814
1800,2.5071074962615967
1900,2.6403863430023193
2000,2.4814796447753906
2100,2.4243712425231934
2200,2.389533519744873
2300,2.357940912246704
2400,2.397885799407959
2500,2.4308812618255615
2600,2.3724002838134766
2700,2.4309732913970947
2800,2.3096747398376465
2900,2.3820555210113525
3000,2.5222461223602295
3100,2.6136550903320312
3200,2.401601552963257
3300,2.4501805305480957
3400,2.5007522106170654
3500,2.554392099380493
3600,2.4969022274017334
3700,2.507100820541382
3800,2.403541088104248
3900,2.423520565032959
4000,2.360609531402588
4100,2.2943480014801025
4200,2.4639570713043213
4300,2.5794262886047363
4400,2.4590728282928467
4500,2.4851324558258057
4600,2.554427146911621
4700,2.4522063732147217
4800,2.4044501781463623
4900,2.50972318649292
5000,2.5659003257751465
5100,2.4294040203094482
5200,2.5619232654571533
5300,2.4519336223602295
5400,2.6145265102386475
5500,2.4971063137054443
5600,2.5514044761657715
5700,2.552035093307495
5800,2.4008266925811768
5900,2.2879345417022705
6000,2.3512988090515137
6100,2.361818313598633
6200,2.4267032146453857
6300,2.4890613555908203
6400,2.5902600288391113
6500,2.6230409145355225
6600,2.5883615016937256
6700,2.7722151279449463
6800,2.763791084289551
6900,2.5909996032714844
7000,2.7645132541656494
7100,2.652463674545288
7200,2.673736095428467
7300,2.753465175628662
7400,2.7862350940704346
7500,2.7635676860809326
7600,2.6868999004364014
7700,2.784026861190796
7800,2.8242177963256836
7900,2.790328025817871
8000,2.680978536605835
8100,2.6578285694122314
8200,2.526268720626831
8300,2.500826835632324
8400,2.547372341156006
8500,2.4092817306518555
8600,2.4788944721221924
8700,2.4225008487701416
8800,2.4497923851013184
8900,2.37420916557312
9000,2.4689908027648926
9100,2.3852851390838623
9200,2.4226934909820557
9300,2.400780200958252
9400,2.408909320831299
9500,2.407008171081543
9600,2.4090373516082764
9700,2.4020016193389893
9800,2.4082748889923096
9900,2.4053473472595215
10000,2.409909248352051
