1,-0.0008923430577851832,-0.005810389295220375,-0.002196288900449872
100,0.06790242344141006,-0.1668931096792221,-0.043311990797519684
200,0.08348923176527023,-0.19491006433963776,-0.04471993073821068
300,0.07957086712121964,-0.20155882835388184,-0.045541394501924515
400,0.07251432538032532,-0.2134714126586914,-0.04423822462558746
500,0.0755118727684021,-0.2053726464509964,-0.04334646463394165
600,0.0689549669623375,-0.20279920101165771,-0.04102569818496704
700,0.06847985088825226,-0.20301730930805206,-0.03969109058380127
800,0.07031682878732681,-0.19770090281963348,-0.036406394094228745
900,0.07046182453632355,-0.2004377692937851,-0.03908132016658783
1000,0.0707380622625351,-0.19357642531394958,-0.03943808749318123
1100,0.07254496961832047,-0.19529633224010468,-0.041925057768821716
1200,0.07115492969751358,-0.1970742791891098,-0.040628381073474884
1300,0.07323790341615677,-0.20397169888019562,-0.03968914970755577
1400,0.06210421770811081,-0.19832871854305267,-0.038286395370960236
1500,0.06662115454673767,-0.18652845919132233,-0.03645850345492363
1600,0.07669646292924881,-0.18958348035812378,-0.03713176026940346
1700,0.08107315003871918,-0.18644936382770538,-0.0351739227771759
1800,0.0717896893620491,-0.1821613758802414,-0.033571068197488785
1900,0.08252456039190292,-0.179164856672287,-0.037324994802474976
2000,0.07981746643781662,-0.17798085510730743,-0.03384855017066002
2100,0.07893706113100052,-0.16737909615039825,-0.03401318937540054
2200,0.08379074931144714,-0.16442535817623138,-0.033735472708940506
2300,0.07596626877784729,-0.17378123104572296,-0.032437458634376526
2400,0.0792345255613327,-0.16825035214424133,-0.0331127755343914
2500,0.0788613110780716,-0.16981829702854156,-0.03521318361163139
2600,0.07226140052080154,-0.16454412043094635,-0.032373759895563126
2700,0.07642221450805664,-0.15850615501403809,-0.03246650844812393
2800,0.07763661444187164,-0.1634281575679779,-0.028635729104280472
2900,0.07253564894199371,-0.1545075923204422,-0.029246486723423004
3000,0.0776960551738739,-0.16427601873874664,-0.02977948635816574
3100,0.07607201486825943,-0.16337816417217255,-0.03150719776749611
3200,0.08026376366615295,-0.1560727208852768,-0.03102509304881096
3300,0.07980364561080933,-0.15984594821929932,-0.028575103729963303
3400,0.0763891190290451,-0.16262073814868927,-0.03263087198138237
3500,0.07463037222623825,-0.16402241587638855,-0.030824262648820877
3600,0.06801126897335052,-0.15841776132583618,-0.030616767704486847
3700,0.07124585658311844,-0.16522909700870514,-0.029449138790369034
3800,0.0724743977189064,-0.15400421619415283,-0.02980620600283146
3900,0.06815129518508911,-0.15648144483566284,-0.027175966650247574
4000,0.07327521592378616,-0.1580491065979004,-0.0306327473372221
4100,0.07616373896598816,-0.1482943296432495,-0.028561394661664963
4200,0.07679935544729233,-0.1526700109243393,-0.0317411944270134
4300,0.0778619572520256,-0.15074221789836884,-0.028573211282491684
4400,0.08242063224315643,-0.14981573820114136,-0.025969773530960083
4500,0.0812264159321785,-0.1414332389831543,-0.02862788736820221
4600,0.07562465220689774,-0.14588816463947296,-0.02782314270734787
4700,0.07912219315767288,-0.14887242019176483,-0.02889089845120907
4800,0.07640045136213303,-0.1532992124557495,-0.026234809309244156
4900,0.07470909506082535,-0.15895603597164154,-0.027079174295067787
5000,0.07369229942560196,-0.15285371243953705,-0.02573367767035961
5100,0.07513899356126785,-0.1428619772195816,-0.028112268075346947
5200,0.07725999504327774,-0.14494392275810242,-0.02859860472381115
5300,0.07773011922836304,-0.14140841364860535,-0.02746613509953022
5400,0.08647539466619492,-0.14249230921268463,-0.027050158008933067
5500,0.09147520363330841,-0.14454913139343262,-0.02958347462117672
5600,0.08398689329624176,-0.1419104039669037,-0.027537373825907707
5700,0.08939142525196075,-0.1374720335006714,-0.02560427412390709
5800,0.09184309095144272,-0.1377871334552765,-0.02541309967637062
5900,0.08742611110210419,-0.14080294966697693,-0.02963820844888687
6000,0.09099792689085007,-0.14520332217216492,-0.02655079774558544
6100,0.08497405797243118,-0.1461695283651352,-0.023670732975006104
6200,0.08489835262298584,-0.13911570608615875,-0.02302977442741394
6300,0.08629689365625381,-0.13357587158679962,-0.02503780648112297
6400,0.08554069697856903,-0.13511964678764343,-0.025910407304763794
6500,0.08442294597625732,-0.12989768385887146,-0.024279793724417686
6600,0.09497728198766708,-0.13643838465213776,-0.028296392410993576
6700,0.09955884516239166,-0.14540061354637146,-0.026531986892223358
6800,0.09846054762601852,-0.1487586498260498,-0.026039617136120796
6900,0.09496023505926132,-0.14336980879306793,-0.024540534242987633
7000,0.09814555197954178,-0.1382121741771698,-0.02492145076394081
7100,0.09680935740470886,-0.1377105563879013,-0.027008958160877228
7200,0.09125026315450668,-0.13739538192749023,-0.02572508528828621
7300,0.09505018591880798,-0.13266310095787048,-0.025722380727529526
7400,0.08962855488061905,-0.13291798532009125,-0.023882100358605385
7500,0.09081598371267319,-0.13403895497322083,-0.02708970196545124
7600,0.09689465910196304,-0.12785209715366364,-0.02696147747337818
7700,0.0940096452832222,-0.13059605658054352,-0.025445381179451942
7800,0.09293713420629501,-0.13511350750923157,-0.026094811037182808
7900,0.09059922397136688,-0.1254109889268875,-0.02410685457289219
8000,0.09833292663097382,-0.12058021128177643,-0.026875687763094902
8100,0.09435058385133743,-0.13021805882453918,-0.023613985627889633
8200,0.08869577944278717,-0.11958593875169754,-0.024125486612319946
8300,0.08987925201654434,-0.1194944828748703,-0.02297835983335972
8400,0.08317103981971741,-0.12806062400341034,-0.022947244346141815
8500,0.09498681128025055,-0.1249036118388176,-0.02497074566781521
8600,0.10081939399242401,-0.1204153448343277,-0.02447897009551525
8700,0.0933883786201477,-0.1291140764951706,-0.026709312573075294
8800,0.08566272258758545,-0.12503227591514587,-0.022361554205417633
8900,0.08716991543769836,-0.12411037087440491,-0.023296352475881577
9000,0.09492964297533035,-0.12039761245250702,-0.02240152284502983
9100,0.09299588203430176,-0.12185515463352203,-0.023298732936382294
9200,0.0899578109383583,-0.12290315330028534,-0.023613233119249344
9300,0.08904127776622772,-0.12562309205532074,-0.023526251316070557
9400,0.0886075422167778,-0.1258848011493683,-0.02400384657084942
9500,0.08807293325662613,-0.12465410679578781,-0.023351183161139488
9600,0.08636445552110672,-0.1256595402956009,-0.02360994555056095
9700,0.08640202134847641,-0.12716728448867798,-0.02419121377170086
9800,0.0856841430068016,-0.1277126967906952,-0.024137703701853752
9900,0.0847228541970253,-0.12900808453559875,-0.02413898892700672
10000,0.08458179235458374,-0.13103505969047546,-0.02426009438931942
