1,4.709169387817383
100,1.4348390102386475
200,1.3694311380386353
300,1.3116672039031982
400,1.2543295621871948
500,1.2749818563461304
600,1.2278714179992676
700,1.2462923526763916
800,1.2299516201019287
900,1.197460651397705
1000,1.219037652015686
1100,1.223777174949646
1200,1.2199358940124512
1300,1.1749662160873413
1400,1.195117473602295
1500,1.1877508163452148
1600,1.1816550493240356
1700,1.147607684135437
1800,1.1889712810516357
1900,1.181986689567566
2000,1.1867458820343018
2100,1.1726906299591064
2200,1.1318591833114624
2300,1.1398417949676514
2400,1.160378336906433
2500,1.1490073204040527
2600,1.1350748538970947
2700,1.1435118913650513
2800,1.1414036750793457
2900,1.1123781204223633
3000,1.1278475522994995
3100,1.1304755210876465
3200,1.1484724283218384
3300,1.1195533275604248
3400,1.1348246335983276
3500,1.1319462060928345
3600,1.1327420473098755
3700,1.0849854946136475
3800,1.1380610466003418
3900,1.0925980806350708
4000,1.1171159744262695
4100,1.116150975227356
4200,1.1610437631607056
4300,1.1162432432174683
4400,1.0820932388305664
4500,1.0969303846359253
4600,1.101635217666626
4700,1.1048611402511597
4800,1.1030278205871582
4900,1.0908799171447754
5000,1.1085869073867798
5100,1.072418212890625
5200,1.0663710832595825
5300,1.1133970022201538
5400,1.0722743272781372
5500,1.106523871421814
5600,1.0782265663146973
5700,1.077907919883728
5800,1.081210970878601
5900,1.12711763381958
6000,1.0926110744476318
6100,1.1178967952728271
6200,1.1033110618591309
6300,1.0981982946395874
6400,1.1150720119476318
6500,1.0647035837173462
6600,1.0922720432281494
6700,1.1082757711410522
6800,1.1565582752227783
6900,1.071007490158081
7000,1.1050328016281128
7100,1.0770574808120728
7200,1.071794867515564
7300,1.1115614175796509
7400,1.117154836654663
7500,1.0993605852127075
7600,1.0734174251556396
7700,1.1298305988311768
7800,1.080156683921814
7900,1.116247296333313
8000,1.079458475112915
8100,1.1223256587982178
8200,1.0801981687545776
8300,1.122450590133667
8400,1.063896894454956
8500,1.0700503587722778
8600,1.0855149030685425
8700,1.1076427698135376
8800,1.0880305767059326
8900,1.080797553062439
9000,1.0918095111846924
9100,1.08570396900177
9200,1.0876942873001099
9300,1.0825207233428955
9400,1.0907872915267944
9500,1.0851796865463257
9600,1.0814192295074463
9700,1.0759564638137817
9800,1.0800524950027466
9900,1.0814415216445923
10000,1.0842976570129395
