1,0.4237099885940552,0.41528916358947754,0.4114098846912384,0.4411221444606781
100,0.25378838181495667,0.22654283046722412,0.22035855054855347,0.20126095414161682
200,0.25320500135421753,0.22601881623268127,0.2206139862537384,0.20066016912460327
300,0.25325924158096313,0.22566436231136322,0.21991224586963654,0.20042726397514343
400,0.2536157965660095,0.22538697719573975,0.2202802151441574,0.2006339430809021
500,0.2534281313419342,0.2261342704296112,0.22032126784324646,0.20035772025585175
600,0.2530795633792877,0.22547055780887604,0.22066079080104828,0.2005218118429184
700,0.25416871905326843,0.2253783494234085,0.2199413776397705,0.20084458589553833
800,0.253447949886322,0.2256230264902115,0.22014610469341278,0.20024561882019043
900,0.253948450088501,0.2255209982395172,0.21953848004341125,0.2005281150341034
1000,0.25362011790275574,0.2259369045495987,0.21998146176338196,0.20061643421649933
1100,0.2534315586090088,0.22578656673431396,0.2201068103313446,0.20029610395431519
1200,0.25392380356788635,0.22532804310321808,0.22036990523338318,0.200778067111969
1300,0.2533053159713745,0.22543317079544067,0.22040921449661255,0.20090140402317047
1400,0.25368666648864746,0.2256043702363968,0.22036947309970856,0.20089338719844818
1500,0.25391852855682373,0.22623448073863983,0.21975745260715485,0.2000930905342102
1600,0.25365468859672546,0.22523018717765808,0.21956273913383484,0.2007014900445938
1700,0.2533859610557556,0.22549748420715332,0.21953782439231873,0.201460599899292
1800,0.25392723083496094,0.22563761472702026,0.21996603906154633,0.2006492018699646
1900,0.2536921203136444,0.22584229707717896,0.2204732894897461,0.2004103809595108
2000,0.2534371018409729,0.22646740078926086,0.22022747993469238,0.20062704384326935
2100,0.2533028721809387,0.22579477727413177,0.22003673017024994,0.2010696977376938
2200,0.2538567781448364,0.22525504231452942,0.22006447613239288,0.20077456533908844
2300,0.2531430721282959,0.22617985308170319,0.22015713155269623,0.20052747428417206
2400,0.2536369860172272,0.2254021167755127,0.2200600504875183,0.20050501823425293
2500,0.2530817687511444,0.22622697055339813,0.22023417055606842,0.2006397843360901
2600,0.25414472818374634,0.22564555704593658,0.22042827308177948,0.20040908455848694
2700,0.2530657649040222,0.22617630660533905,0.21954339742660522,0.20061653852462769
2800,0.25379514694213867,0.2252637892961502,0.22006738185882568,0.20045214891433716
2900,0.25385478138923645,0.22538290917873383,0.21999530494213104,0.2008506804704666
3000,0.25422635674476624,0.22546254098415375,0.2200261801481247,0.19981278479099274
3100,0.25354182720184326,0.22583164274692535,0.21989819407463074,0.20060527324676514
3200,0.2534027695655823,0.22580888867378235,0.2201104760169983,0.20060911774635315
3300,0.2533192038536072,0.22605513036251068,0.21969576179981232,0.20066416263580322
3400,0.2538210153579712,0.22599130868911743,0.22058506309986115,0.2006508857011795
3500,0.2538902163505554,0.22585752606391907,0.22037819027900696,0.2002839744091034
3600,0.25345614552497864,0.22588253021240234,0.22119376063346863,0.20061619579792023
3700,0.2533165514469147,0.22572477161884308,0.22074228525161743,0.20040453970432281
3800,0.2537561357021332,0.22566960752010345,0.2207949310541153,0.200116828083992
3900,0.2541492283344269,0.22616149485111237,0.21982330083847046,0.20067480206489563
4000,0.25351065397262573,0.22562626004219055,0.2206132709980011,0.20089207589626312
4100,0.25380125641822815,0.22582195699214935,0.2199985831975937,0.19997482001781464
4200,0.25317248702049255,0.22580818831920624,0.2206060290336609,0.2001999020576477
4300,0.25399360060691833,0.22576788067817688,0.22011516988277435,0.20030149817466736
4400,0.25379374623298645,0.22572997212409973,0.22028227150440216,0.20030508935451508
4500,0.25411662459373474,0.22556978464126587,0.22071541845798492,0.20034703612327576
4600,0.2535116374492645,0.22582502663135529,0.22061896324157715,0.200755774974823
4700,0.2530212104320526,0.22593756020069122,0.2207704335451126,0.19998273253440857
4800,0.25312966108322144,0.2259744554758072,0.2204914093017578,0.20003637671470642
4900,0.2540627121925354,0.22604121267795563,0.2196388989686966,0.2008492797613144
5000,0.25359806418418884,0.2257261574268341,0.22048494219779968,0.20068463683128357
5100,0.2533126175403595,0.22553275525569916,0.22022609412670135,0.20076778531074524
5200,0.25391271710395813,0.2256276160478592,0.220450758934021,0.20025447010993958
5300,0.25306764245033264,0.226207435131073,0.22045426070690155,0.20012566447257996
5400,0.2535873353481293,0.2258988320827484,0.22047914564609528,0.20028048753738403
5500,0.2534211277961731,0.22590717673301697,0.22046343982219696,0.20080913603305817
5600,0.25394582748413086,0.22532299160957336,0.22058932483196259,0.2000231146812439
5700,0.2533148527145386,0.22622597217559814,0.22034932672977448,0.20032069087028503
5800,0.25338348746299744,0.2260122150182724,0.22064445912837982,0.2006615847349167
5900,0.25386980175971985,0.22572053968906403,0.22006753087043762,0.20074312388896942
6000,0.25380221009254456,0.2258276641368866,0.22048625349998474,0.20020250976085663
6100,0.25392794609069824,0.22585418820381165,0.22017456591129303,0.19995874166488647
6200,0.2538498640060425,0.22583487629890442,0.22025594115257263,0.2001984417438507
6300,0.25417467951774597,0.22543951869010925,0.22014349699020386,0.200388565659523
6400,0.2534808814525604,0.2259264886379242,0.22005131840705872,0.2010364532470703
6500,0.2539489269256592,0.22593453526496887,0.22033849358558655,0.19971229135990143
6600,0.25417810678482056,0.22541402280330658,0.2204177975654602,0.20067499577999115
6700,0.25381073355674744,0.22602851688861847,0.22062505781650543,0.2003248929977417
6800,0.25351402163505554,0.22553673386573792,0.2200825959444046,0.20083989202976227
6900,0.25393688678741455,0.22547820210456848,0.22087997198104858,0.20007571578025818
7000,0.2539500296115875,0.22656570374965668,0.22082406282424927,0.20072157680988312
7100,0.25376012921333313,0.22589625418186188,0.22036902606487274,0.2003227025270462
7200,0.25405770540237427,0.2252848744392395,0.22047843039035797,0.20055411756038666
7300,0.2535403370857239,0.2261686474084854,0.21955133974552155,0.20031039416790009
7400,0.2536048889160156,0.2257368415594101,0.21973159909248352,0.20064955949783325
7500,0.2537294328212738,0.22548897564411163,0.21981549263000488,0.20090389251708984
7600,0.2539912462234497,0.22573353350162506,0.22008056938648224,0.20069514214992523
7700,0.25409775972366333,0.22630026936531067,0.21976016461849213,0.2003777176141739
7800,0.25389590859413147,0.22557087242603302,0.22009944915771484,0.20066435635089874
7900,0.2535962164402008,0.2258814126253128,0.22008930146694183,0.20023377239704132
8000,0.25334131717681885,0.22602809965610504,0.22072133421897888,0.20075324177742004
8100,0.2535770833492279,0.22628101706504822,0.22051046788692474,0.2004101723432541
8200,0.2533184885978699,0.22605642676353455,0.22100697457790375,0.20075662434101105
8300,0.25350144505500793,0.22556006908416748,0.22011253237724304,0.2002963423728943
8400,0.25365179777145386,0.22587811946868896,0.22011983394622803,0.20044289529323578
8500,0.25429150462150574,0.22568267583847046,0.22026841342449188,0.2001761496067047
8600,0.2543567419052124,0.2253902703523636,0.22069349884986877,0.20016418397426605
8700,0.2542644143104553,0.22543546557426453,0.2201540768146515,0.20034852623939514
8800,0.25345051288604736,0.22593308985233307,0.21991035342216492,0.20038366317749023
8900,0.2532767653465271,0.22564280033111572,0.22049511969089508,0.2007092833518982
9000,0.2542171776294708,0.22603000700473785,0.22015264630317688,0.20076432824134827
9100,0.25354015827178955,0.22557397186756134,0.22035686671733856,0.2004009336233139
9200,0.2536512613296509,0.22578327357769012,0.22033217549324036,0.20038174092769623
9300,0.25368398427963257,0.22577691078186035,0.22019799053668976,0.20041847229003906
9400,0.2538125514984131,0.22588247060775757,0.2201358824968338,0.20050768554210663
9500,0.25375497341156006,0.22573800384998322,0.2201225906610489,0.20048165321350098
9600,0.2537226378917694,0.22585947811603546,0.22010275721549988,0.20053072273731232
9700,0.253764808177948,0.2258276790380478,0.2201225906610489,0.20052769780158997
9800,0.2537279725074768,0.22576749324798584,0.22005493938922882,0.2006053328514099
9900,0.2537389099597931,0.22578975558280945,0.22007200121879578,0.20064887404441833
10000,0.25372225046157837,0.2258380800485611,0.22011981904506683,0.20060013234615326
