1,4.267637252807617
100,4.307506084442139
200,4.291957378387451
300,4.275158405303955
400,4.2404279708862305
500,4.17854118347168
600,4.230912208557129
700,4.174134731292725
800,4.184360504150391
900,4.14349889755249
1000,4.077213764190674
1100,4.04403018951416
1200,3.9613382816314697
1300,3.934343099594116
1400,3.979231357574463
1500,3.8823912143707275
1600,3.8445324897766113
1700,3.8171839714050293
1800,3.7824501991271973
1900,3.824315071105957
2000,3.749804735183716
2100,3.6058309078216553
2200,3.5653083324432373
2300,3.5126349925994873
2400,3.5320017337799072
2500,3.5062992572784424
2600,3.474764585494995
2700,3.4570698738098145
2800,3.4352872371673584
2900,3.4255220890045166
3000,3.467869520187378
3100,3.4757280349731445
3200,3.4222168922424316
3300,3.412564277648926
3400,3.406153917312622
3500,3.453946352005005
3600,3.4186763763427734
3700,3.4629018306732178
3800,3.3563997745513916
3900,3.372061252593994
4000,3.296212673187256
4100,3.343533515930176
4200,3.3111979961395264
4300,3.290822982788086
4400,3.2255492210388184
4500,3.274214267730713
4600,3.293834924697876
4700,3.2154812812805176
4800,3.1415555477142334
4900,3.1210579872131348
5000,3.0534300804138184
5100,2.9821362495422363
5200,2.99234938621521
5300,2.9620776176452637
5400,3.063605546951294
5500,3.0508573055267334
5600,3.0379722118377686
5700,2.97638201713562
5800,2.8949339389801025
5900,2.8945322036743164
6000,2.938863754272461
6100,2.9475209712982178
6200,2.9824984073638916
6300,2.917682647705078
6400,2.9409914016723633
6500,2.960732936859131
6600,2.9609243869781494
6700,2.9920458793640137
6800,2.9717113971710205
6900,2.9315173625946045
7000,2.864358901977539
7100,2.9167447090148926
7200,2.961214542388916
7300,2.882664442062378
7400,2.9117188453674316
7500,2.864943504333496
7600,2.8459229469299316
7700,2.8558573722839355
7800,2.878391981124878
7900,2.8829593658447266
8000,2.8147642612457275
8100,2.7570745944976807
8200,2.7042574882507324
8300,2.781442165374756
8400,2.7613868713378906
8500,2.736504554748535
8600,2.7559304237365723
8700,2.8140954971313477
8800,2.802244186401367
8900,2.8093130588531494
9000,2.840604066848755
9100,2.846616268157959
9200,2.8364288806915283
9300,2.826171636581421
9400,2.8403267860412598
9500,2.8430709838867188
9600,2.8341915607452393
9700,2.828704595565796
9800,2.827623128890991
9900,2.824324607849121
10000,2.8217968940734863
