1,0.4991505742073059
100,0.5550209879875183
200,0.5558008551597595
300,0.53484708070755
400,0.5501607060432434
500,0.5525516867637634
600,0.5635857582092285
700,0.5261025428771973
800,0.546822190284729
900,0.5312260389328003
1000,0.5533612966537476
1100,0.5771275758743286
1200,0.5713785886764526
1300,0.5759186744689941
1400,0.5510115623474121
1500,0.5532191395759583
1600,0.5816082954406738
1700,0.5524957776069641
1800,0.5399075150489807
1900,0.5689959526062012
2000,0.5861344933509827
2100,0.5630794763565063
2200,0.5735364556312561
2300,0.5989459156990051
2400,0.5855559706687927
2500,0.5882694125175476
2600,0.5894662737846375
2700,0.5977182388305664
2800,0.5832666158676147
2900,0.6119847893714905
3000,0.5934558510780334
3100,0.5664675831794739
3200,0.5625656843185425
3300,0.5917048454284668
3400,0.5958681106567383
3500,0.6031820178031921
3600,0.5900052189826965
3700,0.6227440237998962
3800,0.5854777097702026
3900,0.5726723074913025
4000,0.580324649810791
4100,0.5914090871810913
4200,0.5936168432235718
4300,0.6285254955291748
4400,0.5862028002738953
4500,0.604012131690979
4600,0.5663473010063171
4700,0.5852271318435669
4800,0.6037980914115906
4900,0.5757637023925781
5000,0.5930511951446533
5100,0.6072975993156433
5200,0.6111393570899963
5300,0.6025803089141846
5400,0.5836887955665588
5500,0.5834836363792419
5600,0.5765656232833862
5700,0.5875518321990967
5800,0.6096930503845215
5900,0.5803599953651428
6000,0.5810924172401428
6100,0.5727635622024536
6200,0.5701715350151062
6300,0.5567787289619446
6400,0.5444476008415222
6500,0.577551007270813
6600,0.6115716695785522
6700,0.6038787364959717
6800,0.6367616057395935
6900,0.5845444798469543
7000,0.6043859720230103
7100,0.5944401621818542
7200,0.5591384768486023
7300,0.5823112726211548
7400,0.5960116386413574
7500,0.5687941908836365
7600,0.5920419692993164
7700,0.5807650685310364
7800,0.5773105621337891
7900,0.5737597942352295
8000,0.5723514556884766
8100,0.5643278360366821
8200,0.5869266390800476
8300,0.5772799253463745
8400,0.5844712853431702
8500,0.6306470036506653
8600,0.6212336421012878
8700,0.5940629243850708
8800,0.606843113899231
8900,0.5847264528274536
9000,0.5887138247489929
9100,0.6055800914764404
9200,0.6053924560546875
9300,0.6012438535690308
9400,0.5981149077415466
9500,0.5961410403251648
9600,0.5973188281059265
9700,0.5958568453788757
9800,0.5978221893310547
9900,0.5945752859115601
10000,0.5941213965415955
