1,0.18877799808979034
100,0.2061423510313034
200,0.2149740308523178
300,0.2104608118534088
400,0.23735447227954865
500,0.2473810911178589
600,0.259819358587265
700,0.29089733958244324
800,0.29963621497154236
900,0.3037240207195282
1000,0.32845258712768555
1100,0.3414992690086365
1200,0.3518686294555664
1300,0.35969385504722595
1400,0.36926501989364624
1500,0.39042094349861145
1600,0.40011245012283325
1700,0.41981828212738037
1800,0.44125860929489136
1900,0.4649721682071686
2000,0.4595547318458557
2100,0.46328356862068176
2200,0.47422775626182556
2300,0.5031638741493225
2400,0.5255643129348755
2500,0.5425068140029907
2600,0.5866289734840393
2700,0.6070792078971863
2800,0.6072505116462708
2900,0.614321768283844
3000,0.6382894515991211
3100,0.6425263285636902
3200,0.6655147075653076
3300,0.6854961514472961
3400,0.6889733076095581
3500,0.700188159942627
3600,0.7076299786567688
3700,0.7089850902557373
3800,0.7100637555122375
3900,0.7349113821983337
4000,0.7559086084365845
4100,0.7797204852104187
4200,0.8077224493026733
4300,0.8240373134613037
4400,0.8463777899742126
4500,0.8651161193847656
4600,0.8801031112670898
4700,0.8990389108657837
4800,0.9214694499969482
4900,0.9566201567649841
5000,0.9649652242660522
5100,0.9746111035346985
5200,0.997787356376648
5300,1.0224851369857788
5400,1.044881820678711
5500,1.050039529800415
5600,1.082626461982727
5700,1.100187063217163
5800,1.1163948774337769
5900,1.1451729536056519
6000,1.1468628644943237
6100,1.1521798372268677
6200,1.171089768409729
6300,1.179275393486023
6400,1.1895211935043335
6500,1.197115182876587
6600,1.2126526832580566
6700,1.2337868213653564
6800,1.2462286949157715
6900,1.2423163652420044
7000,1.2512092590332031
7100,1.2638942003250122
7200,1.2869731187820435
7300,1.2978026866912842
7400,1.2955302000045776
7500,1.3028508424758911
7600,1.3035500049591064
7700,1.3397408723831177
7800,1.3663049936294556
7900,1.3735281229019165
8000,1.3845219612121582
8100,1.4068247079849243
8200,1.415694236755371
8300,1.429653525352478
8400,1.4471441507339478
8500,1.4729617834091187
8600,1.497808814048767
8700,1.5006499290466309
8800,1.4978586435317993
8900,1.509305715560913
9000,1.4924441576004028
9100,1.4993491172790527
9200,1.5039632320404053
9300,1.5057414770126343
9400,1.508719563484192
9500,1.5094060897827148
9600,1.51100754737854
9700,1.5157023668289185
9800,1.5219414234161377
9900,1.5253793001174927
10000,1.5291773080825806
