1,1.616995930671692
100,0.8363924622535706
200,0.6753471493721008
300,0.6472622752189636
400,0.6271755695343018
500,0.667656421661377
600,0.6242649555206299
700,0.645399808883667
800,0.6256293058395386
900,0.6540340781211853
1000,0.6786378622055054
1100,0.6835638284683228
1200,0.6460364460945129
1300,0.6992113590240479
1400,0.6916865706443787
1500,0.7151097059249878
1600,0.7561701536178589
1700,0.7197446823120117
1800,0.7366700768470764
1900,0.7413660287857056
2000,0.7345083951950073
2100,0.6981134414672852
2200,0.7333777546882629
2300,0.7342147827148438
2400,0.7507716417312622
2500,0.7638022899627686
2600,0.7322155833244324
2700,0.7996393442153931
2800,0.8072325587272644
2900,0.7606346607208252
3000,0.7435866594314575
3100,0.7517993450164795
3200,0.7592750191688538
3300,0.7253934144973755
3400,0.759443998336792
3500,0.7515215277671814
3600,0.7379599213600159
3700,0.7643299698829651
3800,0.7424986362457275
3900,0.7376081943511963
4000,0.7733052968978882
4100,0.7994978427886963
4200,0.7676865458488464
4300,0.7323957085609436
4400,0.791216254234314
4500,0.7627036571502686
4600,0.7857746481895447
4700,0.771056056022644
4800,0.7342332005500793
4900,0.7625213861465454
5000,0.7376324534416199
5100,0.7590469121932983
5200,0.744526207447052
5300,0.7483317852020264
5400,0.7039477229118347
5500,0.7573959827423096
5600,0.7524740099906921
5700,0.7302472591400146
5800,0.7233310341835022
5900,0.7602693438529968
6000,0.7292351722717285
6100,0.7652601599693298
6200,0.7627109289169312
6300,0.7097330689430237
6400,0.7175244092941284
6500,0.7078893780708313
6600,0.7198430895805359
6700,0.7799727916717529
6800,0.7579649686813354
6900,0.7592791318893433
7000,0.7643786072731018
7100,0.7695237994194031
7200,0.7608099579811096
7300,0.7617360353469849
7400,0.7566978931427002
7500,0.7951523661613464
7600,0.774261474609375
7700,0.7603848576545715
7800,0.790893018245697
7900,0.7697142958641052
8000,0.7582781910896301
8100,0.7608653903007507
8200,0.7925060987472534
8300,0.795510470867157
8400,0.7521248459815979
8500,0.7092801928520203
8600,0.7308563590049744
8700,0.7500895261764526
8800,0.7478189468383789
8900,0.7563713788986206
9000,0.7774534821510315
9100,0.7404689192771912
9200,0.7499073147773743
9300,0.7520049810409546
9400,0.7570052146911621
9500,0.7625154852867126
9600,0.7616556286811829
9700,0.7648680806159973
9800,0.7658821940422058
9900,0.7615560293197632
10000,0.7599871158599854
