1,4.750611305236816
100,1.1935116052627563
200,1.1714497804641724
300,1.130928874015808
400,1.1705467700958252
500,1.1333959102630615
600,1.1724982261657715
700,1.1213382482528687
800,1.1561028957366943
900,1.0802969932556152
1000,1.1286107301712036
1100,1.1620298624038696
1200,1.1328415870666504
1300,1.107643723487854
1400,1.1360281705856323
1500,1.12982976436615
1600,1.0987367630004883
1700,1.1451078653335571
1800,1.102675437927246
1900,1.089616060256958
2000,1.133257508277893
2100,1.0867427587509155
2200,1.0731195211410522
2300,1.0858960151672363
2400,1.1069432497024536
2500,1.102927327156067
2600,1.1353764533996582
2700,1.1152350902557373
2800,1.1328942775726318
2900,1.0924797058105469
3000,1.094294786453247
3100,1.0898563861846924
3200,1.0853909254074097
3300,1.1013050079345703
3400,1.1215922832489014
3500,1.1219003200531006
3600,1.088226556777954
3700,1.1263525485992432
3800,1.1125867366790771
3900,1.1431398391723633
4000,1.0852484703063965
4100,1.121076226234436
4200,1.1426880359649658
4300,1.1241322755813599
4400,1.1371817588806152
4500,1.0809260606765747
4600,1.1105140447616577
4700,1.0449951887130737
4800,1.075296401977539
4900,1.089081048965454
5000,1.1116297245025635
5100,1.0883694887161255
5200,1.1036252975463867
5300,1.0674022436141968
5400,1.0894721746444702
5500,1.1396095752716064
5600,1.089632272720337
5700,1.0911931991577148
5800,1.0917847156524658
5900,1.0655895471572876
6000,1.0702894926071167
6100,1.0985350608825684
6200,1.1207026243209839
6300,1.116827130317688
6400,1.0804818868637085
6500,1.079215168952942
6600,1.0727486610412598
6700,1.0730087757110596
6800,1.0633708238601685
6900,1.1037683486938477
7000,1.112007737159729
7100,1.123356580734253
7200,1.0942057371139526
7300,1.120850920677185
7400,1.0895453691482544
7500,1.1001710891723633
7600,1.0824042558670044
7700,1.084267020225525
7800,1.1269543170928955
7900,1.0823535919189453
8000,1.05990731716156
8100,1.0932315587997437
8200,1.0619251728057861
8300,1.0850437879562378
8400,1.0620862245559692
8500,1.0818761587142944
8600,1.124499797821045
8700,1.1062803268432617
8800,1.122090458869934
8900,1.1417611837387085
9000,1.1063776016235352
9100,1.0907881259918213
9200,1.0753756761550903
9300,1.088667631149292
9400,1.093859314918518
9500,1.0987821817398071
9600,1.0986062288284302
9700,1.0927879810333252
9800,1.0882242918014526
9900,1.089048981666565
10000,1.0886340141296387
