1,2.69380521774292
100,2.516770839691162
200,2.5073490142822266
300,2.5138680934906006
400,2.5041816234588623
500,2.4558303356170654
600,2.436117649078369
700,2.4080421924591064
800,2.378309965133667
900,2.347134590148926
1000,2.304419994354248
1100,2.3199009895324707
1200,2.290550708770752
1300,2.265645980834961
1400,2.2327637672424316
1500,2.2078099250793457
1600,2.203171491622925
1700,2.1789591312408447
1800,2.170865297317505
1900,2.1490299701690674
2000,2.104933023452759
2100,2.0827291011810303
2200,2.0282232761383057
2300,1.9807319641113281
2400,1.9571746587753296
2500,1.9323837757110596
2600,1.9113714694976807
2700,1.875129222869873
2800,1.8953992128372192
2900,1.8527555465698242
3000,1.8626774549484253
3100,1.852233648300171
3200,1.8327269554138184
3300,1.8313075304031372
3400,1.8264036178588867
3500,1.8233416080474854
3600,1.810326099395752
3700,1.8165192604064941
3800,1.7626646757125854
3900,1.7497011423110962
4000,1.7398931980133057
4100,1.7432976961135864
4200,1.716693639755249
4300,1.730299949645996
4400,1.6807881593704224
4500,1.704045295715332
4600,1.6893489360809326
4700,1.6586636304855347
4800,1.6461318731307983
4900,1.628891944885254
5000,1.6296582221984863
5100,1.6195461750030518
5200,1.61663019657135
5300,1.5893079042434692
5400,1.588597059249878
5500,1.5636394023895264
5600,1.5772305727005005
5700,1.5862547159194946
5800,1.5297174453735352
5900,1.5134336948394775
6000,1.5330010652542114
6100,1.518457293510437
6200,1.5174949169158936
6300,1.4925116300582886
6400,1.5047874450683594
6500,1.5107102394104004
6600,1.506774663925171
6700,1.4990824460983276
6800,1.4774030447006226
6900,1.4672743082046509
7000,1.4452446699142456
7100,1.4330848455429077
7200,1.4132015705108643
7300,1.4280741214752197
7400,1.4171135425567627
7500,1.4299511909484863
7600,1.429858684539795
7700,1.4144715070724487
7800,1.4399176836013794
7900,1.4260225296020508
8000,1.4208251237869263
8100,1.4005718231201172
8200,1.415321707725525
8300,1.4192137718200684
8400,1.397421956062317
8500,1.3895853757858276
8600,1.3878093957901
8700,1.3733280897140503
8800,1.3863823413848877
8900,1.3597538471221924
9000,1.3344429731369019
9100,1.3489617109298706
9200,1.3392153978347778
9300,1.3364900350570679
9400,1.3313876390457153
9500,1.3319681882858276
9600,1.33121919631958
9700,1.3300278186798096
9800,1.331222653388977
9900,1.3328444957733154
10000,1.3298226594924927
