1,4.684363842010498
100,1.5389621257781982
200,1.464110016822815
300,1.4298713207244873
400,1.4084250926971436
500,1.389294981956482
600,1.3663188219070435
700,1.375887155532837
800,1.3771337270736694
900,1.336902141571045
1000,1.3202036619186401
1100,1.328032374382019
1200,1.3181666135787964
1300,1.3169525861740112
1400,1.3004438877105713
1500,1.2827926874160767
1600,1.2975431680679321
1700,1.287338376045227
1800,1.282096028327942
1900,1.2696151733398438
2000,1.2691166400909424
2100,1.2448431253433228
2200,1.228806495666504
2300,1.2225041389465332
2400,1.2423317432403564
2500,1.1947230100631714
2600,1.1950544118881226
2700,1.232515573501587
2800,1.2078696489334106
2900,1.1948976516723633
3000,1.192429780960083
3100,1.1999132633209229
3200,1.1977283954620361
3300,1.2036689519882202
3400,1.1933919191360474
3500,1.1995000839233398
3600,1.185836672782898
3700,1.1870200634002686
3800,1.1759593486785889
3900,1.1845523118972778
4000,1.185381293296814
4100,1.1653404235839844
4200,1.1501226425170898
4300,1.163102626800537
4400,1.1558339595794678
4500,1.182337999343872
4600,1.1612725257873535
4700,1.1830893754959106
4800,1.1420044898986816
4900,1.1415685415267944
5000,1.1467349529266357
5100,1.1539021730422974
5200,1.1532231569290161
5300,1.1476277112960815
5400,1.1486667394638062
5500,1.1324485540390015
5600,1.1229619979858398
5700,1.1208888292312622
5800,1.1210439205169678
5900,1.117613673210144
6000,1.1239315271377563
6100,1.1194877624511719
6200,1.1129039525985718
6300,1.1170899868011475
6400,1.116736888885498
6500,1.1075701713562012
6600,1.1031298637390137
6700,1.1156352758407593
6800,1.1101338863372803
6900,1.1056957244873047
7000,1.109109878540039
7100,1.114223837852478
7200,1.1096243858337402
7300,1.109289288520813
7400,1.1040557622909546
7500,1.0861996412277222
7600,1.107936978340149
7700,1.1073564291000366
7800,1.1016027927398682
7900,1.083275556564331
8000,1.0899019241333008
8100,1.1100083589553833
8200,1.1048415899276733
8300,1.1093889474868774
8400,1.1097123622894287
8500,1.0932477712631226
8600,1.0866516828536987
8700,1.099789023399353
8800,1.0928984880447388
8900,1.0862606763839722
9000,1.0905669927597046
9100,1.0925902128219604
9200,1.0990740060806274
9300,1.0944350957870483
9400,1.1001405715942383
9500,1.1018174886703491
9600,1.1074527502059937
9700,1.1029032468795776
9800,1.10312020778656
9900,1.1024326086044312
10000,1.1037572622299194
