1,0.5818589329719543
100,0.6696866154670715
200,0.7127528190612793
300,0.7377948760986328
400,0.756746232509613
500,0.7595400810241699
600,0.8109042644500732
700,0.8270277976989746
800,0.8009335994720459
900,0.8286930322647095
1000,0.8780550956726074
1100,0.9189252853393555
1200,0.9449476003646851
1300,0.9783156514167786
1400,1.008594036102295
1500,1.0289294719696045
1600,1.0305275917053223
1700,1.061566710472107
1800,1.0704916715621948
1900,1.1343539953231812
2000,1.1901527643203735
2100,1.2250607013702393
2200,1.2381500005722046
2300,1.2616580724716187
2400,1.258503794670105
2500,1.3049999475479126
2600,1.332584261894226
2700,1.3435248136520386
2800,1.346926212310791
2900,1.3759572505950928
3000,1.397017478942871
3100,1.4204198122024536
3200,1.4414863586425781
3300,1.4613256454467773
3400,1.4650709629058838
3500,1.4717894792556763
3600,1.465601921081543
3700,1.478739619255066
3800,1.49555242061615
3900,1.480809211730957
4000,1.5096725225448608
4100,1.509302020072937
4200,1.5034713745117188
4300,1.4625275135040283
4400,1.48715078830719
4500,1.503295660018921
4600,1.5199193954467773
4700,1.5565893650054932
4800,1.5571954250335693
4900,1.5370069742202759
5000,1.559199571609497
5100,1.575560450553894
5200,1.5788681507110596
5300,1.5868791341781616
5400,1.5730183124542236
5500,1.5952341556549072
5600,1.613931655883789
5700,1.6160351037979126
5800,1.6267255544662476
5900,1.6563876867294312
6000,1.6434510946273804
6100,1.6914986371994019
6200,1.6995104551315308
6300,1.7321258783340454
6400,1.7190659046173096
6500,1.7212954759597778
6600,1.7163984775543213
6700,1.7112410068511963
6800,1.7392258644104004
6900,1.7158622741699219
7000,1.7179617881774902
7100,1.7019667625427246
7200,1.7293587923049927
7300,1.7399832010269165
7400,1.7928502559661865
7500,1.7983487844467163
7600,1.795387864112854
7700,1.808550238609314
7800,1.80997896194458
7900,1.8106788396835327
8000,1.7886650562286377
8100,1.7727413177490234
8200,1.8020879030227661
8300,1.7982759475708008
8400,1.7930938005447388
8500,1.7819225788116455
8600,1.7849892377853394
8700,1.8031024932861328
8800,1.7885018587112427
8900,1.7914185523986816
9000,1.808517575263977
9100,1.8028758764266968
9200,1.801975131034851
9300,1.7952286005020142
9400,1.7952929735183716
9500,1.7860409021377563
9600,1.775987148284912
9700,1.773736834526062
9800,1.773784875869751
9900,1.7758632898330688
10000,1.7779104709625244
