1,1.5413494110107422
100,1.6075077056884766
200,1.3512495756149292
300,1.2483123540878296
400,1.208522081375122
500,1.1591829061508179
600,1.146364688873291
700,1.1893131732940674
800,1.1749377250671387
900,1.1721186637878418
1000,1.159986138343811
1100,1.134330153465271
1200,1.1596747636795044
1300,1.1503998041152954
1400,1.1163413524627686
1500,1.1180310249328613
1600,1.115038514137268
1700,1.1210572719573975
1800,1.0819237232208252
1900,1.0983701944351196
2000,1.098487138748169
2100,1.0641164779663086
2200,1.0486716032028198
2300,1.0663992166519165
2400,1.051132321357727
2500,1.0344675779342651
2600,1.0620417594909668
2700,1.0511651039123535
2800,1.0464951992034912
2900,1.0349563360214233
3000,1.0283451080322266
3100,1.0297187566757202
3200,0.9874453544616699
3300,1.0431431531906128
3400,1.0441458225250244
3500,1.0086729526519775
3600,1.042502522468567
3700,1.023093342781067
3800,1.0338387489318848
3900,0.9984568953514099
4000,1.0192984342575073
4100,1.001448392868042
4200,1.0052664279937744
4300,1.0429563522338867
4400,1.0349502563476562
4500,1.0156952142715454
4600,0.9996391534805298
4700,1.013493299484253
4800,1.0312068462371826
4900,1.017520546913147
5000,1.0372638702392578
5100,1.0331138372421265
5200,1.0213059186935425
5300,1.027319312095642
5400,1.0062496662139893
5500,0.9938024878501892
5600,1.04063081741333
5700,1.023205041885376
5800,1.035216212272644
5900,0.9853617548942566
6000,1.0211290121078491
6100,0.968333899974823
6200,0.9628987908363342
6300,0.9979726076126099
6400,0.9742729663848877
6500,0.9935941100120544
6600,0.9704675674438477
6700,1.0004743337631226
6800,0.9642690420150757
6900,0.9438877701759338
7000,0.9539118409156799
7100,0.9941577911376953
7200,0.9956141710281372
7300,1.0146328210830688
7400,0.9782954454421997
7500,0.9755188822746277
7600,0.9771071672439575
7700,0.9598119854927063
7800,0.9741252064704895
7900,0.9682736992835999
8000,0.9844966530799866
8100,1.0277599096298218
8200,0.9803707599639893
8300,0.9781597852706909
8400,0.9423643350601196
8500,1.001024603843689
8600,0.9564865231513977
8700,0.9565294981002808
8800,0.9692645072937012
8900,0.9655323624610901
9000,0.9796194434165955
9100,0.9837601184844971
9200,0.9831795692443848
9300,0.9894790649414062
9400,0.989530086517334
9500,0.9891113638877869
9600,0.9817320704460144
9700,0.9830642342567444
9800,0.9832912683486938
9900,0.9889699816703796
10000,0.9925817847251892
