1,1.3971624374389648
100,0.7412621974945068
200,0.6737260222434998
300,0.6335875988006592
400,0.6413753628730774
500,0.6290602684020996
600,0.622642457485199
700,0.6460185647010803
800,0.6134456396102905
900,0.650578498840332
1000,0.6471633315086365
1100,0.6697190403938293
1200,0.662203311920166
1300,0.6394486427307129
1400,0.6501338481903076
1500,0.6757708787918091
1600,0.6612213253974915
1700,0.6478371024131775
1800,0.6705237030982971
1900,0.7081982493400574
2000,0.6876403093338013
2100,0.6942146420478821
2200,0.6958496570587158
2300,0.6969377398490906
2400,0.6703242659568787
2500,0.7160221338272095
2600,0.681944727897644
2700,0.7091509699821472
2800,0.7312800288200378
2900,0.6882606744766235
3000,0.6734555959701538
3100,0.6718239784240723
3200,0.6888920664787292
3300,0.682215690612793
3400,0.714406430721283
3500,0.7048411965370178
3600,0.7161727547645569
3700,0.7203978896141052
3800,0.7398167848587036
3900,0.6860735416412354
4000,0.7152977585792542
4100,0.7140151262283325
4200,0.7094550728797913
4300,0.7021726369857788
4400,0.715259313583374
4500,0.7050690054893494
4600,0.6839454770088196
4700,0.71287602186203
4800,0.6787073612213135
4900,0.7106533050537109
5000,0.7171416282653809
5100,0.710495114326477
5200,0.7111917734146118
5300,0.6883893609046936
5400,0.7137619256973267
5500,0.7023611664772034
5600,0.6912285685539246
5700,0.6889468431472778
5800,0.7037625908851624
5900,0.6556443572044373
6000,0.7089409828186035
6100,0.7250337600708008
6200,0.7190330028533936
6300,0.6679737567901611
6400,0.7141632437705994
6500,0.6931660175323486
6600,0.6988046169281006
6700,0.7057284116744995
6800,0.7119355201721191
6900,0.6998701095581055
7000,0.7036157250404358
7100,0.6916713714599609
7200,0.7260356545448303
7300,0.7133561968803406
7400,0.6768534779548645
7500,0.694072961807251
7600,0.7275855541229248
7700,0.72169429063797
7800,0.7244123220443726
7900,0.7127569913864136
8000,0.6598654985427856
8100,0.6801815629005432
8200,0.7002604007720947
8300,0.6762961149215698
8400,0.7131577730178833
8500,0.670906662940979
8600,0.6901015639305115
8700,0.7411006689071655
8800,0.6950178146362305
8900,0.6973766684532166
9000,0.7124059796333313
9100,0.7062333226203918
9200,0.6985697150230408
9300,0.7123340964317322
9400,0.6924829483032227
9500,0.691169023513794
9600,0.6902251243591309
9700,0.6921443343162537
9800,0.6929414868354797
9900,0.6942111849784851
10000,0.6955329179763794
