1,0.0039045289158821106,-0.0009230661671608686,0.0
100,0.004815655294805765,0.006641233805567026,-0.009266388602554798
200,0.0012600147165358067,-0.009658660739660263,0.0027869357727468014
300,0.025048285722732544,0.001953639555722475,-0.014755768701434135
400,-0.0029372209683060646,-0.032047003507614136,-0.017741579562425613
500,0.02002917043864727,-0.026704084128141403,-0.002044912427663803
600,-0.013972011394798756,-0.00612513767555356,-0.0018609287217259407
700,-0.011199172586202621,-0.010772650130093098,0.001261983998119831
800,-0.005550478585064411,-0.006180901080369949,0.006941112689673901
900,0.016381248831748962,0.022038260474801064,0.0007021315395832062
1000,-0.010831605643033981,-0.020736074075102806,0.0031487462110817432
1100,0.01601754128932953,0.014433914795517921,0.014193763025105
1200,0.026566138491034508,0.021783102303743362,-0.0008120248094201088
1300,0.031399015337228775,0.0019466457888484001,-0.004866786301136017
1400,0.002277722116559744,-0.0037463605403900146,0.0013307419139891863
1500,0.01825861819088459,-0.011837514117360115,-0.010244740173220634
1600,0.016210343688726425,-0.027376879006624222,-0.014538951218128204
1700,-0.022412434220314026,-0.01656663790345192,-0.00783459935337305
1800,0.010000349953770638,-0.012715395539999008,-0.006536913104355335
1900,-0.023580476641654968,-0.004843417555093765,-0.018828218802809715
2000,-0.027182452380657196,-0.012805378064513206,-0.026108942925930023
2100,-0.008493805304169655,0.011983539909124374,-0.004201705567538738
2200,-0.004464311990886927,0.00360450753942132,0.019290367141366005
2300,0.022052787244319916,-0.014600084163248539,0.009749489836394787
2400,-0.0005023135454393923,-0.0024516298435628414,0.006258049048483372
2500,-0.019043447449803352,-0.013136783614754677,-0.00412398437038064
2600,-0.001843816600739956,-0.02507762610912323,-0.021709661930799484
2700,-0.00372121948748827,-0.010532286949455738,-0.01667472906410694
2800,0.006455785594880581,-0.03378715366125107,0.02942877635359764
2900,0.024899136275053024,-0.005377019755542278,0.0008707565139047801
3000,0.016215087845921516,-0.02779235504567623,0.008793609216809273
3100,0.010109156370162964,-0.0006966389482840896,-0.0018541356548666954
3200,0.010926776565611362,-0.0016845697537064552,-0.009350255131721497
3300,0.0331362709403038,0.017673179507255554,0.024066699668765068
3400,-0.003994534723460674,0.005256389267742634,-0.004543833434581757
3500,-0.02463485673069954,0.008069764822721481,-0.016926318407058716
3600,0.0035741052124649286,0.019380364567041397,-0.01548130065202713
3700,0.014504476450383663,0.015176283195614815,-0.006077685859054327
3800,-0.010773628018796444,0.016473479568958282,-0.02299516461789608
3900,-0.02439713664352894,-0.014646987430751324,-0.0058546531945466995
4000,-0.005373261868953705,-0.00513473292812705,0.011199223808944225
4100,-0.02241794392466545,-0.022019822150468826,0.007618496660143137
4200,-0.001353370025753975,-0.021960251033306122,-0.010216765105724335
4300,-0.02305767685174942,-0.008979049511253834,-0.01130188163369894
4400,-0.023968001827597618,0.008128777146339417,-0.0004996181232854724
4500,0.031532205641269684,0.03662196546792984,0.003670124337077141
4600,0.02583719789981842,0.021709760650992393,0.005714719183743
4700,0.00836987141519785,0.02329234406352043,0.00511449109762907
4800,-0.001284763216972351,0.011642152443528175,-0.0004705385072156787
4900,0.019083909690380096,0.015236631035804749,-0.002597203478217125
5000,-0.017167672514915466,-0.007482243236154318,-0.0016151987947523594
5100,-0.003808181267231703,-0.008908720687031746,0.010004120878875256
5200,-0.00729750469326973,-0.004936989396810532,0.012401025742292404
5300,0.018306903541088104,0.0039287470281124115,-0.0074167693965137005
5400,-0.008786062709987164,0.0001567336730659008,-0.017422333359718323
5500,0.01674467884004116,-0.02106301113963127,0.010856274515390396
5600,0.016431821510195732,0.014111592434346676,0.017606988549232483
5700,-0.005847920197993517,0.00579500338062644,-0.025408055633306503
5800,0.012668306939303875,0.01887289434671402,0.004960803315043449
5900,0.007623699493706226,-0.03496003523468971,-0.006719185970723629
6000,0.010311255231499672,-0.01544172689318657,-0.004688283894211054
6100,-0.02317693457007408,-0.027357112616300583,-0.013552803546190262
6200,-0.008939092978835106,-0.018688134849071503,0.0006133178249001503
6300,0.0090761324390769,0.014176640659570694,-0.013835075311362743
6400,0.02414672262966633,0.014856518246233463,0.029996071010828018
6500,0.0016975512262433767,-4.899781197309494e-05,-0.006786411628127098
6600,0.018456047400832176,0.01131622027605772,0.017169877886772156
6700,-0.022249339148402214,-0.009826995432376862,0.014547426253557205
6800,0.003328407183289528,-0.01804221048951149,-0.0017517516389489174
6900,-0.003802056424319744,-0.02638094872236252,0.0034275869838893414
7000,-0.005409662611782551,-0.00033232872374355793,0.0002733086294028908
7100,-0.015964439138770103,-0.01888148859143257,-0.005111857783049345
7200,0.004810727201402187,-0.013952651992440224,0.02173488214612007
7300,-0.0016826412174850702,0.007696180604398251,0.003152137156575918
7400,-0.0008360790088772774,-0.0021911701187491417,0.0037764026783406734
7500,-0.007410912308841944,-0.01506391353905201,0.003762022126466036
7600,-0.006280697416514158,0.02175588719546795,-0.017907094210386276
7700,-0.010962327942252159,0.009522066451609135,-0.012129825539886951
7800,0.005364720243960619,0.0070377131924033165,0.006858796812593937
7900,0.020625675097107887,0.01673959195613861,-0.00273303734138608
8000,0.004551546182483435,0.026926780119538307,-0.006491666194051504
8100,-0.0011541759595274925,-0.013534896075725555,0.005682831630110741
8200,0.0064193131402134895,-0.006041104905307293,-0.008331841789186
8300,0.013599609956145287,0.009267481975257397,0.0074184127151966095
8400,0.005354767199605703,0.008492118678987026,0.011387946084141731
8500,0.020987557247281075,-0.006113398354500532,0.014499722979962826
8600,-0.008942498825490475,-0.015744421631097794,0.008519851602613926
8700,0.005811583250761032,-0.0020256591960787773,-0.008807425387203693
8800,0.022124657407402992,0.01035174448043108,-0.010858774185180664
8900,0.002998161129653454,-0.008448685519397259,0.009238846600055695
9000,-0.014461667276918888,0.018899179995059967,-0.01452300138771534
9100,-0.00199844385497272,0.018275225535035133,-0.0034144227392971516
9200,-0.0037386261392384768,0.013454818166792393,0.0006523648044094443
9300,-0.0031866843346506357,0.0035672036465257406,0.0010529705323278904
9400,0.005275913514196873,0.00616661598905921,0.004098156001418829
9500,0.009204473346471786,0.008568757213652134,0.0035573106724768877
9600,0.007222598418593407,0.006819749716669321,0.002086467109620571
9700,0.007216348312795162,0.007430913392454386,0.0009159257169812918
9800,0.007276197895407677,0.007670966442674398,0.002233101986348629
9900,0.008551823906600475,0.010167653672397137,0.001548098400235176
10000,0.008663228712975979,0.007012783549726009,0.002300262451171875
