1,0.002290854463353753,0.005092037376016378,0.0
100,-0.012230528518557549,0.02033942937850952,0.0021555889397859573
200,-3.727365401573479e-05,-0.005094693973660469,0.033107463270425797
300,0.005692934151738882,-0.004263668321073055,0.009783757850527763
400,-0.0032101208344101906,0.008469370193779469,-0.00025854073464870453
500,-0.007148181088268757,-0.022569969296455383,0.004588303156197071
600,-0.005955904722213745,-0.0187477208673954,-0.0016650166362524033
700,0.0035196272656321526,-0.014402425847947598,0.002076921984553337
800,-0.008214819245040417,-0.004241316579282284,0.026982571929693222
900,0.007168218027800322,0.0039670150727033615,0.002510401187464595
1000,-0.02932456135749817,-0.018509920686483383,-0.01058297697454691
1100,-0.01327705942094326,0.003679160960018635,-0.016928281635046005
1200,-0.009505491703748703,0.015579252503812313,0.014941610395908356
1300,0.019865352660417557,0.025030910968780518,0.014024836011230946
1400,0.018787039443850517,0.004364060238003731,-0.01636488549411297
1500,-0.0026485687121748924,-0.012362685985863209,0.00033301301300525665
1600,-0.005603102035820484,-0.025510035455226898,0.010849429294466972
1700,0.00017300620675086975,-0.0010646139271557331,0.011178649961948395
1800,-0.01806933432817459,-3.4996308386325836e-05,0.00922192819416523
1900,0.01485088188201189,0.01160510629415512,0.009871012531220913
2000,0.02983367070555687,-0.017187179997563362,0.002251223661005497
2100,-0.023942895233631134,-0.0045656729489564896,0.006222831085324287
2200,-0.014524251222610474,0.00912143662571907,0.00920121744275093
2300,-0.005029570311307907,0.0028048199601471424,-0.004650964867323637
2400,-0.0182599239051342,-0.027588525786995888,-0.027248380705714226
2500,0.008755186572670937,0.003136387327685952,-0.029543792828917503
2600,-0.029140818864107132,-0.02425631321966648,-0.006043674424290657
2700,-0.00286552170291543,-0.0004438061732798815,-0.007985219359397888
2800,-0.02567470073699951,-0.013250218704342842,-0.008008139207959175
2900,0.0013956883922219276,-0.0010717147961258888,-0.016192005947232246
3000,0.020154841244220734,0.01123548299074173,0.005446783732622862
3100,0.011565284803509712,0.030824407935142517,0.013418683782219887
3200,0.01809457130730152,-0.02274126373231411,0.014890276826918125
3300,-0.020105397328734398,-0.008185122162103653,-0.00043437746353447437
3400,-0.0017443159595131874,0.009909268468618393,-0.012135335244238377
3500,0.00826999731361866,-0.012286996468901634,0.003795534372329712
3600,-0.0049247294664382935,0.010039372369647026,0.0029122368432581425
3700,0.008765636943280697,-0.005412794649600983,0.0033879419788718224
3800,0.0059633138589560986,0.015254545956850052,0.022755475714802742
3900,0.02521929144859314,0.008002610877156258,0.012236745096743107
4000,0.005717213731259108,0.00856875441968441,0.02488808147609234
4100,0.04146157577633858,0.007522208616137505,0.02351311780512333
4200,-0.013831504620611668,-0.004708933178335428,-0.00025910651311278343
4300,-0.04432644322514534,-0.02376118302345276,0.012766913510859013
4400,0.010651534423232079,0.002691945293918252,0.01052778773009777
4500,0.002435365691781044,0.0016822777688503265,-0.014066857285797596
4600,-0.004424917045980692,-0.012032529339194298,-0.014119964092969894
4700,-0.02260628156363964,-0.013796824961900711,-0.01134209893643856
4800,-0.004621448926627636,-0.023115189746022224,-0.01616569235920906
4900,-0.014246907085180283,-0.0024725862313061953,-0.02537323534488678
5000,-0.010548723861575127,0.009622091427445412,0.006478479597717524
5100,-0.02575855143368244,-0.024377096444368362,-0.0011357879266142845
5200,-0.002472578315064311,-0.030635276809334755,-0.002296005841344595
5300,0.009063529781997204,0.0034635914489626884,-0.009978462010622025
5400,0.03294413536787033,0.025229087099432945,0.011841906234622002
5500,0.009833519347012043,0.01186852715909481,0.01250082440674305
5600,-0.01406187005341053,0.018066616728901863,-0.015348395332694054
5700,-0.000269097276031971,0.004306252114474773,-0.01694035530090332
5800,0.01664498634636402,-0.005466501694172621,-0.012198169715702534
5900,0.019142406061291695,0.022558514028787613,-0.017366884276270866
6000,0.004422982223331928,0.029372550547122955,-0.018431194126605988
6100,0.0031535811722278595,0.010667703114449978,-0.0051627024076879025
6200,0.0014002146199345589,-0.018028896301984787,0.004631313029676676
6300,-0.010831974446773529,-0.010395662859082222,-0.012541220523416996
6400,-0.004852712154388428,0.0017361806239932775,-0.0021428114268928766
6500,0.02111857756972313,-0.011417469941079617,-0.0003173048608005047
6600,0.0036469846963882446,-0.014331560581922531,-0.0021453294903039932
6700,-0.007437951397150755,0.015119261108338833,-0.0036160226445645094
6800,0.023466093465685844,-0.01675175130367279,0.0190749391913414
6900,0.029229167848825455,0.002025285502895713,0.011239617131650448
7000,0.019047530367970467,-0.000669798580929637,0.014629176817834377
7100,0.0005296654999256134,-0.025232907384634018,-0.003283304162323475
7200,0.014545070938766003,-0.00805678591132164,0.008820883929729462
7300,-0.029789935797452927,-0.005986638832837343,-0.006986225955188274
7400,-0.011403672397136688,0.011737230233848095,-0.010410944931209087
7500,-0.00504665169864893,-0.020716456696391106,-0.008825437165796757
7600,-0.02233090065419674,0.011308707296848297,-0.009914236143231392
7700,-0.029192937538027763,-0.0003206087276339531,-0.009095815941691399
7800,-0.007940544746816158,0.008712681010365486,-0.0013228151947259903
7900,-0.018337445333600044,0.02655176818370819,0.000951079186052084
8000,0.0062223621644079685,-0.029580220580101013,0.013493349775671959
8100,-0.008730406872928143,-0.014482563361525536,-0.009018119424581528
8200,0.01739419624209404,0.0018823263235390186,-0.006142145022749901
8300,0.012893755920231342,0.018623659387230873,0.01809685304760933
8400,0.01376758050173521,0.023265471681952477,0.015118175186216831
8500,0.003906679805368185,0.0348096527159214,0.024329708889126778
8600,-0.021379217505455017,0.005490213632583618,-0.010699915699660778
8700,0.026986734941601753,0.0058305757120251656,0.024237243458628654
8800,-0.003234218107536435,0.03113255277276039,-0.003948076628148556
8900,-0.0038841820787638426,0.005126290954649448,0.017600085586309433
9000,0.01751544326543808,0.006820368580520153,0.010217624716460705
9100,0.0024888201151043177,0.0016288430197164416,0.024160586297512054
9200,0.003280195640400052,-0.0001296409172937274,0.014050007797777653
9300,-0.0018495937110856175,0.0008838663925416768,0.005101747345179319
9400,0.002588466973975301,0.00405801460146904,0.009296982549130917
9500,-0.0032672081142663956,-0.0011869509471580386,0.0055752904154360294
9600,-0.005907875951379538,-0.001127698109485209,0.0025612509343773127
9700,-0.005591168068349361,-0.0011913396883755922,-0.001637504086829722
9800,-0.007649293635040522,0.001029802835546434,-0.0019465073710307479
9900,-0.009647352620959282,-0.0030089612118899822,-0.0010943009983748198
10000,-0.007266386412084103,-0.003866759594529867,-0.004683264996856451
