1,0.5650811195373535
100,0.6765031218528748
200,0.8415775895118713
300,0.8532920479774475
400,0.8835021257400513
500,0.8312007784843445
600,0.6794561147689819
700,0.9484180212020874
800,0.8493616580963135
900,0.9723973274230957
1000,0.9747354388237
1100,0.8232350945472717
1200,1.1009607315063477
1300,0.9333274960517883
1400,0.87046217918396
1500,0.9369767308235168
1600,1.0279215574264526
1700,0.9296655654907227
1800,0.9026250243186951
1900,0.7988177537918091
2000,0.8499842882156372
2100,0.9269372224807739
2200,0.9700987935066223
2300,1.0746971368789673
2400,0.8356663584709167
2500,0.8964397311210632
2600,0.9279345273971558
2700,0.8552499413490295
2800,0.8435811400413513
2900,0.8061351180076599
3000,1.0319079160690308
3100,0.8571344017982483
3200,0.812095582485199
3300,0.8724707365036011
3400,0.9126463532447815
3500,0.8820178508758545
3600,0.8438283205032349
3700,0.9956342577934265
3800,0.9509749412536621
3900,0.7649267911911011
4000,0.8481359481811523
4100,0.8806228637695312
4200,0.9230501651763916
4300,0.9109600782394409
4400,0.8729189038276672
4500,0.8141496181488037
4600,0.9046528935432434
4700,0.9920957088470459
4800,0.8901326060295105
4900,0.8982276916503906
5000,0.9408251047134399
5100,0.9297608733177185
5200,0.8877357244491577
5300,0.9409248232841492
5400,0.8653932809829712
5500,0.9735576510429382
5600,0.9754438996315002
5700,1.0032765865325928
5800,0.93991619348526
5900,0.8781645894050598
6000,0.8614174723625183
6100,0.9044530987739563
6200,0.9160116314888
6300,0.7707087397575378
6400,0.9130980372428894
6500,0.9226644039154053
6600,0.9781196117401123
6700,0.889462411403656
6800,0.8021038174629211
6900,0.8136886358261108
7000,0.9219356179237366
7100,0.8438156843185425
7200,0.8136101365089417
7300,0.8988854289054871
7400,0.9140313863754272
7500,0.8689916729927063
7600,1.0370301008224487
7700,0.8005629181861877
7800,0.7817243933677673
7900,0.8267280459403992
8000,0.8458889126777649
8100,0.8122211694717407
8200,0.9460178017616272
8300,0.798826277256012
8400,0.8073104619979858
8500,0.9363097548484802
8600,0.9750545620918274
8700,0.8713069558143616
8800,1.0076159238815308
8900,0.8730959296226501
9000,0.7805042862892151
9100,0.8441024422645569
9200,0.8747432827949524
9300,0.8866285681724548
9400,0.9004276990890503
9500,0.898948073387146
9600,0.9202464818954468
9700,0.9157616496086121
9800,0.9177542328834534
9900,0.9189550876617432
10000,0.9090705513954163
