1,4.707868576049805
100,1.5976821184158325
200,1.418881893157959
300,1.3344863653182983
400,1.2828927040100098
500,1.2136974334716797
600,1.2334718704223633
700,1.275361180305481
800,1.2619913816452026
900,1.2273359298706055
1000,1.1973791122436523
1100,1.2372547388076782
1200,1.1851146221160889
1300,1.162360429763794
1400,1.1769529581069946
1500,1.1499903202056885
1600,1.16304612159729
1700,1.1299291849136353
1800,1.1500102281570435
1900,1.1584229469299316
2000,1.1113275289535522
2100,1.1163275241851807
2200,1.1203854084014893
2300,1.1372957229614258
2400,1.1178052425384521
2500,1.1528247594833374
2600,1.1466693878173828
2700,1.100126028060913
2800,1.137569546699524
2900,1.1139464378356934
3000,1.1009382009506226
3100,1.1171308755874634
3200,1.1721031665802002
3300,1.1175285577774048
3400,1.1402404308319092
3500,1.1934510469436646
3600,1.1560145616531372
3700,1.1903437376022339
3800,1.1110142469406128
3900,1.1266194581985474
4000,1.109804391860962
4100,1.1446243524551392
4200,1.1029092073440552
4300,1.1205072402954102
4400,1.1131564378738403
4500,1.1209300756454468
4600,1.1059201955795288
4700,1.1465251445770264
4800,1.1583490371704102
4900,1.1262593269348145
5000,1.1574792861938477
5100,1.1476099491119385
5200,1.1127982139587402
5300,1.1305392980575562
5400,1.1205800771713257
5500,1.0888400077819824
5600,1.1229932308197021
5700,1.1023261547088623
5800,1.1877521276474
5900,1.1250858306884766
6000,1.126994013786316
6100,1.1577564477920532
6200,1.1692007780075073
6300,1.1378637552261353
6400,1.1311625242233276
6500,1.1592881679534912
6600,1.1501795053482056
6700,1.1384116411209106
6800,1.122401475906372
6900,1.1127792596817017
7000,1.1254279613494873
7100,1.1178594827651978
7200,1.1455504894256592
7300,1.1292508840560913
7400,1.1428974866867065
7500,1.1191229820251465
7600,1.0997835397720337
7700,1.0761759281158447
7800,1.108525276184082
7900,1.1145681142807007
8000,1.1442859172821045
8100,1.166336178779602
8200,1.1409832239151
8300,1.1602317094802856
8400,1.117765188217163
8500,1.112961769104004
8600,1.154948115348816
8700,1.1049387454986572
8800,1.099165678024292
8900,1.1423786878585815
9000,1.1306432485580444
9100,1.1229519844055176
9200,1.133283257484436
9300,1.1331677436828613
9400,1.1462137699127197
9500,1.1486417055130005
9600,1.145923376083374
9700,1.146507740020752
9800,1.1545639038085938
9900,1.1545021533966064
10000,1.1578034162521362
