1,0.5039235353469849
100,0.7167015075683594
200,0.8844617009162903
300,0.8992025256156921
400,0.9656214714050293
500,0.9406250715255737
600,0.9415666460990906
700,0.9300791621208191
800,0.9672673940658569
900,0.9725635051727295
1000,1.0104584693908691
1100,0.9158957004547119
1200,1.0091853141784668
1300,0.9885280728340149
1400,0.9466555118560791
1500,0.9527599215507507
1600,0.9396976232528687
1700,1.0296356678009033
1800,0.9565232396125793
1900,0.9737013578414917
2000,0.9355229735374451
2100,0.9636867642402649
2200,0.9197579622268677
2300,0.9226747155189514
2400,1.0193041563034058
2500,0.9301748871803284
2600,0.9839702844619751
2700,0.9867048859596252
2800,0.9619135856628418
2900,0.932295024394989
3000,0.9833380579948425
3100,0.9827420115470886
3200,0.9755153059959412
3300,0.9631293416023254
3400,0.9631382822990417
3500,0.9667004346847534
3600,0.9757412672042847
3700,0.943657398223877
3800,0.948370635509491
3900,0.9674884676933289
4000,0.9615804553031921
4100,0.9502336382865906
4200,0.9345033764839172
4300,0.972281813621521
4400,0.9452498555183411
4500,0.9792423248291016
4600,1.0727206468582153
4700,0.9814651012420654
4800,0.9728882312774658
4900,0.9268843531608582
5000,0.9663967490196228
5100,0.9628894329071045
5200,0.9696398377418518
5300,0.9426628351211548
5400,0.9273010492324829
5500,0.9555451273918152
5600,0.9962871074676514
5700,0.9561748504638672
5800,1.0026861429214478
5900,0.9709048867225647
6000,0.9782010912895203
6100,0.9872996807098389
6200,0.9681119322776794
6300,0.9978865385055542
6400,0.9087380170822144
6500,0.9602054357528687
6600,1.0100008249282837
6700,0.9626558423042297
6800,0.9730288982391357
6900,0.9710771441459656
7000,1.007917046546936
7100,1.0039565563201904
7200,0.8924828767776489
7300,0.9681857824325562
7400,1.0236446857452393
7500,0.9823623299598694
7600,0.9649401903152466
7700,0.96363365650177
7800,0.9483309388160706
7900,0.9383849501609802
8000,0.9015699028968811
8100,0.9096050262451172
8200,0.9933955669403076
8300,0.9026471376419067
8400,0.9456415176391602
8500,0.8973011374473572
8600,1.0386903285980225
8700,0.9864342212677002
8800,0.9775508642196655
8900,0.9333202242851257
9000,1.015915870666504
9100,0.9388176798820496
9200,0.9344910383224487
9300,0.9422265291213989
9400,0.9590531587600708
9500,0.9559797048568726
9600,0.9524756073951721
9700,0.9485768675804138
9800,0.9500652551651001
9900,0.9493886828422546
10000,0.9488796591758728
