1,0.4743771553039551,0.44371676445007324,0.4722660779953003,0.4926486313343048
100,0.06834054738283157,0.08236254751682281,0.07964839786291122,0.11898066848516464
200,0.06553823500871658,0.07452183961868286,0.07653176039457321,0.11664377897977829
300,0.0646224170923233,0.0732504203915596,0.07492303103208542,0.11599445343017578
400,0.06388626247644424,0.07252412289381027,0.07505517452955246,0.11610351502895355
500,0.06310348957777023,0.07189853489398956,0.07511354982852936,0.11597983539104462
600,0.063652902841568,0.0717904344201088,0.07501804828643799,0.11624102294445038
700,0.06346502900123596,0.0724460631608963,0.07473473250865936,0.11583836376667023
800,0.06308620423078537,0.07233262062072754,0.07469939440488815,0.11581653356552124
900,0.06359979510307312,0.07286547124385834,0.07530537247657776,0.11580626666545868
1000,0.06288612633943558,0.0719560831785202,0.07473978400230408,0.11641275137662888
1100,0.06257342547178268,0.07230974733829498,0.07480691373348236,0.11603789031505585
1200,0.06284862011671066,0.07258905470371246,0.07504475861787796,0.1156146302819252
1300,0.06341537088155746,0.07251201570034027,0.07490707188844681,0.11549542844295502
1400,0.0631469264626503,0.07282783836126328,0.07468941807746887,0.11566776037216187
1500,0.06326983124017715,0.0722498744726181,0.07458241283893585,0.11582130193710327
1600,0.0633164793252945,0.07190783321857452,0.07518788427114487,0.11569657176733017
1700,0.063248410820961,0.07260306179523468,0.07504120469093323,0.11564549803733826
1800,0.06292856484651566,0.0725196897983551,0.0748375728726387,0.11589369177818298
1900,0.06320293247699738,0.07231301814317703,0.07542359828948975,0.11593567579984665
2000,0.06317192316055298,0.07278600335121155,0.07489743828773499,0.11557862162590027
2100,0.06307867169380188,0.07231565564870834,0.07405028492212296,0.11590613424777985
2200,0.06306719034910202,0.07226452231407166,0.074455127120018,0.1161685436964035
2300,0.062838114798069,0.07214216142892838,0.07470116019248962,0.11582301557064056
2400,0.06298711150884628,0.07275040447711945,0.0741662085056305,0.11593656241893768
2500,0.06327763199806213,0.07194138318300247,0.07503779232501984,0.11611664295196533
2600,0.0632193461060524,0.07259136438369751,0.0747111514210701,0.11590643227100372
2700,0.06294869631528854,0.07213373482227325,0.07527582347393036,0.1158684715628624
2800,0.06292339414358139,0.07331466674804688,0.0744962990283966,0.11620742827653885
2900,0.06330204010009766,0.07275357097387314,0.07410604506731033,0.11557810753583908
3000,0.06291179358959198,0.07298935204744339,0.07475695759057999,0.1159658282995224
3100,0.06301777064800262,0.07234339416027069,0.07434596866369247,0.11609154939651489
3200,0.06315770745277405,0.07252363860607147,0.07444772124290466,0.11631020903587341
3300,0.06345845013856888,0.07232952117919922,0.07390152662992477,0.11628422886133194
3400,0.06325735151767731,0.07272772490978241,0.07412106543779373,0.11573655903339386
3500,0.0632357969880104,0.07214929908514023,0.07451947033405304,0.11594866216182709
3600,0.06295840442180634,0.07210075110197067,0.07532597333192825,0.11588229238986969
3700,0.0626399889588356,0.07266084104776382,0.07486928254365921,0.1158565953373909
3800,0.06309650838375092,0.07274053245782852,0.07477042078971863,0.11568586528301239
3900,0.06260084360837936,0.07218143343925476,0.07440837472677231,0.11575993150472641
4000,0.06263279914855957,0.07204831391572952,0.07394208014011383,0.11625051498413086
4100,0.06315980851650238,0.07207277417182922,0.07453951984643936,0.11550308763980865
4200,0.06329596042633057,0.07245824486017227,0.07494421303272247,0.11614470928907394
4300,0.06309191882610321,0.07269582897424698,0.07452305406332016,0.1158507838845253
4400,0.06303559243679047,0.07171346247196198,0.0742754191160202,0.11606258898973465
4500,0.06294695287942886,0.07215886563062668,0.07455471158027649,0.11625616252422333
4600,0.0632820799946785,0.07193285971879959,0.07518450170755386,0.11549559235572815
4700,0.06276759505271912,0.07283491641283035,0.0747055783867836,0.11597959697246552
4800,0.06327951699495316,0.07256194949150085,0.07453488558530807,0.11590009927749634
4900,0.0625094473361969,0.07223398238420486,0.074190154671669,0.1161627545952797
5000,0.06277979910373688,0.07255390286445618,0.07391798496246338,0.11622028797864914
5100,0.06347861886024475,0.07252392917871475,0.07454296201467514,0.11556524783372879
5200,0.06330597400665283,0.07307815551757812,0.07431349903345108,0.1157182976603508
5300,0.06349120289087296,0.0718318372964859,0.07453716546297073,0.11583685874938965
5400,0.06348991394042969,0.07280345261096954,0.07472319900989532,0.11598536372184753
5500,0.06255459785461426,0.07291178405284882,0.07451267540454865,0.11545729637145996
5600,0.0630696639418602,0.07206600904464722,0.07435876131057739,0.11612711101770401
5700,0.06267385929822922,0.07225406169891357,0.07539195567369461,0.11585697531700134
5800,0.06283624470233917,0.07274173200130463,0.07444628328084946,0.11573941260576248
5900,0.06303921341896057,0.07250931113958359,0.0740189328789711,0.11552539467811584
6000,0.06338652968406677,0.07229044288396835,0.07487242668867111,0.11581955850124359
6100,0.06314822286367416,0.07255509495735168,0.0751814991235733,0.1160069927573204
6200,0.06343687325716019,0.07236824929714203,0.07509935647249222,0.11545775830745697
6300,0.06310898065567017,0.0718173086643219,0.07423701882362366,0.11590459197759628
6400,0.06338342279195786,0.07198591530323029,0.07476182281970978,0.11577904969453812
6500,0.06330014020204544,0.07282477617263794,0.07505223155021667,0.11604074388742447
6600,0.06325128674507141,0.07220364362001419,0.07464040070772171,0.11630070954561234
6700,0.06297294050455093,0.07251809537410736,0.07463722676038742,0.11582611501216888
6800,0.06310220807790756,0.07169249653816223,0.07426892220973969,0.1160595640540123
6900,0.0628587082028389,0.07239051908254623,0.07483946532011032,0.11621424555778503
7000,0.06303459405899048,0.07223132997751236,0.07464949786663055,0.1159605011343956
7100,0.0631169006228447,0.0721912607550621,0.07483234256505966,0.11589912325143814
7200,0.06293997913599014,0.0721605196595192,0.07438796758651733,0.116047203540802
7300,0.06336629390716553,0.0730665773153305,0.0744548887014389,0.1158686950802803
7400,0.062864288687706,0.07251450419425964,0.07448555529117584,0.11606346070766449
7500,0.06264882534742355,0.07185455411672592,0.07394428551197052,0.11586055159568787
7600,0.06360499560832977,0.07284074276685715,0.07408580929040909,0.11568289250135422
7700,0.06296497583389282,0.07297053933143616,0.07424984127283096,0.11582259833812714
7800,0.0631687268614769,0.07271185517311096,0.07402615994215012,0.11541669815778732
7900,0.06311486661434174,0.07256773859262466,0.07472913712263107,0.11542093753814697
8000,0.06357207149267197,0.07213123142719269,0.07445493340492249,0.11588529497385025
8100,0.06325456500053406,0.07198215276002884,0.07436884939670563,0.11535127460956573
8200,0.06305869668722153,0.07214697450399399,0.07490961253643036,0.11594865471124649
8300,0.06303127110004425,0.07278505712747574,0.07476510107517242,0.11584780365228653
8400,0.0630541741847992,0.07262714207172394,0.07520000636577606,0.1158105805516243
8500,0.06294944137334824,0.07229551672935486,0.07417972385883331,0.11604370921850204
8600,0.06315276026725769,0.07233286648988724,0.07542850822210312,0.11557410657405853
8700,0.06284953653812408,0.07230976223945618,0.07422954589128494,0.11560289561748505
8800,0.06337559968233109,0.07314158976078033,0.07493794709444046,0.11597758531570435
8900,0.06333531439304352,0.07186855375766754,0.07546987384557724,0.11578704416751862
9000,0.06310819834470749,0.07274845987558365,0.07435949146747589,0.11597297340631485
9100,0.06326110661029816,0.07238319516181946,0.07462406158447266,0.11572754383087158
9200,0.06317080557346344,0.07236224412918091,0.07458193600177765,0.1157647892832756
9300,0.06319859623908997,0.07255765050649643,0.0745340883731842,0.11580963432788849
9400,0.06316694617271423,0.07242519408464432,0.0746191143989563,0.11590143293142319
9500,0.06309233605861664,0.07232683897018433,0.0745917335152626,0.11584614217281342
9600,0.06313341856002808,0.07229749858379364,0.0745779275894165,0.11583520472049713
9700,0.06309158354997635,0.07220463454723358,0.07458540797233582,0.11581797152757645
9800,0.06308847665786743,0.07224651426076889,0.07461859285831451,0.11576515436172485
9900,0.06309507042169571,0.07232391089200974,0.07461174577474594,0.11577353626489639
10000,0.06308311223983765,0.07234878093004227,0.0745924711227417,0.11583083868026733
