1,0.0,-0.004803060088306665,0.00027155273710377514
100,-0.16180828213691711,-0.08305610716342926,-0.01931426301598549
200,-0.1862901747226715,-0.08890726417303085,-0.019020168110728264
300,-0.20413008332252502,-0.10190380364656448,-0.01899384707212448
400,-0.2093663066625595,-0.10064712911844254,-0.015080887824296951
500,-0.2068060040473938,-0.10136573016643524,-0.015258132480084896
600,-0.20831629633903503,-0.10492512583732605,-0.013222239911556244
700,-0.19681371748447418,-0.11001996695995331,-0.009181495755910873
800,-0.1977638453245163,-0.10122758895158768,-0.009774742648005486
900,-0.1941305547952652,-0.09616599231958389,-0.007859589532017708
1000,-0.1847003996372223,-0.09669429808855057,-0.011033917777240276
1100,-0.1816665530204773,-0.09295092523097992,-0.01050969772040844
1200,-0.1760590672492981,-0.09590549021959305,-0.0091957813128829
1300,-0.18822245299816132,-0.09748701751232147,-0.01118090283125639
1400,-0.18594932556152344,-0.10545182973146439,-0.014462080784142017
1500,-0.18863730132579803,-0.09982732683420181,-0.013117648661136627
1600,-0.19068746268749237,-0.10135205090045929,-0.0136538902297616
1700,-0.1857684850692749,-0.09642419964075089,-0.01332174427807331
1800,-0.1815643012523651,-0.09468807280063629,-0.009381153620779514
1900,-0.1800297349691391,-0.0888516902923584,-0.0077566104009747505
2000,-0.18451710045337677,-0.08263122290372849,-0.007366861216723919
2100,-0.1848383992910385,-0.09300678968429565,-0.011670755222439766
2200,-0.17603923380374908,-0.0991915687918663,-0.013975635170936584
2300,-0.1792232245206833,-0.0981357991695404,-0.007503800094127655
2400,-0.1731662005186081,-0.09671914577484131,-0.009373245760798454
2500,-0.1711861491203308,-0.09547257423400879,-0.011311347596347332
2600,-0.1688828021287918,-0.09148530662059784,-0.008866783231496811
2700,-0.16876664757728577,-0.09538723528385162,-0.010627424344420433
2800,-0.17342081665992737,-0.08783484995365143,-0.008192544803023338
2900,-0.18213795125484467,-0.09101477265357971,-0.008515184745192528
3000,-0.17777839303016663,-0.08921501040458679,-0.007610732689499855
3100,-0.17983636260032654,-0.08235502243041992,-0.006583882961422205
3200,-0.17758867144584656,-0.08334621042013168,-0.004023379180580378
3300,-0.17350007593631744,-0.08579355478286743,-0.005206945352256298
3400,-0.16919633746147156,-0.08699589967727661,-0.003170726355165243
3500,-0.16350030899047852,-0.09493664652109146,-0.006748216692358255
3600,-0.15818578004837036,-0.08315300941467285,-0.004626025445759296
3700,-0.15716996788978577,-0.077606700360775,-0.005424199625849724
3800,-0.1577213853597641,-0.07294400781393051,-0.006404994521290064
3900,-0.16118375957012177,-0.07883074879646301,-0.0009968936210498214
4000,-0.15658457577228546,-0.08049403876066208,-0.0047561475075781345
4100,-0.1528017669916153,-0.08035172522068024,-0.004806476645171642
4200,-0.15272119641304016,-0.08543410152196884,-0.006720908917486668
4300,-0.15943928062915802,-0.08574438840150833,-0.00697743147611618
4400,-0.1594468355178833,-0.08658826351165771,-0.0031944927759468555
4500,-0.1615900993347168,-0.08499455451965332,-0.008686796762049198
4600,-0.1606273651123047,-0.08749333024024963,-0.006028334144502878
4700,-0.15767700970172882,-0.09217569977045059,-0.006837166380137205
4800,-0.15180587768554688,-0.09514583647251129,-0.008065884001553059
4900,-0.15195535123348236,-0.09203143417835236,-0.009331737644970417
5000,-0.1464734971523285,-0.08477909117937088,-0.008282982744276524
5100,-0.14857885241508484,-0.08454033732414246,-0.004891824908554554
5200,-0.15273737907409668,-0.08933509141206741,-0.009895237162709236
5300,-0.1498958319425583,-0.09297656267881393,-0.0054512349888682365
5400,-0.1486489176750183,-0.07879616320133209,-0.004225568380206823
5500,-0.1496664583683014,-0.08049649000167847,-0.0022071118000894785
5600,-0.1460523158311844,-0.0716904029250145,-0.003647951176390052
5700,-0.14231255650520325,-0.06913024932146072,-0.001613473054021597
5800,-0.14107871055603027,-0.06802746653556824,-0.0031388080678880215
5900,-0.14297080039978027,-0.06925290077924728,-0.00034746265737339854
6000,-0.149029940366745,-0.06268606334924698,0.0007295772084034979
6100,-0.14622454345226288,-0.06869589537382126,-0.0038495068438351154
6200,-0.14512205123901367,-0.07321391254663467,-0.004274750594049692
6300,-0.14604118466377258,-0.06606661528348923,-0.0024878187105059624
6400,-0.1497018039226532,-0.07213015109300613,-0.000988705549389124
6500,-0.14838889241218567,-0.07338570058345795,-0.0010480990167707205
6600,-0.14789852499961853,-0.07668344676494598,-0.0024036301765590906
6700,-0.15820418298244476,-0.07749202847480774,-0.0009429091005586088
6800,-0.16059482097625732,-0.08445672690868378,-0.0021422686986625195
6900,-0.1467042714357376,-0.07920340448617935,-0.0023175012320280075
7000,-0.14769412577152252,-0.07698075473308563,-0.002834837883710861
7100,-0.1457318365573883,-0.07208359986543655,-0.0029197779949754477
7200,-0.15245458483695984,-0.07204287499189377,-3.464170004008338e-05
7300,-0.1528506577014923,-0.07369442284107208,-0.004560885950922966
7400,-0.14993581175804138,-0.06998822093009949,-0.002648954512551427
7500,-0.14850977063179016,-0.07133492082357407,-0.0019241421250626445
7600,-0.1475605070590973,-0.07463466376066208,-0.0042644040659070015
7700,-0.14829441905021667,-0.07979751378297806,-0.003943989984691143
7800,-0.15613022446632385,-0.08376522362232208,-0.0018981534522026777
7900,-0.14965136349201202,-0.08378546684980392,-0.002153107663616538
8000,-0.15071144700050354,-0.08001615107059479,-0.004472666420042515
8100,-0.1519632190465927,-0.0799688920378685,-0.005805280525237322
8200,-0.149430051445961,-0.0793846845626831,-0.006935485638678074
8300,-0.15080483257770538,-0.08777930587530136,-0.007695917971432209
8400,-0.1563558131456375,-0.0843050479888916,-0.0030235175509005785
8500,-0.14694660902023315,-0.08585865795612335,-0.007419537752866745
8600,-0.1473229080438614,-0.09035217761993408,-0.003288691397756338
8700,-0.14127174019813538,-0.09538043290376663,-0.006410034839063883
8800,-0.13706617057323456,-0.09607718884944916,-0.005563480779528618
8900,-0.1439635008573532,-0.08844911307096481,-0.0052827103063464165
9000,-0.1491498202085495,-0.08606719225645065,-0.007564295083284378
9100,-0.14984942972660065,-0.09083183109760284,-0.006447405554354191
9200,-0.15156127512454987,-0.08871382474899292,-0.006328787188977003
9300,-0.15314608812332153,-0.08854919672012329,-0.006421220023185015
9400,-0.15310172736644745,-0.09257665276527405,-0.006264091469347477
9500,-0.15148569643497467,-0.09262655675411224,-0.00696501974016428
9600,-0.15264004468917847,-0.09276101738214493,-0.0068502966314554214
9700,-0.15123417973518372,-0.09377383440732956,-0.006762458942830563
9800,-0.15170271694660187,-0.09530006349086761,-0.007330909371376038
9900,-0.15242040157318115,-0.09380465745925903,-0.006794971413910389
10000,-0.15269356966018677,-0.09088985621929169,-0.006427977234125137
