1,1.160210132598877,0.41149595379829407,0.35735049843788147,1.8126983642578125
100,1.5858012437820435,0.4412061870098114,0.417964905500412,2.0003867149353027
200,1.72882878780365,0.48721882700920105,0.45395123958587646,2.0284533500671387
300,1.8215166330337524,0.5461592078208923,0.4763532876968384,2.088144063949585
400,1.8894721269607544,0.5940439701080322,0.5329722166061401,2.1100246906280518
500,1.9465670585632324,0.693093478679657,0.5761673450469971,2.141496181488037
600,2.0349745750427246,0.7191672921180725,0.6381731033325195,2.1737568378448486
700,2.062671184539795,0.8223637342453003,0.6696083545684814,2.165738582611084
800,2.0670595169067383,0.8900166153907776,0.6998407244682312,2.175727367401123
900,2.0865793228149414,0.8888608813285828,0.7368738055229187,2.1873700618743896
1000,2.068901538848877,0.9405715465545654,0.7923408150672913,2.2324953079223633
1100,2.161163330078125,0.9842076897621155,0.8139800429344177,2.258204460144043
1200,2.1729915142059326,1.0088049173355103,0.885956883430481,2.2774717807769775
1300,2.1626169681549072,1.0003069639205933,0.857140064239502,2.272153615951538
1400,2.1192002296447754,1.0081703662872314,0.8936341404914856,2.2816038131713867
1500,2.1135575771331787,1.0430234670639038,0.9271773099899292,2.2682383060455322
1600,2.104409694671631,1.0673002004623413,0.9379969835281372,2.324796438217163
1700,2.1046459674835205,1.092733383178711,0.9971649646759033,2.2937793731689453
1800,2.082503080368042,1.129187822341919,0.976009726524353,2.2604496479034424
1900,2.128493547439575,1.1573224067687988,0.9170491695404053,2.2670369148254395
2000,2.161992311477661,1.16018545627594,0.9718613028526306,2.2773947715759277
2100,2.156578779220581,1.1306161880493164,0.9536730051040649,2.3087565898895264
2200,2.206240177154541,1.143330693244934,1.0150835514068604,2.367370843887329
2300,2.2546322345733643,1.1709132194519043,1.0132553577423096,2.34385085105896
2400,2.2404887676239014,1.199711561203003,1.0512977838516235,2.3370168209075928
2500,2.2178125381469727,1.2199238538742065,1.0395783185958862,2.366448402404785
2600,2.2316553592681885,1.1703823804855347,1.0680208206176758,2.330904722213745
2700,2.2368879318237305,1.173443078994751,1.073672890663147,2.3577351570129395
2800,2.267914056777954,1.1986703872680664,1.0390924215316772,2.3718011379241943
2900,2.2842166423797607,1.230000376701355,1.0945677757263184,2.392338752746582
3000,2.301210403442383,1.1991640329360962,1.0549373626708984,2.3784613609313965
3100,2.30918025970459,1.2255139350891113,1.0176191329956055,2.36942720413208
3200,2.326917886734009,1.255836009979248,1.0312111377716064,2.3708415031433105
3300,2.334280252456665,1.2817484140396118,1.0493555068969727,2.361639976501465
3400,2.314358711242676,1.31434965133667,1.0574097633361816,2.3548130989074707
3500,2.326963424682617,1.3088712692260742,1.0427052974700928,2.3501102924346924
3600,2.3010103702545166,1.3413898944854736,1.097528338432312,2.3758482933044434
3700,2.2995314598083496,1.365695595741272,1.1102466583251953,2.3746845722198486
3800,2.3265559673309326,1.3567289113998413,1.0968965291976929,2.421745538711548
3900,2.3777809143066406,1.3854734897613525,1.0855399370193481,2.350872278213501
4000,2.362769603729248,1.4120023250579834,1.0620523691177368,2.3874239921569824
4100,2.3849375247955322,1.4146124124526978,1.08354651927948,2.390599250793457
4200,2.3298757076263428,1.4065635204315186,1.0913820266723633,2.381633758544922
4300,2.33231782913208,1.37362539768219,1.1396429538726807,2.3826096057891846
4400,2.323737859725952,1.3781746625900269,1.160994052886963,2.354759693145752
4500,2.2937002182006836,1.375491738319397,1.1291193962097168,2.3807907104492188
4600,2.334320068359375,1.3809083700180054,1.124632477760315,2.400908946990967
4700,2.3398914337158203,1.4178622961044312,1.122084617614746,2.388309955596924
4800,2.3151485919952393,1.3972349166870117,1.1452372074127197,2.4038877487182617
4900,2.3047571182250977,1.4050990343093872,1.136514663696289,2.3803086280822754
5000,2.2906291484832764,1.4094433784484863,1.1058342456817627,2.396314859390259
5100,2.3142125606536865,1.4002116918563843,1.169342041015625,2.38631010055542
5200,2.3538546562194824,1.3607029914855957,1.1646831035614014,2.4633736610412598
5300,2.3491642475128174,1.3726741075515747,1.1445367336273193,2.390784502029419
5400,2.353641986846924,1.4157559871673584,1.1220709085464478,2.401024103164673
5500,2.3790855407714844,1.4139430522918701,1.1011954545974731,2.356868028640747
5600,2.3818047046661377,1.4265424013137817,1.1582403182983398,2.402940511703491
5700,2.4053268432617188,1.4399179220199585,1.175750970840454,2.385427951812744
5800,2.442431688308716,1.4420262575149536,1.1794685125350952,2.44020938873291
5900,2.4768991470336914,1.4814926385879517,1.183573842048645,2.4599103927612305
6000,2.4579708576202393,1.4401508569717407,1.1837420463562012,2.414579153060913
6100,2.418774366378784,1.4459357261657715,1.1848877668380737,2.44248366355896
6200,2.4293627738952637,1.4212504625320435,1.2403168678283691,2.4598395824432373
6300,2.4665729999542236,1.4621659517288208,1.2714117765426636,2.47635555267334
6400,2.5089502334594727,1.462889552116394,1.2488092184066772,2.4805660247802734
6500,2.5157601833343506,1.4368976354599,1.2376316785812378,2.460714340209961
6600,2.543208122253418,1.471967101097107,1.2208198308944702,2.4695706367492676
6700,2.5267882347106934,1.3986001014709473,1.1509325504302979,2.4434213638305664
6800,2.4957637786865234,1.438018798828125,1.141183614730835,2.450369358062744
6900,2.5336713790893555,1.4457333087921143,1.1637028455734253,2.476909637451172
7000,2.49128794670105,1.4398293495178223,1.1767079830169678,2.4843196868896484
7100,2.4812047481536865,1.445246934890747,1.158895492553711,2.468308687210083
7200,2.5009593963623047,1.4289848804473877,1.1932896375656128,2.457832098007202
7300,2.4428508281707764,1.4174563884735107,1.2261199951171875,2.468862533569336
7400,2.4692652225494385,1.4092384576797485,1.1814112663269043,2.4593043327331543
7500,2.43487286567688,1.407042145729065,1.1699707508087158,2.446807861328125
7600,2.4425365924835205,1.3897444009780884,1.21107816696167,2.4481143951416016
7700,2.4487462043762207,1.4077141284942627,1.1894290447235107,2.454519748687744
7800,2.473906993865967,1.3888064622879028,1.1159656047821045,2.401740312576294
7900,2.458160400390625,1.4567373991012573,1.1225934028625488,2.408864974975586
8000,2.4789724349975586,1.3665251731872559,1.2084029912948608,2.472337245941162
8100,2.4547829627990723,1.3416732549667358,1.2025675773620605,2.4724159240722656
8200,2.420367956161499,1.3271158933639526,1.2120485305786133,2.4547736644744873
8300,2.436643600463867,1.3196520805358887,1.1927040815353394,2.4735171794891357
8400,2.4703922271728516,1.3575738668441772,1.1958109140396118,2.4498448371887207
8500,2.4466781616210938,1.4018361568450928,1.2114752531051636,2.4864487648010254
8600,2.505007028579712,1.3973716497421265,1.193476915359497,2.445070743560791
8700,2.4603183269500732,1.4067633152008057,1.1717450618743896,2.4239985942840576
8800,2.4328739643096924,1.432277798652649,1.1917310953140259,2.4209675788879395
8900,2.4177186489105225,1.44504976272583,1.2117706537246704,2.4204728603363037
9000,2.4129486083984375,1.4030144214630127,1.192495584487915,2.4616286754608154
9100,2.4309139251708984,1.3682140111923218,1.1850532293319702,2.450824499130249
9200,2.4361205101013184,1.3785754442214966,1.1867858171463013,2.451716661453247
9300,2.4387195110321045,1.3748325109481812,1.184476613998413,2.4566738605499268
9400,2.4403908252716064,1.3799302577972412,1.1825873851776123,2.4500882625579834
9500,2.439256429672241,1.377305507659912,1.1826657056808472,2.4532904624938965
9600,2.438016414642334,1.3794779777526855,1.1833617687225342,2.453158140182495
9700,2.441779375076294,1.3853349685668945,1.1828771829605103,2.4518651962280273
9800,2.4398880004882812,1.386561393737793,1.1858320236206055,2.4564476013183594
9900,2.4400410652160645,1.384422779083252,1.1871294975280762,2.4562697410583496
10000,2.4375476837158203,1.3831943273544312,1.18702232837677,2.4559998512268066
