1,4.653632164001465
100,1.5293970108032227
200,1.3675458431243896
300,1.2446027994155884
400,1.2588422298431396
500,1.2296671867370605
600,1.22197425365448
700,1.2233749628067017
800,1.1665924787521362
900,1.1794298887252808
1000,1.154558539390564
1100,1.1514408588409424
1200,1.1496434211730957
1300,1.131435513496399
1400,1.1232229471206665
1500,1.1327581405639648
1600,1.1638784408569336
1700,1.122410535812378
1800,1.1386343240737915
1900,1.1566033363342285
2000,1.1803009510040283
2100,1.1263902187347412
2200,1.1180181503295898
2300,1.1295109987258911
2400,1.123395323753357
2500,1.117540955543518
2600,1.1330245733261108
2700,1.1126997470855713
2800,1.1313202381134033
2900,1.1387155055999756
3000,1.107947826385498
3100,1.1324704885482788
3200,1.1589534282684326
3300,1.1320089101791382
3400,1.1214836835861206
3500,1.1573841571807861
3600,1.122955560684204
3700,1.0826225280761719
3800,1.1097917556762695
3900,1.104351282119751
4000,1.0767505168914795
4100,1.0719314813613892
4200,1.069678544998169
4300,1.1024043560028076
4400,1.110727071762085
4500,1.1346080303192139
4600,1.090804100036621
4700,1.122380018234253
4800,1.136971354484558
4900,1.1171730756759644
5000,1.140243411064148
5100,1.103415846824646
5200,1.123031735420227
5300,1.1023869514465332
5400,1.1150226593017578
5500,1.11859929561615
5600,1.0953351259231567
5700,1.065242052078247
5800,1.0965356826782227
5900,1.1071443557739258
6000,1.0890980958938599
6100,1.077955722808838
6200,1.0983257293701172
6300,1.1148340702056885
6400,1.1199419498443604
6500,1.097160816192627
6600,1.1197644472122192
6700,1.0864207744598389
6800,1.126184344291687
6900,1.0716851949691772
7000,1.102190613746643
7100,1.1058458089828491
7200,1.1279855966567993
7300,1.156302809715271
7400,1.1135649681091309
7500,1.0930768251419067
7600,1.1199374198913574
7700,1.0729552507400513
7800,1.0692156553268433
7900,1.1444836854934692
8000,1.0933992862701416
8100,1.110896348953247
8200,1.127087950706482
8300,1.0856071710586548
8400,1.074696660041809
8500,1.0687365531921387
8600,1.0999525785446167
8700,1.1088038682937622
8800,1.0792303085327148
8900,1.0733165740966797
9000,1.0988048315048218
9100,1.0933738946914673
9200,1.0917097330093384
9300,1.0923477411270142
9400,1.0959947109222412
9500,1.099572777748108
9600,1.1004104614257812
9700,1.1016699075698853
9800,1.1049821376800537
9900,1.1061322689056396
10000,1.0995351076126099
