1,0.5888156890869141
100,0.6422260999679565
200,0.6600705981254578
300,0.6708893179893494
400,0.6821908354759216
500,0.6993831396102905
600,0.7289937138557434
700,0.759824275970459
800,0.7693053483963013
900,0.7728625535964966
1000,0.802570104598999
1100,0.8051227331161499
1200,0.8174332976341248
1300,0.858830451965332
1400,0.884743332862854
1500,0.9141145348548889
1600,0.9364342093467712
1700,0.9878421425819397
1800,1.0156852006912231
1900,1.0429519414901733
2000,1.0548515319824219
2100,1.0669407844543457
2200,1.0869711637496948
2300,1.101539134979248
2400,1.1201300621032715
2500,1.1502186059951782
2600,1.172016978263855
2700,1.190408706665039
2800,1.209468126296997
2900,1.2230695486068726
3000,1.2452960014343262
3100,1.2567930221557617
3200,1.2574214935302734
3300,1.2717341184616089
3400,1.2744814157485962
3500,1.2777036428451538
3600,1.2942299842834473
3700,1.2977603673934937
3800,1.314882516860962
3900,1.3276817798614502
4000,1.3421316146850586
4100,1.350966215133667
4200,1.3601619005203247
4300,1.3788375854492188
4400,1.4117683172225952
4500,1.4257009029388428
4600,1.4454723596572876
4700,1.4646494388580322
4800,1.4797327518463135
4900,1.4853547811508179
5000,1.4902527332305908
5100,1.503156065940857
5200,1.5111883878707886
5300,1.5231834650039673
5400,1.5326910018920898
5500,1.5450899600982666
5600,1.5711108446121216
5700,1.5875238180160522
5800,1.5897822380065918
5900,1.598436951637268
6000,1.6041454076766968
6100,1.6068421602249146
6200,1.613896369934082
6300,1.6124460697174072
6400,1.610183596611023
6500,1.6140166521072388
6600,1.6169601678848267
6700,1.6311107873916626
6800,1.6432406902313232
6900,1.6283737421035767
7000,1.630717396736145
7100,1.6421505212783813
7200,1.6695047616958618
7300,1.68008553981781
7400,1.6778881549835205
7500,1.6872347593307495
7600,1.6821348667144775
7700,1.6993693113327026
7800,1.7168209552764893
7900,1.713731288909912
8000,1.7282401323318481
8100,1.7521837949752808
8200,1.7549725770950317
8300,1.7469182014465332
8400,1.7438762187957764
8500,1.7523990869522095
8600,1.764930009841919
8700,1.7579032182693481
8800,1.7626838684082031
8900,1.7711399793624878
9000,1.7611366510391235
9100,1.7698636054992676
9200,1.766291856765747
9300,1.7645492553710938
9400,1.7669126987457275
9500,1.7667142152786255
9600,1.7670741081237793
9700,1.77113938331604
9800,1.772078275680542
9900,1.7673295736312866
10000,1.7667969465255737
