1,0.7364882826805115
100,0.7463861107826233
200,0.7532485127449036
300,0.7637713551521301
400,0.7882358431816101
500,0.8095306158065796
600,0.8334444165229797
700,0.8799859285354614
800,0.8854862451553345
900,0.8795085549354553
1000,0.9099438190460205
1100,0.9214824438095093
1200,0.9487996101379395
1300,0.9889652729034424
1400,1.0302417278289795
1500,1.0492286682128906
1600,1.0586379766464233
1700,1.0946316719055176
1800,1.1304175853729248
1900,1.1651629209518433
2000,1.178032636642456
2100,1.1905386447906494
2200,1.2067532539367676
2300,1.2252146005630493
2400,1.2529176473617554
2500,1.2909271717071533
2600,1.3231303691864014
2700,1.3344745635986328
2800,1.3543606996536255
2900,1.3707374334335327
3000,1.3973265886306763
3100,1.4044355154037476
3200,1.3830729722976685
3300,1.4090955257415771
3400,1.405308485031128
3500,1.4102990627288818
3600,1.4168181419372559
3700,1.4253687858581543
3800,1.4357261657714844
3900,1.4648898839950562
4000,1.4915252923965454
4100,1.505916953086853
4200,1.5396015644073486
4300,1.5475924015045166
4400,1.5542587041854858
4500,1.5463907718658447
4600,1.5610392093658447
4700,1.564231276512146
4800,1.5531662702560425
4900,1.5717523097991943
5000,1.5527175664901733
5100,1.5637071132659912
5200,1.569406270980835
5300,1.576125144958496
5400,1.5980806350708008
5500,1.5902668237686157
5600,1.6064919233322144
5700,1.6144360303878784
5800,1.6238771677017212
5900,1.6423803567886353
6000,1.6427565813064575
6100,1.644032597541809
6200,1.6473902463912964
6300,1.6639738082885742
6400,1.652874231338501
6500,1.6293869018554688
6600,1.6305005550384521
6700,1.629926085472107
6800,1.6332132816314697
6900,1.6332383155822754
7000,1.627435564994812
7100,1.6298364400863647
7200,1.6581798791885376
7300,1.6479790210723877
7400,1.641556978225708
7500,1.6460169553756714
7600,1.6297672986984253
7700,1.627011775970459
7800,1.6521356105804443
7900,1.6491867303848267
8000,1.643324851989746
8100,1.6633886098861694
8200,1.6703393459320068
8300,1.6617531776428223
8400,1.6512023210525513
8500,1.664959192276001
8600,1.6669418811798096
8700,1.6698178052902222
8800,1.6586124897003174
8900,1.6919524669647217
9000,1.6851227283477783
9100,1.6881204843521118
9200,1.689353108406067
9300,1.6905020475387573
9400,1.6894621849060059
9500,1.6895344257354736
9600,1.6921788454055786
9700,1.6967159509658813
9800,1.7033404111862183
9900,1.7044453620910645
10000,1.7019919157028198
