1,2.4146294593811035
100,2.5050394535064697
200,2.4271488189697266
300,2.3646678924560547
400,2.3320565223693848
500,2.151608943939209
600,2.0635759830474854
700,1.9784388542175293
800,1.897698163986206
900,1.8674079179763794
1000,1.7590121030807495
1100,1.6693875789642334
1200,1.6475119590759277
1300,1.5693610906600952
1400,1.5749298334121704
1500,1.5414700508117676
1600,1.511522650718689
1700,1.40449059009552
1800,1.4513471126556396
1900,1.472099781036377
2000,1.4051709175109863
2100,1.4108390808105469
2200,1.3769761323928833
2300,1.373918890953064
2400,1.3375251293182373
2500,1.3413739204406738
2600,1.2817658185958862
2700,1.275066614151001
2800,1.3255479335784912
2900,1.3850300312042236
3000,1.4046443700790405
3100,1.4590940475463867
3200,1.4374988079071045
3300,1.4515451192855835
3400,1.4491760730743408
3500,1.450202226638794
3600,1.4131492376327515
3700,1.388108730316162
3800,1.336680293083191
3900,1.37239670753479
4000,1.2636569738388062
4100,1.321970820426941
4200,1.3127899169921875
4300,1.3627560138702393
4400,1.297027587890625
4500,1.3818293809890747
4600,1.3700032234191895
4700,1.324717402458191
4800,1.3277721405029297
4900,1.3349080085754395
5000,1.3344067335128784
5100,1.2643778324127197
5200,1.2793081998825073
5300,1.222904920578003
5400,1.2971041202545166
5500,1.295919418334961
5600,1.2696239948272705
5700,1.2587138414382935
5800,1.212234616279602
5900,1.2038360834121704
6000,1.2766528129577637
6100,1.2390180826187134
6200,1.2385631799697876
6300,1.2302908897399902
6400,1.3116967678070068
6500,1.37345552444458
6600,1.3672035932540894
6700,1.3674765825271606
6800,1.4404240846633911
6900,1.3045945167541504
7000,1.318166971206665
7100,1.3136041164398193
7200,1.376376986503601
7300,1.3982456922531128
7400,1.4252510070800781
7500,1.4386613368988037
7600,1.3970495462417603
7700,1.3622976541519165
7800,1.42042076587677
7900,1.4263685941696167
8000,1.349060297012329
8100,1.3199201822280884
8200,1.3551713228225708
8300,1.4142528772354126
8400,1.3540371656417847
8500,1.353560209274292
8600,1.330446720123291
8700,1.3219163417816162
8800,1.3260784149169922
8900,1.2474998235702515
9000,1.3007614612579346
9100,1.332201361656189
9200,1.3361921310424805
9300,1.3314827680587769
9400,1.330298900604248
9500,1.3321032524108887
9600,1.331913948059082
9700,1.3282698392868042
9800,1.3295928239822388
9900,1.3270635604858398
10000,1.3254550695419312
