1,-4.666696548461914,-0.92988520860672,-2.3472230434417725,-2.5462255477905273
100,-4.945706844329834,-1.564118504524231,-2.014869451522827,-3.596681833267212
200,-4.741494655609131,-1.6023660898208618,-1.7968610525131226,-3.480698347091675
300,-4.325615882873535,-1.553210735321045,-1.6730514764785767,-3.362543821334839
400,-3.8391377925872803,-1.6504508256912231,-1.7041137218475342,-3.404759645462036
500,-3.0947296619415283,-1.7082877159118652,-1.7753686904907227,-3.272063732147217
600,-2.9284355640411377,-1.7933586835861206,-1.8464049100875854,-3.343881130218506
700,-2.827549695968628,-1.866481900215149,-1.933907389640808,-3.3683648109436035
800,-2.759037494659424,-1.879815697669983,-1.955137848854065,-3.3123369216918945
900,-2.770488739013672,-1.9055848121643066,-1.9877972602844238,-3.352267026901245
1000,-2.751849412918091,-1.9587993621826172,-2.011507749557495,-3.348552942276001
1100,-2.8232228755950928,-1.91090989112854,-1.998154640197754,-3.346273899078369
1200,-2.9242022037506104,-2.027742624282837,-2.1005756855010986,-3.5201101303100586
1300,-2.859482765197754,-2.0105419158935547,-2.0778648853302,-3.4286611080169678
1400,-2.799776792526245,-1.9628525972366333,-1.9931714534759521,-3.359490394592285
1500,-2.835577964782715,-1.9774234294891357,-2.0257222652435303,-3.418830156326294
1600,-2.878682851791382,-1.9629122018814087,-2.028893232345581,-3.4044270515441895
1700,-2.892893075942993,-2.0209908485412598,-2.0697503089904785,-3.461716413497925
1800,-2.846302032470703,-1.9990286827087402,-1.9635591506958008,-3.3631536960601807
1900,-2.819955348968506,-1.939568281173706,-1.9543744325637817,-3.3181803226470947
2000,-2.902339220046997,-2.02579665184021,-2.048938751220703,-3.430361032485962
2100,-2.8931007385253906,-1.973327875137329,-2.0496766567230225,-3.3565256595611572
2200,-2.8562867641448975,-1.9899989366531372,-2.019793748855591,-3.3888344764709473
2300,-2.939706325531006,-2.0219671726226807,-2.0807955265045166,-3.413404703140259
2400,-2.9417669773101807,-2.0431060791015625,-2.0625863075256348,-3.4139811992645264
2500,-2.8833088874816895,-1.97449791431427,-2.009099245071411,-3.3675971031188965
2600,-2.9153873920440674,-2.077451467514038,-2.0890016555786133,-3.4545693397521973
2700,-2.9576468467712402,-2.0947437286376953,-2.0983123779296875,-3.440868854522705
2800,-2.9501194953918457,-2.0649631023406982,-2.060786247253418,-3.417619228363037
2900,-2.952430486679077,-2.086268424987793,-2.0675277709960938,-3.4508399963378906
3000,-2.8942952156066895,-2.013596296310425,-2.0237512588500977,-3.408452033996582
3100,-2.890974998474121,-2.0221681594848633,-2.0679264068603516,-3.4109489917755127
3200,-2.9769229888916016,-2.095618963241577,-2.1238789558410645,-3.5034334659576416
3300,-3.015131950378418,-2.131826877593994,-2.1528923511505127,-3.5071136951446533
3400,-2.95754337310791,-2.0751054286956787,-2.0996575355529785,-3.4671475887298584
3500,-2.812723159790039,-2.0038931369781494,-2.0051474571228027,-3.3345603942871094
3600,-2.8533902168273926,-1.9943028688430786,-2.0176897048950195,-3.3843154907226562
3700,-2.8932044506073,-2.048168659210205,-2.0948493480682373,-3.484358072280884
3800,-2.8741040229797363,-2.029531478881836,-2.018007755279541,-3.401768922805786
3900,-2.920154333114624,-2.001406192779541,-2.014503002166748,-3.3796393871307373
4000,-2.9693751335144043,-2.1054322719573975,-2.0895395278930664,-3.47281551361084
4100,-2.920942783355713,-2.0345160961151123,-2.077739715576172,-3.407546281814575
4200,-2.8401119709014893,-1.9772557020187378,-2.0158796310424805,-3.3749914169311523
4300,-2.8985631465911865,-2.1156535148620605,-2.1510915756225586,-3.4801580905914307
4400,-2.8902769088745117,-2.0343356132507324,-2.1043057441711426,-3.4478564262390137
4500,-2.866997241973877,-1.9804816246032715,-2.0170233249664307,-3.373295307159424
4600,-2.906341075897217,-1.9786794185638428,-2.009387254714966,-3.400028705596924
4700,-2.8932206630706787,-2.0521764755249023,-2.046642303466797,-3.4333090782165527
4800,-2.8610875606536865,-1.9842585325241089,-1.989711880683899,-3.372657060623169
4900,-2.8979122638702393,-2.029341220855713,-2.055711030960083,-3.4356849193573
5000,-2.8616576194763184,-2.069382667541504,-2.048929452896118,-3.4257028102874756
5100,-2.9513046741485596,-2.0381200313568115,-2.1035501956939697,-3.448439359664917
5200,-2.9540812969207764,-1.9855588674545288,-2.0595741271972656,-3.4245753288269043
5300,-2.9232370853424072,-2.098776340484619,-2.1074378490448,-3.4678938388824463
5400,-2.9749844074249268,-2.0962233543395996,-2.1271069049835205,-3.465808629989624
5500,-2.9880893230438232,-2.1002142429351807,-2.106492042541504,-3.4994311332702637
5600,-2.9840686321258545,-2.064330816268921,-2.070925712585449,-3.4741897583007812
5700,-2.8459250926971436,-2.0047953128814697,-2.056734323501587,-3.3887510299682617
5800,-2.9215011596679688,-2.060438394546509,-2.086667776107788,-3.4063096046447754
5900,-2.947962522506714,-2.0932178497314453,-2.091728448867798,-3.448545455932617
6000,-2.9277548789978027,-2.0530714988708496,-2.0994293689727783,-3.437760591506958
6100,-2.9704039096832275,-2.0871288776397705,-2.101806640625,-3.464959144592285
6200,-2.9311587810516357,-2.0412259101867676,-2.113464832305908,-3.4606385231018066
6300,-2.936858892440796,-2.076835870742798,-2.107436180114746,-3.4583663940429688
6400,-2.9117913246154785,-2.016948699951172,-2.0485455989837646,-3.3904194831848145
6500,-2.8715498447418213,-2.0136709213256836,-2.0069570541381836,-3.336636543273926
6600,-2.941251277923584,-2.0570526123046875,-2.0632197856903076,-3.4292094707489014
6700,-2.917652130126953,-2.011470317840576,-2.045656681060791,-3.39815616607666
6800,-2.9096596240997314,-2.0287230014801025,-2.063265800476074,-3.44469952583313
6900,-2.931971549987793,-2.0151236057281494,-2.045996904373169,-3.404618978500366
7000,-2.9299497604370117,-2.063642740249634,-2.0788543224334717,-3.453019618988037
7100,-2.892916202545166,-2.1112396717071533,-2.0850789546966553,-3.426154851913452
7200,-2.7800087928771973,-1.9671988487243652,-2.0076069831848145,-3.3597819805145264
7300,-2.849135398864746,-2.034881353378296,-2.0549142360687256,-3.42354679107666
7400,-2.8656718730926514,-2.097057580947876,-2.0965771675109863,-3.4149081707000732
7500,-2.8917899131774902,-2.0899243354797363,-2.11435866355896,-3.473686933517456
7600,-2.896805763244629,-1.9872424602508545,-2.0285189151763916,-3.4104342460632324
7700,-2.8124849796295166,-1.973526120185852,-2.002324342727661,-3.3805527687072754
7800,-2.8277761936187744,-1.9676648378372192,-1.9923423528671265,-3.366103410720825
7900,-2.846041679382324,-1.947054386138916,-2.0260977745056152,-3.3745877742767334
8000,-2.882239580154419,-2.0182886123657227,-2.0564496517181396,-3.3958053588867188
8100,-2.895111083984375,-2.023876428604126,-2.0519769191741943,-3.4522793292999268
8200,-2.8908395767211914,-2.0111842155456543,-2.047757863998413,-3.416259765625
8300,-2.906078577041626,-2.0325350761413574,-2.0608301162719727,-3.4407401084899902
8400,-2.922197103500366,-1.995962381362915,-2.046233654022217,-3.398538112640381
8500,-2.9470973014831543,-2.089311361312866,-2.124704360961914,-3.4772934913635254
8600,-2.8783035278320312,-1.9969755411148071,-2.044802188873291,-3.4177510738372803
8700,-2.933739185333252,-2.017739772796631,-2.0764572620391846,-3.431579351425171
8800,-2.909430742263794,-2.0485012531280518,-2.070582151412964,-3.4304845333099365
8900,-2.8609983921051025,-1.9722342491149902,-2.018221139907837,-3.378710985183716
9000,-2.8757219314575195,-2.0228676795959473,-2.0639359951019287,-3.399115800857544
9100,-2.8840718269348145,-2.031198263168335,-2.05529522895813,-3.401447296142578
9200,-2.870185136795044,-2.011918544769287,-2.049644708633423,-3.3967065811157227
9300,-2.8741486072540283,-2.0246336460113525,-2.061851978302002,-3.404332399368286
9400,-2.878156900405884,-2.0309295654296875,-2.0673511028289795,-3.4086670875549316
9500,-2.869670867919922,-2.022523880004883,-2.0618152618408203,-3.4053852558135986
9600,-2.8724937438964844,-2.026008367538452,-2.0607571601867676,-3.408703565597534
9700,-2.878819465637207,-2.027949094772339,-2.0595455169677734,-3.413231372833252
9800,-2.8773486614227295,-2.0283734798431396,-2.0609488487243652,-3.4112746715545654
9900,-2.882850408554077,-2.031297206878662,-2.061469793319702,-3.41109037399292
10000,-2.883728265762329,-2.0313093662261963,-2.0624051094055176,-3.412548065185547
