0,5.0
1,4.8129563331604
2,4.777138710021973
3,4.640727996826172
4,4.546249866485596
5,4.409493446350098
6,4.356968402862549
7,4.248084545135498
8,4.128255367279053
9,3.9704031944274902
10,3.866445541381836
11,3.7315804958343506
12,3.6540534496307373
13,3.523192882537842
14,3.416581392288208
15,3.2953991889953613
16,3.15354585647583
17,3.0762054920196533
18,2.9069557189941406
19,2.784166097640991
20,2.671121120452881
21,2.539954900741577
22,2.499377489089966
23,2.4249486923217773
24,2.3085262775421143
25,2.29435396194458
26,2.337177276611328
27,2.3512279987335205
28,2.3647994995117188
29,2.353283643722534
30,2.3301234245300293
31,2.290722131729126
32,2.29638934135437
33,2.293306827545166
34,2.315042734146118
35,2.319599151611328
36,2.3269176483154297
37,2.274261713027954
38,2.2839791774749756
39,2.3046176433563232
40,2.3202621936798096
41,2.3260040283203125
42,2.3033759593963623
43,2.3240058422088623
44,2.3306355476379395
45,2.298565149307251
46,2.292367935180664
47,2.312471389770508
48,2.3010549545288086
49,2.3023629188537598
50,2.300261974334717
51,2.3123891353607178
52,2.29646635055542
53,2.309596300125122
54,2.3114118576049805
55,2.311075210571289
56,2.322380781173706
57,2.306065797805786
58,2.3180785179138184
59,2.3194408416748047
60,2.349414587020874
61,2.3710083961486816
62,2.3689687252044678
63,2.337597608566284
64,2.346343755722046
65,2.3411781787872314
66,2.359527111053467
67,2.3430464267730713
68,2.3121869564056396
69,2.3169853687286377
70,2.300666570663452
71,2.315884590148926
72,2.308420181274414
73,2.3217108249664307
74,2.3025453090667725
75,2.2992987632751465
76,2.293299913406372
77,2.287292957305908
78,2.284034252166748
79,2.333463191986084
80,2.315627098083496
81,2.343071699142456
82,2.366074562072754
83,2.36033296585083
84,2.362229108810425
85,2.3632380962371826
86,2.3769283294677734
87,2.407409429550171
88,2.405926465988159
89,2.422790288925171
90,2.4153215885162354
91,2.410271406173706
92,2.428811550140381
93,2.437105178833008
94,2.448460817337036
95,2.4506616592407227
96,2.449496030807495
97,2.4532065391540527
98,2.4513542652130127
99,2.44459867477417
100,2.441957712173462
