1,4.8129563331604
100,2.424039602279663
200,2.8325247764587402
300,3.262770652770996
400,3.2358694076538086
500,3.194246530532837
600,2.940898895263672
700,2.8854804039001465
800,2.904229164123535
900,3.151512384414673
1000,2.8163695335388184
1100,2.963087558746338
1200,3.0500426292419434
1300,2.8075995445251465
1400,2.8986494541168213
1500,2.8512003421783447
1600,2.7231197357177734
1700,2.7668039798736572
1800,2.838383436203003
1900,2.941129684448242
2000,2.6635122299194336
2100,2.6762278079986572
2200,2.8821730613708496
2300,2.6310763359069824
2400,2.8885793685913086
2500,2.8291263580322266
2600,2.841337203979492
2700,2.6694297790527344
2800,2.5909130573272705
2900,2.5223464965820312
3000,2.4699864387512207
3100,2.6900038719177246
3200,2.7026474475860596
3300,2.5010766983032227
3400,2.727097272872925
3500,2.7417004108428955
3600,2.8917386531829834
3700,2.6652750968933105
3800,2.7813942432403564
3900,2.8208203315734863
4000,2.8493456840515137
4100,2.755824089050293
4200,2.9096176624298096
4300,2.6559629440307617
4400,2.969041109085083
4500,2.6228437423706055
4600,2.595712661743164
4700,2.5768096446990967
4800,2.797088146209717
4900,2.6902220249176025
5000,2.6268832683563232
5100,2.784456491470337
5200,2.7991585731506348
5300,2.9683656692504883
5400,2.9658901691436768
5500,2.786566734313965
5600,2.7824971675872803
5700,2.781632661819458
5800,2.8038811683654785
5900,2.677424669265747
6000,2.5327372550964355
6100,2.6910531520843506
6200,2.5664732456207275
6300,2.419114589691162
6400,2.4356491565704346
6500,2.5162241458892822
6600,2.7804267406463623
6700,2.697930097579956
6800,2.2882237434387207
6900,2.849545955657959
7000,2.6810507774353027
7100,2.704505443572998
7200,2.77174711227417
7300,2.513873338699341
7400,2.831240177154541
7500,2.674476146697998
7600,2.583780527114868
7700,2.4732019901275635
7800,2.7348902225494385
7900,2.5270345211029053
8000,2.620029926300049
8100,2.6968181133270264
8200,2.582266092300415
8300,2.8791263103485107
8400,2.5569350719451904
8500,2.500000476837158
8600,2.804934501647949
8700,2.6380133628845215
8800,2.6734635829925537
8900,2.8509738445281982
9000,2.5611343383789062
9100,2.7376503944396973
9200,2.701770067214966
9300,2.703340530395508
9400,2.707726001739502
9500,2.6836962699890137
9600,2.7177889347076416
9700,2.70624041557312
9800,2.6983211040496826
9900,2.7014520168304443
10000,2.7109627723693848
