0,455685.8125
1,27084.873046875
2,23842.712890625
3,20836.24609375
4,18251.73046875
5,15385.537109375
6,12749.2265625
7,10744.8076171875
8,8856.8984375
9,7234.134765625
10,5507.8115234375
11,4116.04833984375
12,3119.028564453125
13,2519.87841796875
14,1950.1884765625
15,1337.756103515625
16,925.488525390625
17,288.9318542480469
18,-142.67742919921875
19,-477.6001892089844
20,-819.9214477539062
21,-1017.2620849609375
22,-1120.60791015625
23,-1234.3753662109375
24,-1299.374755859375
25,-1396.6778564453125
26,-1514.185302734375
27,-1525.798583984375
28,-1627.2645263671875
29,-1655.6876220703125
30,-1659.1441650390625
31,-1714.95263671875
32,-1740.518310546875
33,-1746.5843505859375
34,-1763.9486083984375
35,-1812.318603515625
36,-1802.77587890625
37,-1856.029052734375
38,-1834.3892822265625
39,-1874.070068359375
40,-1841.166015625
41,-1845.9476318359375
42,-1891.63818359375
43,-1905.17236328125
44,-1920.688720703125
45,-1928.1297607421875
46,-1934.093017578125
47,-1931.8201904296875
48,-1937.938232421875
49,-1932.5042724609375
50,-1931.021240234375
51,-1917.820068359375
52,-1937.467529296875
53,-1972.124755859375
54,-1986.8001708984375
55,-1954.7120361328125
56,-1943.827880859375
57,-1972.7066650390625
58,-1955.505615234375
59,-1928.6146240234375
60,-1929.9752197265625
61,-1952.8016357421875
62,-1946.7166748046875
63,-1968.630126953125
64,-1964.81787109375
65,-1919.5703125
66,-1969.18896484375
67,-1975.654052734375
68,-1993.4847412109375
69,-1979.031005859375
70,-1968.1168212890625
71,-1970.4498291015625
72,-1970.5223388671875
73,-1957.7916259765625
74,-1953.055908203125
75,-1941.320068359375
76,-1973.313720703125
77,-1988.988525390625
78,-1984.898681640625
79,-1961.72021484375
80,-1966.6533203125
81,-1974.286865234375
82,-1944.14208984375
83,-1961.338134765625
84,-1983.3885498046875
85,-1979.3677978515625
86,-1996.69677734375
87,-2016.19921875
88,-2000.53662109375
89,-2018.739501953125
90,-2010.235107421875
91,-2030.5814208984375
92,-2017.11279296875
93,-2035.4603271484375
94,-2008.3970947265625
95,-2022.5404052734375
96,-2050.226806640625
97,-2046.984619140625
98,-2028.5343017578125
99,-2050.736083984375
100,-2031.2657470703125
