0,0.5348663330078125,-0.24261474609375,-0.28338623046875,0.920013427734375
1,0.5348663330078125,-0.24375373125076294,-0.28338623046875,0.920013427734375
2,0.5342799425125122,-0.24385564029216766,-0.28218936920166016,0.9286381006240845
3,0.5408889055252075,-0.2421245276927948,-0.2787192463874817,0.9316399097442627
4,0.5359781384468079,-0.23940224945545197,-0.28014275431632996,0.9316399097442627
5,0.5348494648933411,-0.24067877233028412,-0.28014275431632996,0.9264024496078491
6,0.5337160229682922,-0.24031992256641388,-0.2804209589958191,0.9281732439994812
7,0.5383899211883545,-0.23924879729747772,-0.2795736789703369,0.9281732439994812
8,0.5389738082885742,-0.24131105840206146,-0.2775191068649292,0.9281732439994812
9,0.5403230786323547,-0.24033509194850922,-0.2775191068649292,0.9372479915618896
10,0.5389925241470337,-0.23835577070713043,-0.27865973114967346,0.9447727799415588
11,0.5389925241470337,-0.24093933403491974,-0.27963656187057495,0.9447727799415588
12,0.5420811176300049,-0.24182964861392975,-0.28079304099082947,0.9665542244911194
13,0.5435330271720886,-0.24306654930114746,-0.2808881103992462,0.9819332957267761
14,0.5435330271720886,-0.23864711821079254,-0.28109976649284363,0.9763210415840149
15,0.5480140447616577,-0.23864711821079254,-0.2780125141143799,0.9763210415840149
16,0.5566274523735046,-0.23632913827896118,-0.27996355295181274,0.9770292639732361
17,0.5565637946128845,-0.2358330935239792,-0.27592331171035767,0.9906240701675415
18,0.5599685907363892,-0.23733292520046234,-0.27880051732063293,0.9906240701675415
19,0.5681470036506653,-0.23801499605178833,-0.27523282170295715,1.0045063495635986
20,0.5614915490150452,-0.23773202300071716,-0.27702784538269043,1.0045063495635986
21,0.5609672665596008,-0.2359272837638855,-0.27347856760025024,1.0045063495635986
22,0.560190737247467,-0.2373245656490326,-0.274994820356369,1.0059363842010498
23,0.560190737247467,-0.23660697042942047,-0.272099107503891,1.008902668952942
24,0.5572091341018677,-0.23825091123580933,-0.27233192324638367,1.0087345838546753
25,0.5572091341018677,-0.23785731196403503,-0.2720980644226074,1.018660306930542
26,0.5572091341018677,-0.23689626157283783,-0.26953741908073425,1.018660306930542
27,0.5666985511779785,-0.2406129539012909,-0.2724003791809082,1.020220160484314
28,0.576092541217804,-0.23874203860759735,-0.2684232294559479,1.020220160484314
29,0.5806172490119934,-0.24072550237178802,-0.2684232294559479,1.020220160484314
30,0.5842064023017883,-0.24354061484336853,-0.264303982257843,1.020220160484314
31,0.5920361280441284,-0.23998011648654938,-0.26621079444885254,1.0337251424789429
32,0.586317777633667,-0.23918195068836212,-0.2646784782409668,1.0337251424789429
33,0.5854101777076721,-0.23929564654827118,-0.2644713521003723,1.0337251424789429
34,0.5816981792449951,-0.24107255041599274,-0.2704870104789734,1.0282773971557617
35,0.586999237537384,-0.2393416166305542,-0.2644551694393158,1.0273958444595337
36,0.5881228446960449,-0.23967130482196808,-0.26846492290496826,1.0361485481262207
37,0.5749333500862122,-0.23729749023914337,-0.26376837491989136,1.0442266464233398
38,0.5749333500862122,-0.2391606718301773,-0.2609444558620453,1.0501302480697632
39,0.5696983337402344,-0.23999395966529846,-0.2609444558620453,1.0501302480697632
40,0.569794237613678,-0.24093326926231384,-0.26245370507240295,1.0501302480697632
41,0.569794237613678,-0.23983633518218994,-0.25735169649124146,1.0501302480697632
42,0.5690324306488037,-0.24252194166183472,-0.258959025144577,1.055822730064392
43,0.5722941160202026,-0.24223530292510986,-0.25848379731178284,1.0757871866226196
44,0.5723825097084045,-0.24305865168571472,-0.2586412727832794,1.082188367843628
45,0.572830855846405,-0.23896074295043945,-0.25603652000427246,1.0754302740097046
46,0.5666109919548035,-0.23719556629657745,-0.2573270797729492,1.0764014720916748
47,0.5866211652755737,-0.23956987261772156,-0.2573270797729492,1.0873756408691406
48,0.5894902944564819,-0.24165403842926025,-0.2578384578227997,1.0764567852020264
49,0.5863338708877563,-0.24400688707828522,-0.26015862822532654,1.07960045337677
50,0.5872844457626343,-0.24670937657356262,-0.2629602551460266,1.083626389503479
51,0.585037887096405,-0.24600209295749664,-0.2629602551460266,1.0912110805511475
52,0.585037887096405,-0.24250568449497223,-0.2613462209701538,1.0912110805511475
53,0.5803674459457397,-0.2429976910352707,-0.2651519477367401,1.0921657085418701
54,0.5917165279388428,-0.23930755257606506,-0.2646382451057434,1.0921657085418701
55,0.6027417182922363,-0.23882204294204712,-0.26788073778152466,1.0921657085418701
56,0.6017257571220398,-0.23841895163059235,-0.27064669132232666,1.0921657085418701
57,0.6101917624473572,-0.2416982501745224,-0.27064669132232666,1.0812182426452637
58,0.6052491664886475,-0.23718774318695068,-0.26848092675209045,1.0812182426452637
59,0.6083536148071289,-0.23476701974868774,-0.2680149972438812,1.0936003923416138
60,0.6105964779853821,-0.232812762260437,-0.27271440625190735,1.0932583808898926
61,0.613620400428772,-0.23690131306648254,-0.27192285656929016,1.0958553552627563
62,0.6248469948768616,-0.23773819208145142,-0.2715708315372467,1.0958553552627563
63,0.6216840744018555,-0.24172037839889526,-0.27629023790359497,1.1034026145935059
64,0.6241582632064819,-0.24007204174995422,-0.27370011806488037,1.1068767309188843
65,0.6310184597969055,-0.24263672530651093,-0.27754494547843933,1.1068767309188843
66,0.6310184597969055,-0.24263672530651093,-0.27688029408454895,1.1049884557724
67,0.6306014657020569,-0.23786307871341705,-0.27688029408454895,1.1049884557724
68,0.6295490264892578,-0.23468345403671265,-0.27735647559165955,1.1059210300445557
69,0.629867434501648,-0.23114608228206635,-0.2798113524913788,1.1079304218292236
70,0.6184576153755188,-0.2311679720878601,-0.27977192401885986,1.1079304218292236
71,0.6198496222496033,-0.22677840292453766,-0.2771362364292145,1.0998928546905518
72,0.6132283210754395,-0.2253304272890091,-0.28229019045829773,1.0998928546905518
73,0.6134065389633179,-0.22904004156589508,-0.28268951177597046,1.1092256307601929
74,0.6153027415275574,-0.23087112605571747,-0.2839319109916687,1.1092256307601929
75,0.6153027415275574,-0.2326241433620453,-0.28448915481567383,1.1150075197219849
76,0.6223981976509094,-0.23196135461330414,-0.28448915481567383,1.1150075197219849
77,0.6202390193939209,-0.23018470406532288,-0.2859027683734894,1.1150075197219849
78,0.6140057444572449,-0.2279217541217804,-0.2863563895225525,1.1150075197219849
79,0.6140057444572449,-0.2286980301141739,-0.287421315908432,1.115883469581604
80,0.6236428022384644,-0.23006029427051544,-0.285897821187973,1.1234986782073975
81,0.6274446845054626,-0.23018500208854675,-0.2871738374233246,1.1292017698287964
82,0.6224260926246643,-0.22996707260608673,-0.29221799969673157,1.1340495347976685
83,0.6263532042503357,-0.22215542197227478,-0.290370374917984,1.1281936168670654
84,0.6179702281951904,-0.22379590570926666,-0.2931624948978424,1.1281936168670654
85,0.6196641325950623,-0.22250303626060486,-0.29238733649253845,1.1281936168670654
86,0.6323297619819641,-0.22309933602809906,-0.28703799843788147,1.1271017789840698
87,0.6453756093978882,-0.21922338008880615,-0.28700804710388184,1.1142737865447998
88,0.6508848667144775,-0.21922338008880615,-0.28720739483833313,1.1142737865447998
89,0.6464027166366577,-0.21844886243343353,-0.2874052822589874,1.1142737865447998
90,0.6442675590515137,-0.2215966284275055,-0.2879873216152191,1.1128278970718384
91,0.6449740529060364,-0.22128280997276306,-0.2869700789451599,1.1128278970718384
92,0.6464725732803345,-0.22159989178180695,-0.2860010862350464,1.1128278970718384
93,0.6444566249847412,-0.22187545895576477,-0.2852610647678375,1.112828016281128
94,0.6431982517242432,-0.22297503054141998,-0.28560155630111694,1.1177263259887695
95,0.640856146812439,-0.22358033061027527,-0.28468558192253113,1.1181869506835938
96,0.6374166011810303,-0.22466644644737244,-0.2845764756202698,1.1184751987457275
97,0.6349937319755554,-0.22646306455135345,-0.2849361002445221,1.1186692714691162
98,0.6320969462394714,-0.22719863057136536,-0.28505048155784607,1.1211777925491333
99,0.6299601197242737,-0.22774122655391693,-0.2841109335422516,1.1205778121948242
100,0.6291936635971069,-0.228070929646492,-0.28307220339775085,1.1201213598251343
