1,1.6479603052139282
100,1.4120895862579346
200,1.1867306232452393
300,1.1321035623550415
400,1.1378358602523804
500,1.128317952156067
600,1.1356366872787476
700,1.0525870323181152
800,1.0910061597824097
900,1.0548722743988037
1000,1.0399905443191528
1100,1.0295827388763428
1200,1.024139642715454
1300,0.999204695224762
1400,1.0300486087799072
1500,1.0120704174041748
1600,1.00208580493927
1700,0.9718546271324158
1800,0.9788028597831726
1900,0.9325583577156067
2000,0.9587942361831665
2100,0.952332079410553
2200,0.9465464949607849
2300,0.9576343297958374
2400,1.031054973602295
2500,0.987474799156189
2600,0.9694259762763977
2700,0.9958484172821045
2800,0.9815524220466614
2900,0.9704056978225708
3000,0.9730431437492371
3100,0.9981732368469238
3200,0.9858931303024292
3300,0.9685461521148682
3400,1.0163519382476807
3500,1.0237534046173096
3600,1.026728630065918
3700,0.9902206659317017
3800,0.9818494319915771
3900,0.9797861576080322
4000,1.0106793642044067
4100,0.9954307675361633
4200,1.0178824663162231
4300,0.9605323672294617
4400,0.9477947950363159
4500,0.9630021452903748
4600,0.9323470592498779
4700,0.940453052520752
4800,0.9668218493461609
4900,0.9376952052116394
5000,1.0126289129257202
5100,0.9526845812797546
5200,0.9784843921661377
5300,0.9736950993537903
5400,0.9481671452522278
5500,0.9532449841499329
5600,0.9434152245521545
5700,0.9350937008857727
5800,0.9754629135131836
5900,0.980281412601471
6000,0.9527866840362549
6100,0.9641731977462769
6200,0.9573028087615967
6300,0.9525299072265625
6400,0.9801804423332214
6500,0.9687628746032715
6600,0.9586412310600281
6700,0.9817371368408203
6800,0.983049213886261
6900,0.9889296889305115
7000,0.973389208316803
7100,0.9763275980949402
7200,0.9433349370956421
7300,0.9361780881881714
7400,0.9659528136253357
7500,0.9464123845100403
7600,0.988473653793335
7700,0.9624091982841492
7800,0.9654551148414612
7900,0.9522836208343506
8000,0.928579568862915
8100,0.9494524002075195
8200,0.9722866415977478
8300,0.9296514987945557
8400,0.9776290655136108
8500,0.9054116010665894
8600,0.938262939453125
8700,0.9161226153373718
8800,0.9533925652503967
8900,0.9532805681228638
9000,0.961211085319519
9100,0.9791107773780823
9200,0.9769155383110046
9300,0.9704640507698059
9400,0.9715120792388916
9500,0.9762939214706421
9600,0.9771789908409119
9700,0.9772372841835022
9800,0.973490834236145
9900,0.9751940369606018
10000,0.9763859510421753
