1,-0.7525969743728638
100,-0.30303075909614563
200,-0.066103495657444
300,-0.057344451546669006
400,-0.11326789855957031
500,-0.07694382965564728
600,-0.08716115355491638
700,-0.12995821237564087
800,-0.11604028195142746
900,-0.14501287043094635
1000,-0.16090668737888336
1100,-0.1573406457901001
1200,-0.1426037847995758
1300,-0.19197379052639008
1400,-0.15121163427829742
1500,-0.17192044854164124
1600,-0.17065362632274628
1700,-0.15908344089984894
1800,-0.1591397374868393
1900,-0.17924797534942627
2000,-0.15217404067516327
2100,-0.1548721343278885
2200,-0.11856693774461746
2300,-0.14584772288799286
2400,-0.1775984764099121
2500,-0.16377118229866028
2600,-0.16021235287189484
2700,-0.1825445294380188
2800,-0.18243008852005005
2900,-0.14378097653388977
3000,-0.16434288024902344
3100,-0.16467593610286713
3200,-0.21720784902572632
3300,-0.17654886841773987
3400,-0.12238156050443649
3500,-0.15847279131412506
3600,-0.19304727017879486
3700,-0.17394506931304932
3800,-0.18382951617240906
3900,-0.1738186925649643
4000,-0.19525039196014404
4100,-0.17432396113872528
4200,-0.16626060009002686
4300,-0.1559319943189621
4400,-0.1663244664669037
4500,-0.17771118879318237
4600,-0.17626267671585083
4700,-0.12227983772754669
4800,-0.172970250248909
4900,-0.16625307500362396
5000,-0.1425582319498062
5100,-0.17418277263641357
5200,-0.1650366634130478
5300,-0.13892199099063873
5400,-0.1376025676727295
5500,-0.1884063333272934
5600,-0.12656709551811218
5700,-0.15730439126491547
5800,-0.13422821462154388
5900,-0.17973589897155762
6000,-0.15166744589805603
6100,-0.13914747536182404
6200,-0.1382550597190857
6300,-0.1215299665927887
6400,-0.13916604220867157
6500,-0.18194469809532166
6600,-0.17102296650409698
6700,-0.12552350759506226
6800,-0.11200538277626038
6900,-0.1740601658821106
7000,-0.21269232034683228
7100,-0.16584722697734833
7200,-0.18380916118621826
7300,-0.10771331191062927
7400,-0.1671295166015625
7500,-0.17144463956356049
7600,-0.15550647675991058
7700,-0.16542379558086395
7800,-0.16023372113704681
7900,-0.1589130461215973
8000,-0.14778870344161987
8100,-0.16978728771209717
8200,-0.15776199102401733
8300,-0.2043149471282959
8400,-0.1628064662218094
8500,-0.16201376914978027
8600,-0.17317698895931244
8700,-0.14407318830490112
8800,-0.2005646526813507
8900,-0.19123107194900513
9000,-0.17994704842567444
9100,-0.1641148030757904
9200,-0.1624021828174591
9300,-0.16958492994308472
9400,-0.16986419260501862
9500,-0.17182520031929016
9600,-0.17707796394824982
9700,-0.17329387366771698
9800,-0.16973453760147095
9900,-0.16856016218662262
10000,-0.17106738686561584
