1,-1.9280794858932495,-1.6494197845458984,-1.8535860776901245,-1.7407734394073486
100,-2.815908432006836,-2.624521255493164,-2.770280599594116,-2.621955633163452
200,-3.103278398513794,-2.93178391456604,-2.969724655151367,-2.8887579441070557
300,-3.1826014518737793,-2.881197690963745,-3.085810661315918,-2.9543440341949463
400,-3.1607866287231445,-2.916806697845459,-3.0409882068634033,-3.0028743743896484
500,-3.1888277530670166,-2.8651483058929443,-3.0707733631134033,-3.051935911178589
600,-3.2022151947021484,-2.936323404312134,-3.068113327026367,-3.110717296600342
700,-3.1589417457580566,-2.874466896057129,-2.977219820022583,-3.0556252002716064
800,-3.1090545654296875,-2.847827672958374,-2.9055986404418945,-2.9825499057769775
900,-3.208871841430664,-2.930267333984375,-3.0156002044677734,-3.113348960876465
1000,-3.29616641998291,-3.004124879837036,-3.1327013969421387,-3.176470994949341
1100,-3.184337615966797,-2.8602890968322754,-2.98460054397583,-3.030569553375244
1200,-3.2886745929718018,-2.976044178009033,-3.0574159622192383,-3.2043886184692383
1300,-3.3404738903045654,-3.039555311203003,-3.087305784225464,-3.2290265560150146
1400,-3.2074077129364014,-2.839632749557495,-2.9626967906951904,-3.1363418102264404
1500,-3.2547826766967773,-2.844311475753784,-2.980001926422119,-3.1546506881713867
1600,-3.34332013130188,-2.921985626220703,-3.0636465549468994,-3.231395721435547
1700,-3.3006746768951416,-2.918687343597412,-3.041609048843384,-3.238323450088501
1800,-3.2616045475006104,-2.967374324798584,-2.999079942703247,-3.201198101043701
1900,-3.2583932876586914,-2.9001853466033936,-2.982844352722168,-3.170759439468384
2000,-3.200416326522827,-2.913662910461426,-2.984421730041504,-3.2108426094055176
2100,-3.3600120544433594,-2.9570751190185547,-3.092958450317383,-3.269542694091797
2200,-3.1960177421569824,-2.8902182579040527,-2.9721672534942627,-3.175004005432129
2300,-3.310086727142334,-2.9432554244995117,-3.0612409114837646,-3.230715036392212
2400,-3.334965467453003,-2.916126251220703,-3.0718536376953125,-3.2264137268066406
2500,-3.2050156593322754,-2.826214551925659,-2.9765141010284424,-3.121382474899292
2600,-3.3318769931793213,-2.9446284770965576,-3.083310604095459,-3.239661455154419
2700,-3.3120408058166504,-2.9787869453430176,-3.1237502098083496,-3.2339651584625244
2800,-3.2736310958862305,-2.8955254554748535,-3.0538642406463623,-3.201214551925659
2900,-3.2767488956451416,-3.0026543140411377,-3.0888006687164307,-3.2893006801605225
3000,-3.292628288269043,-2.8815739154815674,-3.0496294498443604,-3.2327942848205566
3100,-3.1423351764678955,-2.766024351119995,-2.9404683113098145,-3.1008529663085938
3200,-3.2579169273376465,-2.8750600814819336,-2.976792812347412,-3.2017996311187744
3300,-3.2881529331207275,-2.985233783721924,-3.0219173431396484,-3.218451976776123
3400,-3.177121162414551,-2.8766961097717285,-2.96889066696167,-3.141005039215088
3500,-3.3052518367767334,-2.9795773029327393,-3.07228422164917,-3.188182830810547
3600,-3.3084874153137207,-2.9748647212982178,-3.0970070362091064,-3.2152442932128906
3700,-3.184278726577759,-2.8716299533843994,-2.955195665359497,-3.126351833343506
3800,-3.2911107540130615,-2.9477157592773438,-3.0497889518737793,-3.230015993118286
3900,-3.302980661392212,-2.925959825515747,-2.9819042682647705,-3.2143824100494385
4000,-3.282396078109741,-2.9214766025543213,-3.029524803161621,-3.220932722091675
4100,-3.2696304321289062,-2.8909974098205566,-3.022186756134033,-3.1967086791992188
4200,-3.2933597564697266,-2.888674020767212,-3.0348033905029297,-3.2231853008270264
4300,-3.3433966636657715,-2.954909563064575,-3.118638038635254,-3.242250919342041
4400,-3.357391119003296,-2.9660274982452393,-3.0526134967803955,-3.2895398139953613
4500,-3.2186291217803955,-2.8397886753082275,-2.934044599533081,-3.1256303787231445
4600,-3.3210904598236084,-2.8711442947387695,-3.0211520195007324,-3.192021131515503
4700,-3.311613082885742,-2.905259609222412,-3.0774803161621094,-3.2623283863067627
4800,-3.307724714279175,-2.91392183303833,-3.026510715484619,-3.2641212940216064
4900,-3.351128101348877,-2.9660351276397705,-3.035349130630493,-3.2583041191101074
5000,-3.2302005290985107,-2.878971815109253,-2.95546817779541,-3.176910877227783
5100,-3.320669174194336,-2.903294563293457,-2.9983456134796143,-3.1880266666412354
5200,-3.192169189453125,-2.840254783630371,-2.964456558227539,-3.100102424621582
5300,-3.277981996536255,-2.8671042919158936,-3.0464963912963867,-3.2097771167755127
5400,-3.2509143352508545,-2.8724238872528076,-2.9966046810150146,-3.1684200763702393
5500,-3.267317056655884,-2.9086081981658936,-3.0331616401672363,-3.2266671657562256
5600,-3.266474485397339,-2.8531367778778076,-2.976856231689453,-3.1449074745178223
5700,-3.350071430206299,-2.887239456176758,-3.0715317726135254,-3.2232704162597656
5800,-3.260141372680664,-2.8763668537139893,-2.9651405811309814,-3.184217929840088
5900,-3.1945836544036865,-2.773987293243408,-2.9141032695770264,-3.1449854373931885
6000,-3.3129422664642334,-2.8700671195983887,-3.0205299854278564,-3.209876537322998
6100,-3.419693946838379,-2.9834961891174316,-3.1347572803497314,-3.2954514026641846
6200,-3.2713160514831543,-2.969980001449585,-3.1195919513702393,-3.2074718475341797
6300,-3.3545918464660645,-3.049237012863159,-3.1711878776550293,-3.3144030570983887
6400,-3.2745959758758545,-2.9073855876922607,-3.063206672668457,-3.1794750690460205
6500,-3.251650094985962,-2.9729979038238525,-3.0372774600982666,-3.153223752975464
6600,-3.2727103233337402,-3.000901937484741,-3.045448064804077,-3.182156801223755
6700,-3.242675304412842,-2.8932790756225586,-3.024829387664795,-3.1322665214538574
6800,-3.277283191680908,-2.9023845195770264,-3.015685796737671,-3.1747231483459473
6900,-3.2250959873199463,-2.8779242038726807,-2.9710493087768555,-3.10456919670105
7000,-3.221385955810547,-2.828874349594116,-2.9997870922088623,-3.151120662689209
7100,-3.300055980682373,-2.9551374912261963,-3.099687099456787,-3.215709686279297
7200,-3.29240345954895,-2.8666136264801025,-3.029609203338623,-3.174970865249634
7300,-3.2558391094207764,-2.958493709564209,-3.0557448863983154,-3.256260871887207
7400,-3.210123062133789,-2.933145046234131,-3.02447509765625,-3.164161205291748
7500,-3.3110835552215576,-2.9805760383605957,-3.079451560974121,-3.249350070953369
7600,-3.244868755340576,-2.8929245471954346,-2.9963901042938232,-3.1642348766326904
7700,-3.179121494293213,-2.8581244945526123,-3.0130417346954346,-3.18306303024292
7800,-3.284118413925171,-2.908034563064575,-3.0510058403015137,-3.2306857109069824
7900,-3.2560434341430664,-2.80106520652771,-2.975094795227051,-3.1714611053466797
8000,-3.2144198417663574,-2.8449959754943848,-2.9819252490997314,-3.1354870796203613
8100,-3.2577717304229736,-2.8849596977233887,-2.9697105884552,-3.223802089691162
8200,-3.245882511138916,-2.8771896362304688,-3.009448289871216,-3.1999926567077637
8300,-3.2943480014801025,-2.9538254737854004,-3.0373375415802,-3.2671902179718018
8400,-3.270146131515503,-2.8864951133728027,-3.0180399417877197,-3.193382501602173
8500,-3.2627012729644775,-2.8943095207214355,-2.991211175918579,-3.2239842414855957
8600,-3.312056064605713,-2.9458000659942627,-3.076774835586548,-3.2566845417022705
8700,-3.2201669216156006,-2.8439433574676514,-2.996253490447998,-3.134885549545288
8800,-3.3612754344940186,-3.0078089237213135,-3.127448558807373,-3.262295961380005
8900,-3.2326622009277344,-2.8606748580932617,-2.986865282058716,-3.124603509902954
9000,-3.2542855739593506,-2.970832347869873,-3.057117462158203,-3.1918506622314453
9100,-3.2254750728607178,-2.9083752632141113,-2.986523151397705,-3.1441426277160645
9200,-3.2236578464508057,-2.910053014755249,-2.9871115684509277,-3.131920576095581
9300,-3.232020616531372,-2.911985397338867,-2.9938347339630127,-3.1418750286102295
9400,-3.2414164543151855,-2.924628257751465,-3.001319646835327,-3.153700113296509
9500,-3.2405216693878174,-2.925450325012207,-3.004694938659668,-3.159428834915161
9600,-3.2457468509674072,-2.9274511337280273,-3.004344940185547,-3.165194034576416
9700,-3.2498087882995605,-2.9265241622924805,-3.0044538974761963,-3.1685378551483154
9800,-3.2501935958862305,-2.928832530975342,-3.007794141769409,-3.16798734664917
9900,-3.255831003189087,-2.9319205284118652,-3.0158913135528564,-3.170524835586548
10000,-3.255103588104248,-2.9308531284332275,-3.0180869102478027,-3.1724910736083984
