1,-2.074352502822876,-1.510259985923767,-1.553417444229126,-2.322925567626953
100,-2.0871365070343018,-1.4335646629333496,-1.4883432388305664,-2.736302137374878
200,-2.087102174758911,-1.3487910032272339,-1.4097665548324585,-2.7220380306243896
300,-2.061457395553589,-1.2383936643600464,-1.3543885946273804,-2.675274133682251
400,-2.0796916484832764,-1.228017807006836,-1.3269236087799072,-2.7237045764923096
500,-2.103210687637329,-1.233652949333191,-1.3545113801956177,-2.728614330291748
600,-2.1602675914764404,-1.240135669708252,-1.3606370687484741,-2.7835261821746826
700,-2.1744062900543213,-1.242797613143921,-1.339622139930725,-2.7852165699005127
800,-2.195636510848999,-1.2651035785675049,-1.3501012325286865,-2.7901763916015625
900,-2.214597702026367,-1.2772899866104126,-1.351033091545105,-2.802295207977295
1000,-2.2221646308898926,-1.2854636907577515,-1.3635245561599731,-2.811227560043335
1100,-2.2491633892059326,-1.2752859592437744,-1.3598495721817017,-2.830592632293701
1200,-2.285463333129883,-1.3006147146224976,-1.3878833055496216,-2.884119749069214
1300,-2.2792084217071533,-1.2948694229125977,-1.3804447650909424,-2.854656457901001
1400,-2.26226544380188,-1.303452968597412,-1.376642107963562,-2.845186710357666
1500,-2.284700632095337,-1.3046314716339111,-1.3929004669189453,-2.8736729621887207
1600,-2.326371431350708,-1.3476561307907104,-1.4206444025039673,-2.9142589569091797
1700,-2.319053888320923,-1.3627516031265259,-1.4336354732513428,-2.9177699089050293
1800,-2.3129823207855225,-1.3584072589874268,-1.4106942415237427,-2.8968167304992676
1900,-2.304508924484253,-1.3561221361160278,-1.4121593236923218,-2.8831706047058105
2000,-2.3331046104431152,-1.3983490467071533,-1.463064432144165,-2.9328651428222656
2100,-2.3763046264648438,-1.394214391708374,-1.4652122259140015,-2.9490275382995605
2200,-2.4141924381256104,-1.4052016735076904,-1.4687714576721191,-2.971740484237671
2300,-2.4425048828125,-1.4101886749267578,-1.4836817979812622,-2.9899818897247314
2400,-2.447852611541748,-1.40948486328125,-1.494571566581726,-2.986778736114502
2500,-2.4474236965179443,-1.4019588232040405,-1.4888641834259033,-2.9914140701293945
2600,-2.440537452697754,-1.418343186378479,-1.5019099712371826,-3.0065977573394775
2700,-2.4610395431518555,-1.4365122318267822,-1.5205062627792358,-3.0021684169769287
2800,-2.5011088848114014,-1.4611735343933105,-1.5357823371887207,-3.0478157997131348
2900,-2.487588405609131,-1.4613540172576904,-1.5325870513916016,-3.045024871826172
3000,-2.4468274116516113,-1.4122974872589111,-1.4828335046768188,-2.996283531188965
3100,-2.493614435195923,-1.453997015953064,-1.5186666250228882,-3.0222103595733643
3200,-2.537341594696045,-1.5148062705993652,-1.5746444463729858,-3.0660905838012695
3300,-2.5127625465393066,-1.5062514543533325,-1.5446271896362305,-3.043142080307007
3400,-2.5359907150268555,-1.5070953369140625,-1.558881163597107,-3.0700275897979736
3500,-2.4869234561920166,-1.476973295211792,-1.5238037109375,-2.9998598098754883
3600,-2.499572277069092,-1.5097070932388306,-1.5504101514816284,-3.0370805263519287
3700,-2.4932780265808105,-1.5294315814971924,-1.5670247077941895,-3.0462825298309326
3800,-2.503864288330078,-1.5388481616973877,-1.5498825311660767,-3.0397932529449463
3900,-2.567425489425659,-1.5590943098068237,-1.555582046508789,-3.0605268478393555
4000,-2.5615453720092773,-1.5623619556427002,-1.5345327854156494,-3.044907331466675
4100,-2.5569491386413574,-1.5638234615325928,-1.5502480268478394,-3.0437283515930176
4200,-2.551239252090454,-1.5653735399246216,-1.5502160787582397,-3.034533977508545
4300,-2.548933506011963,-1.5847437381744385,-1.6011347770690918,-3.074385404586792
4400,-2.4952597618103027,-1.5383812189102173,-1.559436321258545,-3.034519910812378
4500,-2.5200109481811523,-1.553800344467163,-1.550917625427246,-3.044376850128174
4600,-2.548938512802124,-1.6082653999328613,-1.5838853120803833,-3.0718863010406494
4700,-2.5938146114349365,-1.641282081604004,-1.6235376596450806,-3.1120479106903076
4800,-2.57047700881958,-1.6156716346740723,-1.6052815914154053,-3.096160888671875
4900,-2.5826869010925293,-1.609260082244873,-1.6102049350738525,-3.102163076400757
5000,-2.570282459259033,-1.6360981464385986,-1.6148651838302612,-3.0993268489837646
5100,-2.6154417991638184,-1.6331031322479248,-1.6399117708206177,-3.123009204864502
5200,-2.6015353202819824,-1.6257483959197998,-1.6498405933380127,-3.1433937549591064
5300,-2.610724925994873,-1.6404430866241455,-1.6642087697982788,-3.1538407802581787
5400,-2.6127827167510986,-1.637359380722046,-1.655981421470642,-3.1461925506591797
5500,-2.601191282272339,-1.6113470792770386,-1.6433382034301758,-3.1341195106506348
5600,-2.599405288696289,-1.611214280128479,-1.6373690366744995,-3.1251771450042725
5700,-2.633924722671509,-1.627502679824829,-1.6601293087005615,-3.134096384048462
5800,-2.639785051345825,-1.6449823379516602,-1.6668202877044678,-3.154991626739502
5900,-2.7116661071777344,-1.6935731172561646,-1.6871694326400757,-3.1779093742370605
6000,-2.6985905170440674,-1.6431069374084473,-1.6537220478057861,-3.156536102294922
6100,-2.68953537940979,-1.6371335983276367,-1.661023497581482,-3.1649067401885986
6200,-2.6964335441589355,-1.6364575624465942,-1.665213942527771,-3.174685001373291
6300,-2.7292890548706055,-1.6568002700805664,-1.7040985822677612,-3.192641019821167
6400,-2.7552618980407715,-1.650736689567566,-1.6920419931411743,-3.2006518840789795
6500,-2.731719732284546,-1.6224591732025146,-1.670120120048523,-3.160675287246704
6600,-2.7472734451293945,-1.6244078874588013,-1.6508705615997314,-3.1672348976135254
6700,-2.7375192642211914,-1.6111687421798706,-1.6172963380813599,-3.1311802864074707
6800,-2.761955976486206,-1.612219214439392,-1.6274431943893433,-3.155092716217041
6900,-2.7558233737945557,-1.6071585416793823,-1.6028579473495483,-3.1372835636138916
7000,-2.790286064147949,-1.6303722858428955,-1.6437917947769165,-3.1804137229919434
7100,-2.7911975383758545,-1.6563133001327515,-1.6355416774749756,-3.1764683723449707
7200,-2.7605552673339844,-1.597407579421997,-1.601793885231018,-3.145657539367676
7300,-2.7606382369995117,-1.6172105073928833,-1.6154578924179077,-3.1557998657226562
7400,-2.7794244289398193,-1.6538066864013672,-1.6351447105407715,-3.180082321166992
7500,-2.761794328689575,-1.6466699838638306,-1.6148449182510376,-3.164273500442505
7600,-2.7429795265197754,-1.628017783164978,-1.6254594326019287,-3.138397455215454
7700,-2.7532401084899902,-1.618058681488037,-1.6140358448028564,-3.1483495235443115
7800,-2.755319833755493,-1.6277180910110474,-1.6200510263442993,-3.149418830871582
7900,-2.727617025375366,-1.6113334894180298,-1.6047227382659912,-3.12069034576416
8000,-2.7393856048583984,-1.6164886951446533,-1.6192092895507812,-3.1508052349090576
8100,-2.7291762828826904,-1.5973550081253052,-1.6186851263046265,-3.1551384925842285
8200,-2.734196186065674,-1.6213922500610352,-1.6481306552886963,-3.1703202724456787
8300,-2.7522270679473877,-1.6216866970062256,-1.6688165664672852,-3.189262628555298
8400,-2.7286765575408936,-1.6119930744171143,-1.6490931510925293,-3.166069746017456
8500,-2.753704786300659,-1.6425930261611938,-1.6680538654327393,-3.199012517929077
8600,-2.745927333831787,-1.634761929512024,-1.6532962322235107,-3.180527925491333
8700,-2.750460624694824,-1.6230090856552124,-1.672333002090454,-3.1885321140289307
8800,-2.7661547660827637,-1.6362028121948242,-1.6613571643829346,-3.181549549102783
8900,-2.762485980987549,-1.6289727687835693,-1.6734353303909302,-3.1891531944274902
9000,-2.722233295440674,-1.6236515045166016,-1.6577696800231934,-3.155942916870117
9100,-2.7437868118286133,-1.6112427711486816,-1.6540418863296509,-3.1767539978027344
9200,-2.7346363067626953,-1.6029176712036133,-1.6498092412948608,-3.168895959854126
9300,-2.7476449012756348,-1.617896556854248,-1.6585209369659424,-3.1762475967407227
9400,-2.7513651847839355,-1.626648187637329,-1.661027193069458,-3.1826653480529785
9500,-2.7479023933410645,-1.6256262063980103,-1.6584964990615845,-3.179572105407715
9600,-2.746368646621704,-1.6228371858596802,-1.6535476446151733,-3.1780576705932617
9700,-2.750493288040161,-1.6215753555297852,-1.6537809371948242,-3.179018020629883
9800,-2.748750925064087,-1.6219066381454468,-1.655897617340088,-3.179354429244995
9900,-2.752711772918701,-1.6246123313903809,-1.659314513206482,-3.183417797088623
10000,-2.7532899379730225,-1.6295369863510132,-1.6610710620880127,-3.184504747390747
