1,0.5037450790405273
100,0.630280077457428
200,0.6705994009971619
300,0.6684238314628601
400,0.6904895901679993
500,0.718167245388031
600,0.7271054983139038
700,0.7211170196533203
800,0.7378261089324951
900,0.7393295168876648
1000,0.74176025390625
1100,0.7408944964408875
1200,0.7549697756767273
1300,0.7640836238861084
1400,0.7512943148612976
1500,0.7389911413192749
1600,0.7533129453659058
1700,0.7849729061126709
1800,0.7760964035987854
1900,0.772367537021637
2000,0.7830427289009094
2100,0.7812062501907349
2200,0.7686885595321655
2300,0.7741709351539612
2400,0.8037784695625305
2500,0.7700968384742737
2600,0.7855445146560669
2700,0.7912307977676392
2800,0.7993993163108826
2900,0.8142634630203247
3000,0.7668074369430542
3100,0.7760456204414368
3200,0.8120980262756348
3300,0.7941411733627319
3400,0.7980770468711853
3500,0.7749520540237427
3600,0.788332462310791
3700,0.8011647462844849
3800,0.8032985329627991
3900,0.8139854073524475
4000,0.7971657514572144
4100,0.8010500073432922
4200,0.7922563552856445
4300,0.8069854378700256
4400,0.782903790473938
4500,0.7912881970405579
4600,0.7951134443283081
4700,0.8312821388244629
4800,0.8037264347076416
4900,0.7994964718818665
5000,0.811410129070282
5100,0.817146897315979
5200,0.8115962743759155
5300,0.8095373511314392
5400,0.802182137966156
5500,0.7888447046279907
5600,0.8031413555145264
5700,0.794700026512146
5800,0.8038783669471741
5900,0.8051586747169495
6000,0.807929515838623
6100,0.780637800693512
6200,0.796863853931427
6300,0.8135107159614563
6400,0.7980562448501587
6500,0.7963558435440063
6600,0.7905526757240295
6700,0.7865363955497742
6800,0.8003242015838623
6900,0.7987600564956665
7000,0.8144723773002625
7100,0.8253864645957947
7200,0.7644141912460327
7300,0.7760809063911438
7400,0.8198566436767578
7500,0.8040516376495361
7600,0.7757771611213684
7700,0.8140059113502502
7800,0.8168736696243286
7900,0.7719101905822754
8000,0.7907637357711792
8100,0.7828243374824524
8200,0.79305499792099
8300,0.801177442073822
8400,0.7836831212043762
8500,0.7960205078125
8600,0.8124245405197144
8700,0.799483060836792
8800,0.7830007076263428
8900,0.8140738606452942
9000,0.7961642742156982
9100,0.7962073087692261
9200,0.7880708575248718
9300,0.7906318306922913
9400,0.7986061573028564
9500,0.8012586832046509
9600,0.8009380102157593
9700,0.7998440265655518
9800,0.797102153301239
9900,0.8015080094337463
10000,0.802014946937561
