1,4.19537878036499
100,4.293984413146973
200,4.146421432495117
300,4.201578140258789
400,3.844684600830078
500,3.616048574447632
600,3.6419129371643066
700,3.3595082759857178
800,3.2821474075317383
900,3.264557123184204
1000,3.291407585144043
1100,3.2255136966705322
1200,3.102572202682495
1300,3.104041337966919
1400,2.9540674686431885
1500,2.656978130340576
1600,2.8825509548187256
1700,2.7809877395629883
1800,2.6446919441223145
1900,2.42803955078125
2000,2.578524589538574
2100,2.6797256469726562
2200,2.5214014053344727
2300,2.6010758876800537
2400,2.355189323425293
2500,2.2546467781066895
2600,2.3127264976501465
2700,2.3743135929107666
2800,2.4992034435272217
2900,2.325045585632324
3000,2.32401704788208
3100,2.418222427368164
3200,2.588393211364746
3300,2.6400632858276367
3400,2.6474196910858154
3500,2.638212203979492
3600,2.6459643840789795
3700,2.488626480102539
3800,2.8230271339416504
3900,2.7251389026641846
4000,2.7754621505737305
4100,2.796492338180542
4200,2.5267348289489746
4300,2.6620116233825684
4400,2.3896963596343994
4500,2.547276020050049
4600,2.84131121635437
4700,2.7056243419647217
4800,2.68739914894104
4900,2.794053554534912
5000,2.462930202484131
5100,2.3549540042877197
5200,2.281393527984619
5300,2.457418918609619
5400,2.490952491760254
5500,2.3846402168273926
5600,2.613476037979126
5700,2.3425586223602295
5800,2.5157508850097656
5900,2.5045039653778076
6000,2.4311037063598633
6100,2.4445571899414062
6200,2.293820858001709
6300,2.1941723823547363
6400,2.2258310317993164
6500,2.306004524230957
6600,2.27170729637146
6700,2.210574150085449
6800,2.4141621589660645
6900,2.301332712173462
7000,2.383216619491577
7100,2.272230863571167
7200,2.141509771347046
7300,2.2637057304382324
7400,2.268188238143921
7500,2.2892346382141113
7600,2.2892067432403564
7700,2.3921220302581787
7800,2.3784372806549072
7900,2.3356645107269287
8000,2.118981122970581
8100,2.020486831665039
8200,2.1165192127227783
8300,2.193618059158325
8400,2.357856273651123
8500,2.3736987113952637
8600,2.4469211101531982
8700,2.549445152282715
8800,2.38986873626709
8900,2.3787872791290283
9000,2.357285737991333
9100,2.388096332550049
9200,2.4209470748901367
9300,2.3912057876586914
9400,2.397090196609497
9500,2.4192707538604736
9600,2.4241538047790527
9700,2.403961181640625
9800,2.401561975479126
9900,2.4007174968719482
10000,2.399498701095581
