1,0.5351758599281311
100,0.7347998023033142
200,0.8273527026176453
300,0.9255542755126953
400,0.8717241287231445
500,0.9209182262420654
600,0.8800531625747681
700,0.9147118926048279
800,0.877826988697052
900,0.9993825554847717
1000,0.8740021586418152
1100,0.825336217880249
1200,0.9314823150634766
1300,0.9336060285568237
1400,1.013926386833191
1500,1.0888220071792603
1600,1.0229790210723877
1700,1.0174726247787476
1800,0.9727804660797119
1900,1.0866771936416626
2000,1.003814935684204
2100,0.9162112474441528
2200,0.9604034423828125
2300,0.9121651649475098
2400,0.962363600730896
2500,0.973763644695282
2600,0.8981500267982483
2700,0.9710223078727722
2800,0.887816309928894
2900,0.9669283628463745
3000,0.992317795753479
3100,0.932672381401062
3200,0.9915043711662292
3300,1.0393821001052856
3400,0.9874602556228638
3500,0.9755899310112
3600,0.9821773171424866
3700,0.9709071516990662
3800,0.9120611548423767
3900,0.8932013511657715
4000,0.9619095921516418
4100,0.893376886844635
4200,1.0311992168426514
4300,0.9588896632194519
4400,1.0374236106872559
4500,1.044892430305481
4600,0.9850780963897705
4700,1.0064789056777954
4800,0.9685781598091125
4900,0.9630032181739807
5000,0.836545467376709
5100,1.0266247987747192
5200,1.0904479026794434
5300,1.007098913192749
5400,0.9433566927909851
5500,0.8880276083946228
5600,0.9326966404914856
5700,1.0232877731323242
5800,0.9070464968681335
5900,1.0012357234954834
6000,0.983906626701355
6100,0.9405593872070312
6200,0.9824459552764893
6300,0.9401913285255432
6400,0.978695273399353
6500,0.8757697939872742
6600,0.9931345582008362
6700,1.0624252557754517
6800,0.9548492431640625
6900,0.9836137294769287
7000,0.9385901093482971
7100,0.9108204245567322
7200,0.9383965134620667
7300,0.968151330947876
7400,0.9690637588500977
7500,0.9169779419898987
7600,0.9338757395744324
7700,0.9445553421974182
7800,0.8989948630332947
7900,0.9223878383636475
8000,1.028499722480774
8100,0.9409325122833252
8200,1.0552252531051636
8300,0.9382022619247437
8400,0.8768225312232971
8500,0.8940739035606384
8600,0.8793792128562927
8700,0.9612466096878052
8800,0.9541869163513184
8900,0.9688546657562256
9000,0.9353390336036682
9100,0.9679703116416931
9200,0.9616329073905945
9300,0.9683713912963867
9400,0.957804262638092
9500,0.9636891484260559
9600,0.9639990925788879
9700,0.9579472541809082
9800,0.9572350382804871
9900,0.9547280073165894
10000,0.9575744867324829
