1,0.0,0.0,0.0
100,-0.043259453028440475,-0.16523367166519165,-0.03872786462306976
200,-0.04076327010989189,-0.19739289581775665,-0.04302280768752098
300,-0.042192768305540085,-0.22541528940200806,-0.043707698583602905
400,-0.05185212939977646,-0.23043090105056763,-0.04275943711400032
500,-0.051899414509534836,-0.2376660853624344,-0.044095754623413086
600,-0.055819835513830185,-0.23555538058280945,-0.04246823862195015
700,-0.05629241466522217,-0.23925377428531647,-0.04228245094418526
800,-0.06477248668670654,-0.231123685836792,-0.043699685484170914
900,-0.06347974389791489,-0.22587668895721436,-0.042328570038080215
1000,-0.052923355251550674,-0.22609812021255493,-0.04395454376935959
1100,-0.05143759399652481,-0.22202402353286743,-0.047698117792606354
1200,-0.04901450127363205,-0.22832724452018738,-0.04245484247803688
1300,-0.0516565777361393,-0.23444807529449463,-0.0442633293569088
1400,-0.05108463764190674,-0.23134933412075043,-0.04091992601752281
1500,-0.0540727861225605,-0.22873181104660034,-0.042705290019512177
1600,-0.05140748247504234,-0.2318768948316574,-0.042152199894189835
1700,-0.052058491855859756,-0.23059393465518951,-0.04110884293913841
1800,-0.05376172438263893,-0.22940431535243988,-0.03995468467473984
1900,-0.05605403333902359,-0.2368840128183365,-0.041488323360681534
2000,-0.05640276521444321,-0.22518888115882874,-0.04145136475563049
2100,-0.06020520627498627,-0.22206836938858032,-0.03681938722729683
2200,-0.056076858192682266,-0.2185238003730774,-0.03744785860180855
2300,-0.05062868073582649,-0.21724556386470795,-0.035545188933610916
2400,-0.05472869798541069,-0.20856548845767975,-0.034276992082595825
2500,-0.05454479902982712,-0.2063899040222168,-0.038376584649086
2600,-0.05204609036445618,-0.20790643990039825,-0.03483014553785324
2700,-0.05842788517475128,-0.19822315871715546,-0.03332839533686638
2800,-0.05697796866297722,-0.19738368690013885,-0.034041255712509155
2900,-0.050100378692150116,-0.20541788637638092,-0.0361810140311718
3000,-0.045309439301490784,-0.21027614176273346,-0.03573930636048317
3100,-0.04926851764321327,-0.20842671394348145,-0.03435491397976875
3200,-0.04432312771677971,-0.20742347836494446,-0.034669823944568634
3300,-0.04330524802207947,-0.20207343995571136,-0.034949515014886856
3400,-0.04230476915836334,-0.19980831444263458,-0.03066685050725937
3500,-0.041343316435813904,-0.1938081681728363,-0.035171035677194595
3600,-0.03690711408853531,-0.19660182297229767,-0.034376729279756546
3700,-0.035259101539850235,-0.19114308059215546,-0.03580469638109207
3800,-0.03222300484776497,-0.19529962539672852,-0.034957241266965866
3900,-0.031457558274269104,-0.19885167479515076,-0.031592801213264465
4000,-0.02829297073185444,-0.19759126007556915,-0.03255997970700264
4100,-0.0297410786151886,-0.19671472907066345,-0.03259597718715668
4200,-0.029930194839835167,-0.20088335871696472,-0.03161850944161415
4300,-0.033208128064870834,-0.2013009637594223,-0.034156497567892075
4400,-0.021748723462224007,-0.19321350753307343,-0.03410131484270096
4500,-0.018907317891716957,-0.1840682029724121,-0.033559300005435944
4600,-0.02140403352677822,-0.18645526468753815,-0.03437820449471474
4700,-0.016011569648981094,-0.1893731951713562,-0.03273654356598854
4800,-0.016740916296839714,-0.18627727031707764,-0.03294984996318817
4900,-0.02045370824635029,-0.18521378934383392,-0.031774405390024185
5000,-0.02425270527601242,-0.1848411113023758,-0.03164317086338997
5100,-0.023941155523061752,-0.1905355155467987,-0.03334692120552063
5200,-0.024744298309087753,-0.19296620786190033,-0.03394806385040283
5300,-0.025221820920705795,-0.1920497864484787,-0.03156381845474243
5400,-0.024768806993961334,-0.18861576914787292,-0.031327441334724426
5500,-0.023470746353268623,-0.18635857105255127,-0.02884480357170105
5600,-0.02609642595052719,-0.18472833931446075,-0.031016023829579353
5700,-0.029052237048745155,-0.1821531057357788,-0.03115176036953926
5800,-0.02735859528183937,-0.18194976449012756,-0.02850017137825489
5900,-0.02590508759021759,-0.18505814671516418,-0.027908511459827423
6000,-0.02549389749765396,-0.18258072435855865,-0.026809193193912506
6100,-0.027510887011885643,-0.18229816854000092,-0.02988249436020851
6200,-0.02848811075091362,-0.18344323337078094,-0.02897304855287075
6300,-0.028894027695059776,-0.1823919266462326,-0.02867710031569004
6400,-0.034195203334093094,-0.18672636151313782,-0.02802669256925583
6500,-0.03196829557418823,-0.18936939537525177,-0.029426300898194313
6600,-0.027944810688495636,-0.18678581714630127,-0.029853548854589462
6700,-0.03029794804751873,-0.18810009956359863,-0.02757987193763256
6800,-0.03208233416080475,-0.18978580832481384,-0.026550758630037308
6900,-0.03227671980857849,-0.18653598427772522,-0.027772732079029083
7000,-0.030626242980360985,-0.18342110514640808,-0.02858549728989601
7100,-0.022777991369366646,-0.18996673822402954,-0.031550031155347824
7200,-0.02155499905347824,-0.18814510107040405,-0.03080029785633087
7300,-0.02405298314988613,-0.18228480219841003,-0.030129626393318176
7400,-0.026389269158244133,-0.18527670204639435,-0.027758324518799782
7500,-0.021287014707922935,-0.1871570199728012,-0.029244733974337578
7600,-0.01834110915660858,-0.191622793674469,-0.0294259674847126
7700,-0.02266012318432331,-0.19335895776748657,-0.03200840950012207
7800,-0.022352587431669235,-0.1926155835390091,-0.02900942973792553
7900,-0.02661948651075363,-0.19069541990756989,-0.028186403214931488
8000,-0.028698375448584557,-0.19035141170024872,-0.030268141999840736
8100,-0.02271537110209465,-0.1861494779586792,-0.029468944296240807
8200,-0.017757320776581764,-0.1899069994688034,-0.03046943061053753
8300,-0.015875767916440964,-0.1873272806406021,-0.030273988842964172
8400,-0.018574727699160576,-0.18875539302825928,-0.0299665667116642
8500,-0.024985497817397118,-0.19315534830093384,-0.0322888046503067
8600,-0.025250647217035294,-0.19417963922023773,-0.02967984974384308
8700,-0.025306370109319687,-0.19431039690971375,-0.03131251037120819
8800,-0.02651607245206833,-0.18854054808616638,-0.030456285923719406
8900,-0.028602030128240585,-0.18468008935451508,-0.028554849326610565
9000,-0.02815111353993416,-0.1810278296470642,-0.027229050174355507
9100,-0.028175948187708855,-0.1793966293334961,-0.02727246657013893
9200,-0.03227943181991577,-0.17954802513122559,-0.02734592743217945
9300,-0.030441470444202423,-0.18230968713760376,-0.028086600825190544
9400,-0.03408770263195038,-0.18468259274959564,-0.027830081060528755
9500,-0.034896526485681534,-0.18455398082733154,-0.027785902842879295
9600,-0.03283851221203804,-0.1846669316291809,-0.027840306982398033
9700,-0.03178374469280243,-0.18425126373767853,-0.027653684839606285
9800,-0.03001403622329235,-0.18564850091934204,-0.02818940579891205
9900,-0.029187876731157303,-0.18559329211711884,-0.028255365788936615
10000,-0.02919226884841919,-0.1850282847881317,-0.027970116585493088
