1,0.3558664619922638,0.4597608149051666,0.4174845814704895,0.35186967253685
100,0.07220727205276489,0.07857988774776459,0.08194869011640549,0.12067072838544846
200,0.0672568827867508,0.07492348551750183,0.07640254497528076,0.1195138692855835
300,0.06559789925813675,0.07367052137851715,0.07444003969430923,0.11864037811756134
400,0.06526969373226166,0.07331079244613647,0.07385389506816864,0.11816225200891495
500,0.06483069807291031,0.07239530235528946,0.07318026572465897,0.11774279922246933
600,0.06433259695768356,0.07231150567531586,0.07333046942949295,0.11810461431741714
700,0.06427207589149475,0.07260511070489883,0.0731007307767868,0.11760211735963821
800,0.06398395448923111,0.07282806932926178,0.07318917661905289,0.1175595074892044
900,0.06435367465019226,0.07250827550888062,0.07313980162143707,0.11737612634897232
1000,0.06388507038354874,0.07254556566476822,0.07258285582065582,0.11739398539066315
1100,0.06405312567949295,0.07266352325677872,0.07322856783866882,0.11750870198011398
1200,0.06409513205289841,0.07234138250350952,0.07244345545768738,0.11714885383844376
1300,0.06414280831813812,0.07252078503370285,0.0728478878736496,0.11744483560323715
1400,0.06396561861038208,0.07217483967542648,0.07279788702726364,0.11764880269765854
1500,0.06411464512348175,0.07190533727407455,0.07270211726427078,0.117376409471035
1600,0.06400046497583389,0.07213684916496277,0.07272390276193619,0.11762182414531708
1700,0.06380095332860947,0.07238174974918365,0.07328228652477264,0.11737798899412155
1800,0.06410663574934006,0.07245524227619171,0.07244832813739777,0.11779677867889404
1900,0.06401432305574417,0.07225225865840912,0.07299772650003433,0.11753911525011063
2000,0.06418325006961823,0.07213346660137177,0.07296920567750931,0.11767171323299408
2100,0.06385017186403275,0.07218308001756668,0.07279755920171738,0.11752483993768692
2200,0.06392454355955124,0.07218655943870544,0.07284418493509293,0.11747803539037704
2300,0.06424499303102493,0.071932852268219,0.0732034295797348,0.11735955625772476
2400,0.06402083486318588,0.07225643843412399,0.07269595563411713,0.1175682321190834
2500,0.06425761431455612,0.07295147329568863,0.07283227145671844,0.11750918626785278
2600,0.06437519937753677,0.07278434932231903,0.07303623855113983,0.11756063252687454
2700,0.06369185447692871,0.07209731638431549,0.07285343110561371,0.11795882135629654
2800,0.06391441822052002,0.07269774377346039,0.07291562855243683,0.11763749271631241
2900,0.06393279135227203,0.07219162583351135,0.0725710317492485,0.11733152717351913
3000,0.06449955701828003,0.07272780686616898,0.07293173670768738,0.11737050861120224
3100,0.06467190384864807,0.07185609638690948,0.07273206859827042,0.11780916154384613
3200,0.06394784152507782,0.07286109030246735,0.07289053499698639,0.11763349175453186
3300,0.0640905350446701,0.07252999395132065,0.07289942353963852,0.11776624619960785
3400,0.06417825818061829,0.0723557323217392,0.07283525913953781,0.11798045039176941
3500,0.06445738673210144,0.0720873698592186,0.07326525449752808,0.117380291223526
3600,0.06422211229801178,0.07229655981063843,0.07306517660617828,0.11731629818677902
3700,0.06406813114881516,0.07254622131586075,0.0731835663318634,0.11752822250127792
3800,0.06418173015117645,0.07219825685024261,0.07254577428102493,0.11774470657110214
3900,0.06384721398353577,0.07307611405849457,0.07278890162706375,0.11743585765361786
4000,0.06411541253328323,0.07259421795606613,0.07269033044576645,0.11757120490074158
4100,0.06421463936567307,0.07230742275714874,0.07251877337694168,0.11740091443061829
4200,0.06443051248788834,0.07261352986097336,0.07333359867334366,0.11746466159820557
4300,0.06418059021234512,0.07238475233316422,0.07287093997001648,0.11743093281984329
4400,0.0643586739897728,0.07231791317462921,0.07291068881750107,0.11768492311239243
4500,0.06426726281642914,0.07255431264638901,0.07322759926319122,0.11746802181005478
4600,0.06460130959749222,0.07215027511119843,0.07256442308425903,0.11747123301029205
4700,0.06421130895614624,0.07245473563671112,0.07255164533853531,0.1178426519036293
4800,0.06412146240472794,0.07290991395711899,0.07243385165929794,0.11771328002214432
4900,0.06406207382678986,0.07232263684272766,0.07322314381599426,0.11748886108398438
5000,0.06434264779090881,0.0725315511226654,0.07280636578798294,0.11764763295650482
5100,0.06420233845710754,0.0728050023317337,0.07318572700023651,0.11728676408529282
5200,0.06444092094898224,0.07232543081045151,0.07274627685546875,0.11763139814138412
5300,0.06412813812494278,0.07234786450862885,0.07317246496677399,0.11763304471969604
5400,0.06435642391443253,0.07225725799798965,0.07293430715799332,0.11719974130392075
5500,0.06426012516021729,0.07217252999544144,0.0722590833902359,0.1175806000828743
5600,0.0638900101184845,0.07213561981916428,0.07268796861171722,0.11755441874265671
5700,0.0641108825802803,0.07277040183544159,0.07283980399370193,0.1175638735294342
5800,0.06407424062490463,0.07224652916193008,0.07285567373037338,0.11727849394083023
5900,0.06424421072006226,0.07257527112960815,0.07290428876876831,0.11760693788528442
6000,0.0642281025648117,0.07226507365703583,0.07284694910049438,0.11740382760763168
6100,0.06382306665182114,0.0725242868065834,0.07278548926115036,0.11748115718364716
6200,0.06440998613834381,0.07260434329509735,0.07295871526002884,0.11751630902290344
6300,0.06449127197265625,0.07236948609352112,0.07296405732631683,0.11771079897880554
6400,0.06390269100666046,0.07196605950593948,0.07261653989553452,0.11755373328924179
6500,0.06428475677967072,0.07274022698402405,0.07274263352155685,0.11768147349357605
6600,0.06417743861675262,0.07297717779874802,0.07309792190790176,0.11738928407430649
6700,0.06409946829080582,0.07216981053352356,0.07323680073022842,0.11759594082832336
6800,0.06403728574514389,0.0723147839307785,0.07289265841245651,0.1172768622636795
6900,0.06446105986833572,0.07250296324491501,0.07342462241649628,0.11720883101224899
7000,0.06418968737125397,0.07197929173707962,0.07266143709421158,0.11767952144145966
7100,0.06386247277259827,0.07231811434030533,0.07274828106164932,0.11735674738883972
7200,0.06395391374826431,0.07269997149705887,0.07290548831224442,0.1173173263669014
7300,0.06414294987916946,0.07214570045471191,0.0722024068236351,0.11759921163320541
7400,0.06401170790195465,0.07252901792526245,0.07309859246015549,0.11753878742456436
7500,0.06383827328681946,0.07285126298666,0.07255297899246216,0.11772098392248154
7600,0.06426392495632172,0.07253166288137436,0.07268478721380234,0.11744342744350433
7700,0.06431291252374649,0.07239934056997299,0.07260347902774811,0.11739923804998398
7800,0.06417049467563629,0.0726717934012413,0.07297458499670029,0.11741534620523453
7900,0.06410951912403107,0.07250674813985825,0.07270890474319458,0.11740497499704361
8000,0.06379400193691254,0.07247349619865417,0.07279365509748459,0.11730237305164337
8100,0.06402309238910675,0.07207868993282318,0.07298711687326431,0.1176152378320694
8200,0.06434082239866257,0.07220413535833359,0.07344100624322891,0.11737992614507675
8300,0.06381583958864212,0.07209393382072449,0.0727502852678299,0.11769566684961319
8400,0.06449799984693527,0.0724550113081932,0.07327787578105927,0.11721335351467133
8500,0.06413321942090988,0.07228922843933105,0.07230810821056366,0.1173926368355751
8600,0.0644354596734047,0.0719103291630745,0.07302668690681458,0.11729979515075684
8700,0.0643235445022583,0.07299432903528214,0.07264096289873123,0.11741966009140015
8800,0.06415647268295288,0.07251368463039398,0.0727798119187355,0.11755108088254929
8900,0.06422889232635498,0.07208091765642166,0.07233866304159164,0.11750400811433792
9000,0.06405963748693466,0.07264945656061172,0.07288025319576263,0.11756580322980881
9100,0.06407690793275833,0.07251009345054626,0.07272209972143173,0.11750048398971558
9200,0.06408470869064331,0.0725904330611229,0.07279058545827866,0.11764051020145416
9300,0.06415510922670364,0.0725020319223404,0.07278002798557281,0.11754020303487778
9400,0.06416086107492447,0.07245279848575592,0.07285310328006744,0.11745617538690567
9500,0.06414108723402023,0.07246404886245728,0.07291282713413239,0.11751812696456909
9600,0.06416290253400803,0.07252663373947144,0.07291682809591293,0.11754166334867477
9700,0.06412777304649353,0.07253766059875488,0.07288645207881927,0.11753415316343307
9800,0.06411242485046387,0.07247401773929596,0.07287273555994034,0.11756359040737152
9900,0.06410259008407593,0.07247275114059448,0.07290459424257278,0.11761157959699631
10000,0.06404005736112595,0.07247529923915863,0.07283557951450348,0.11762597411870956
